x-axis,1
second,Volt
-293.4000E-09,+4.1841003112E-03
-292.9000E-09,+0.0E+00
-292.4000E-09,+0.0E+00
-291.9000E-09,+0.0E+00
-291.4000E-09,-4.1841003113E-03
-290.9000E-09,+0.0E+00
-290.4000E-09,-12.5523009337E-03
-289.9000E-09,+0.0E+00
-289.4000E-09,+0.0E+00
-288.9000E-09,+0.0E+00
-288.4000E-09,+0.0E+00
-287.9000E-09,+0.0E+00
-287.4000E-09,+0.0E+00
-286.9000E-09,+0.0E+00
-286.4000E-09,+0.0E+00
-285.9000E-09,+0.0E+00
-285.4000E-09,+12.5523009337E-03
-284.9000E-09,+4.1841003112E-03
-284.4000E-09,+4.1841003113E-03
-283.9000E-09,-16.7364012450E-03
-283.4000E-09,+0.0E+00
-282.9000E-09,-16.7364012450E-03
-282.4000E-09,-16.7364012450E-03
-281.9000E-09,-12.5523009338E-03
-281.4000E-09,-16.7364012450E-03
-280.9000E-09,+0.0E+00
-280.4000E-09,+0.0E+00
-279.9000E-09,-4.1841003112E-03
-279.4000E-09,-4.1841003113E-03
-278.9000E-09,-4.1841003112E-03
-278.4000E-09,+0.0E+00
-277.9000E-09,+8.3682006226E-03
-277.4000E-09,-8.3682006224E-03
-276.9000E-09,+12.5523009338E-03
-276.4000E-09,-16.7364012450E-03
-275.9000E-09,+0.0E+00
-275.4000E-09,-4.1841003113E-03
-274.9000E-09,-12.5523009338E-03
-274.4000E-09,-12.5523009337E-03
-273.9000E-09,-16.7364012450E-03
-273.4000E-09,-16.7364012450E-03
-272.9000E-09,-16.7364012450E-03
-272.4000E-09,-4.1841003113E-03
-271.9000E-09,+0.0E+00
-271.4000E-09,-12.5523009337E-03
-270.9000E-09,-25.1046018676E-03
-270.4000E-09,-12.5523009337E-03
-269.9000E-09,-12.5523009338E-03
-269.4000E-09,-16.7364012450E-03
-268.9000E-09,+0.0E+00
-268.4000E-09,-16.7364012450E-03
-267.9000E-09,+0.0E+00
-267.4000E-09,+0.0E+00
-266.9000E-09,-4.1841003112E-03
-266.4000E-09,-29.2887021787E-03
-265.9000E-09,-16.7364012450E-03
-265.4000E-09,+8.3682006224E-03
-264.9000E-09,-16.7364012450E-03
-264.4000E-09,-20.9205015563E-03
-263.9000E-09,-4.1841003112E-03
-263.4000E-09,-16.7364012450E-03
-262.9000E-09,-16.7364012450E-03
-262.4000E-09,+0.0E+00
-261.9000E-09,+4.1841003112E-03
-261.4000E-09,+4.1841003113E-03
-260.9000E-09,+0.0E+00
-260.4000E-09,+0.0E+00
-259.9000E-09,+0.0E+00
-259.4000E-09,+12.5523009337E-03
-258.9000E-09,+4.1841003112E-03
-258.4000E-09,-16.7364012450E-03
-257.9000E-09,+0.0E+00
-257.4000E-09,+0.0E+00
-256.9000E-09,-16.7364012450E-03
-256.4000E-09,-16.7364012450E-03
-255.9000E-09,-4.1841003112E-03
-255.4000E-09,+0.0E+00
-254.9000E-09,+4.1841003112E-03
-254.4000E-09,+0.0E+00
-253.9000E-09,+12.5523009338E-03
-253.4000E-09,+0.0E+00
-252.9000E-09,+12.5523009339E-03
-252.4000E-09,+16.7364012450E-03
-251.9000E-09,-16.7364012450E-03
-251.4000E-09,+16.7364012450E-03
-250.9000E-09,+0.0E+00
-250.4000E-09,+0.0E+00
-249.9000E-09,-25.1046018677E-03
-249.4000E-09,-16.7364012450E-03
-248.9000E-09,-16.7364012450E-03
-248.4000E-09,-16.7364012450E-03
-247.9000E-09,-16.7364012450E-03
-247.4000E-09,-12.5523009336E-03
-246.9000E-09,-4.1841003111E-03
-246.4000E-09,+0.0E+00
-245.9000E-09,-4.1841003111E-03
-245.4000E-09,-12.5523009336E-03
-244.9000E-09,+0.0E+00
-244.4000E-09,-12.5523009336E-03
-243.9000E-09,-12.5523009339E-03
-243.4000E-09,-4.1841003114E-03
-242.9000E-09,-16.7364012450E-03
-242.4000E-09,-4.1841003114E-03
-241.9000E-09,-16.7364012450E-03
-241.4000E-09,-12.5523009336E-03
-240.9000E-09,-12.5523009339E-03
-240.4000E-09,+0.0E+00
-239.9000E-09,+0.0E+00
-239.4000E-09,+4.1841003114E-03
-238.9000E-09,-12.5523009339E-03
-238.4000E-09,+4.1841003114E-03
-237.9000E-09,+0.0E+00
-237.4000E-09,+0.0E+00
-236.9000E-09,+0.0E+00
-236.4000E-09,+12.5523009336E-03
-235.9000E-09,-16.7364012450E-03
-235.4000E-09,-4.1841003114E-03
-234.9000E-09,-16.7364012450E-03
-234.4000E-09,-12.5523009336E-03
-233.9000E-09,-12.5523009339E-03
-233.4000E-09,+0.0E+00
-232.9000E-09,-4.1841003111E-03
-232.4000E-09,-4.1841003114E-03
-231.9000E-09,+4.1841003111E-03
-231.4000E-09,-12.5523009336E-03
-230.9000E-09,-4.1841003111E-03
-230.4000E-09,+0.0E+00
-229.9000E-09,+4.1841003111E-03
-229.4000E-09,+0.0E+00
-228.9000E-09,+0.0E+00
-228.4000E-09,+0.0E+00
-227.9000E-09,+0.0E+00
-227.4000E-09,-4.1841003114E-03
-226.9000E-09,+0.0E+00
-226.4000E-09,+0.0E+00
-225.9000E-09,+4.1841003111E-03
-225.4000E-09,-16.7364012450E-03
-224.9000E-09,+8.3682006227E-03
-224.4000E-09,-12.5523009336E-03
-223.9000E-09,-16.7364012450E-03
-223.4000E-09,-12.5523009336E-03
-222.9000E-09,-12.5523009339E-03
-222.4000E-09,+0.0E+00
-221.9000E-09,+0.0E+00
-221.4000E-09,+0.0E+00
-220.9000E-09,+12.5523009339E-03
-220.4000E-09,+0.0E+00
-219.9000E-09,-16.7364012450E-03
-219.4000E-09,+0.0E+00
-218.9000E-09,+0.0E+00
-218.4000E-09,+0.0E+00
-217.9000E-09,-12.5523009338E-03
-217.4000E-09,-12.5523009336E-03
-216.9000E-09,-4.1841003112E-03
-216.4000E-09,-16.7364012450E-03
-215.9000E-09,-16.7364012450E-03
-215.4000E-09,-29.2887021787E-03
-214.9000E-09,-16.7364012450E-03
-214.4000E-09,+0.0E+00
-213.9000E-09,-4.1841003112E-03
-213.4000E-09,-16.7364012450E-03
-212.9000E-09,-4.1841003112E-03
-212.4000E-09,-8.3682006223E-03
-211.9000E-09,+0.0E+00
-211.4000E-09,+0.0E+00
-210.9000E-09,-12.5523009338E-03
-210.4000E-09,+0.0E+00
-209.9000E-09,-4.1841003112E-03
-209.4000E-09,-12.5523009337E-03
-208.9000E-09,-16.7364012450E-03
-208.4000E-09,-16.7364012450E-03
-207.9000E-09,+0.0E+00
-207.4000E-09,-12.5523009337E-03
-206.9000E-09,-8.3682006227E-03
-206.4000E-09,+0.0E+00
-205.9000E-09,-16.7364012450E-03
-205.4000E-09,-20.9205015563E-03
-204.9000E-09,-16.7364012450E-03
-204.4000E-09,-16.7364012450E-03
-203.9000E-09,+0.0E+00
-203.4000E-09,-16.7364012450E-03
-202.9000E-09,+0.0E+00
-202.4000E-09,-16.7364012450E-03
-201.9000E-09,+0.0E+00
-201.4000E-09,-4.1841003113E-03
-200.9000E-09,-12.5523009338E-03
-200.4000E-09,-4.1841003113E-03
-199.9000E-09,-4.1841003112E-03
-199.4000E-09,-16.7364012450E-03
-198.9000E-09,-29.2887021788E-03
-198.4000E-09,-16.7364012450E-03
-197.9000E-09,-12.5523009338E-03
-197.4000E-09,-4.1841003113E-03
-196.9000E-09,-12.5523009338E-03
-196.4000E-09,+0.0E+00
-195.9000E-09,+0.0E+00
-195.4000E-09,-16.7364012450E-03
-194.9000E-09,+0.0E+00
-194.4000E-09,-16.7364012450E-03
-193.9000E-09,+0.0E+00
-193.4000E-09,+0.0E+00
-192.9000E-09,-16.7364012450E-03
-192.4000E-09,-16.7364012450E-03
-191.9000E-09,-16.7364012450E-03
-191.4000E-09,+0.0E+00
-190.9000E-09,+0.0E+00
-190.4000E-09,-12.5523009337E-03
-189.9000E-09,-16.7364012450E-03
-189.4000E-09,-16.7364012450E-03
-188.9000E-09,-4.1841003112E-03
-188.4000E-09,+0.0E+00
-187.9000E-09,-16.7364012450E-03
-187.4000E-09,+0.0E+00
-186.9000E-09,+0.0E+00
-186.4000E-09,-4.1841003113E-03
-185.9000E-09,-12.5523009338E-03
-185.4000E-09,+0.0E+00
-184.9000E-09,+0.0E+00
-184.4000E-09,+0.0E+00
-183.9000E-09,+0.0E+00
-183.4000E-09,-12.5523009337E-03
-182.9000E-09,-16.7364012450E-03
-182.4000E-09,-12.5523009337E-03
-181.9000E-09,-4.1841003112E-03
-181.4000E-09,-12.5523009337E-03
-180.9000E-09,+12.5523009338E-03
-180.4000E-09,+0.0E+00
-179.9000E-09,+0.0E+00
-179.4000E-09,-4.1841003113E-03
-178.9000E-09,-12.5523009338E-03
-178.4000E-09,+0.0E+00
-177.9000E-09,+0.0E+00
-177.4000E-09,+0.0E+00
-176.9000E-09,-16.7364012450E-03
-176.4000E-09,+0.0E+00
-175.9000E-09,+0.0E+00
-175.4000E-09,-12.5523009337E-03
-174.9000E-09,-16.7364012450E-03
-174.4000E-09,-12.5523009337E-03
-173.9000E-09,-4.1841003112E-03
-173.4000E-09,-16.7364012450E-03
-172.9000E-09,-4.1841003112E-03
-172.4000E-09,-4.1841003113E-03
-171.9000E-09,-16.7364012450E-03
-171.4000E-09,-4.1841003113E-03
-170.9000E-09,-16.7364012450E-03
-170.4000E-09,-16.7364012450E-03
-169.9000E-09,-16.7364012450E-03
-169.4000E-09,-4.1841003113E-03
-168.9000E-09,-16.7364012450E-03
-168.4000E-09,+12.5523009337E-03
-167.9000E-09,-16.7364012450E-03
-167.4000E-09,-8.3682006225E-03
-166.9000E-09,-4.1841003112E-03
-166.4000E-09,-12.5523009337E-03
-165.9000E-09,+0.0E+00
-165.4000E-09,-12.5523009337E-03
-164.9000E-09,-12.5523009337E-03
-164.4000E-09,-12.5523009337E-03
-163.9000E-09,-29.2887021787E-03
-163.4000E-09,+0.0E+00
-162.9000E-09,-4.1841003113E-03
-162.4000E-09,-4.1841003112E-03
-161.9000E-09,+0.0E+00
-161.4000E-09,-12.5523009338E-03
-160.9000E-09,-16.7364012450E-03
-160.4000E-09,-29.2887021788E-03
-159.9000E-09,-16.7364012450E-03
-159.4000E-09,+0.0E+00
-158.9000E-09,-4.1841003113E-03
-158.4000E-09,-4.1841003112E-03
-157.9000E-09,-4.1841003113E-03
-157.4000E-09,-4.1841003112E-03
-156.9000E-09,+12.5523009337E-03
-156.4000E-09,+12.5523009338E-03
-155.9000E-09,-4.1841003113E-03
-155.4000E-09,+4.1841003112E-03
-154.9000E-09,+0.0E+00
-154.4000E-09,-4.1841003112E-03
-153.9000E-09,-8.3682006225E-03
-153.4000E-09,+0.0E+00
-152.9000E-09,+8.3682006225E-03
-152.4000E-09,+0.0E+00
-151.9000E-09,+0.0E+00
-151.4000E-09,+0.0E+00
-150.9000E-09,-4.1841003113E-03
-150.4000E-09,+0.0E+00
-149.9000E-09,-16.7364012450E-03
-149.4000E-09,-16.7364012450E-03
-148.9000E-09,+0.0E+00
-148.4000E-09,-4.1841003112E-03
-147.9000E-09,-12.5523009337E-03
-147.4000E-09,-4.1841003112E-03
-146.9000E-09,-12.5523009337E-03
-146.4000E-09,+4.1841003112E-03
-145.9000E-09,+0.0E+00
-145.4000E-09,-12.5523009338E-03
-144.9000E-09,-12.5523009337E-03
-144.4000E-09,+0.0E+00
-143.9000E-09,+12.5523009337E-03
-143.4000E-09,-8.3682006226E-03
-142.9000E-09,-12.5523009337E-03
-142.4000E-09,+0.0E+00
-141.9000E-09,-4.1841003113E-03
-141.4000E-09,+0.0E+00
-140.9000E-09,-4.1841003113E-03
-140.4000E-09,-16.7364012450E-03
-139.9000E-09,-16.7364012450E-03
-139.4000E-09,-16.7364012450E-03
-138.9000E-09,-16.7364012450E-03
-138.4000E-09,-16.7364012450E-03
-137.9000E-09,-12.5523009337E-03
-137.4000E-09,+0.0E+00
-136.9000E-09,-12.5523009337E-03
-136.4000E-09,-8.3682006224E-03
-135.9000E-09,+0.0E+00
-135.4000E-09,-4.1841003112E-03
-134.9000E-09,-16.7364012450E-03
-134.4000E-09,-12.5523009338E-03
-133.9000E-09,+0.0E+00
-133.4000E-09,+0.0E+00
-132.9000E-09,+0.0E+00
-132.4000E-09,+0.0E+00
-131.9000E-09,+0.0E+00
-131.4000E-09,-4.1841003112E-03
-130.9000E-09,-4.1841003113E-03
-130.4000E-09,-16.7364012450E-03
-129.9000E-09,-12.5523009337E-03
-129.4000E-09,-16.7364012450E-03
-128.9000E-09,-29.2887021787E-03
-128.4000E-09,-16.7364012450E-03
-127.9000E-09,-4.1841003113E-03
-127.4000E-09,-4.1841003112E-03
-126.9000E-09,+0.0E+00
-126.4000E-09,+0.0E+00
-125.9000E-09,-4.1841003113E-03
-125.4000E-09,+0.0E+00
-124.9000E-09,+16.7364012450E-03
-124.4000E-09,+16.7364012450E-03
-123.9000E-09,-16.7364012450E-03
-123.4000E-09,+0.0E+00
-122.9000E-09,-29.2887021787E-03
-122.4000E-09,-12.5523009338E-03
-121.9000E-09,-25.1046018673E-03
-121.4000E-09,-16.7364012450E-03
-120.9000E-09,-4.1841003113E-03
-120.4000E-09,-12.5523009338E-03
-119.9000E-09,+0.0E+00
-119.4000E-09,-16.7364012450E-03
-118.9000E-09,-4.1841003113E-03
-118.4000E-09,-4.1841003112E-03
-117.9000E-09,-16.7364012450E-03
-117.4000E-09,-16.7364012450E-03
-116.9000E-09,-4.1841003113E-03
-116.4000E-09,-16.7364012450E-03
-115.9000E-09,-16.7364012450E-03
-115.4000E-09,-20.9205015562E-03
-114.9000E-09,-16.7364012450E-03
-114.4000E-09,-16.7364012450E-03
-113.9000E-09,-16.7364012450E-03
-113.4000E-09,+0.0E+00
-112.9000E-09,-16.7364012450E-03
-112.4000E-09,-12.5523009338E-03
-111.9000E-09,+0.0E+00
-111.4000E-09,+4.1841003112E-03
-110.9000E-09,+0.0E+00
-110.4000E-09,-12.5523009338E-03
-109.9000E-09,-16.7364012450E-03
-109.4000E-09,+4.1841003112E-03
-108.9000E-09,+12.5523009337E-03
-108.4000E-09,+0.0E+00
-107.9000E-09,+0.0E+00
-107.4000E-09,+0.0E+00
-106.9000E-09,-16.7364012450E-03
-106.4000E-09,-16.7364012450E-03
-105.9000E-09,-12.5523009337E-03
-105.4000E-09,+0.0E+00
-104.9000E-09,-4.1841003113E-03
-104.4000E-09,-4.1841003112E-03
-103.9000E-09,-12.5523009337E-03
-103.4000E-09,-16.7364012450E-03
-102.9000E-09,-16.7364012450E-03
-102.4000E-09,+0.0E+00
-101.9000E-09,+0.0E+00
-101.4000E-09,+0.0E+00
-100.9000E-09,+0.0E+00
-100.4000E-09,+12.5523009338E-03
-99.9000E-09,+0.0E+00
-99.4000E-09,+12.5523009338E-03
-98.9000E-09,+16.7364012450E-03
-98.4000E-09,-16.7364012450E-03
-97.9000E-09,-4.1841003113E-03
-97.4000E-09,-16.7364012450E-03
-96.9000E-09,-16.7364012450E-03
-96.4000E-09,-16.7364012450E-03
-95.9000E-09,-16.7364012450E-03
-95.4000E-09,-4.1841003112E-03
-94.9000E-09,-4.1841003113E-03
-94.4000E-09,+0.0E+00
-93.9000E-09,-12.5523009337E-03
-93.4000E-09,-16.7364012450E-03
-92.9000E-09,-4.1841003113E-03
-92.4000E-09,-12.5523009338E-03
-91.9000E-09,-20.9205015563E-03
-91.4000E-09,+0.0E+00
-90.9000E-09,-12.5523009337E-03
-90.4000E-09,-4.1841003112E-03
-89.9000E-09,-12.5523009337E-03
-89.4000E-09,-16.7364012450E-03
-88.9000E-09,-4.1841003113E-03
-88.4000E-09,-16.7364012450E-03
-87.9000E-09,-16.7364012450E-03
-87.4000E-09,-16.7364012450E-03
-86.9000E-09,+0.0E+00
-86.4000E-09,-12.5523009338E-03
-85.9000E-09,+8.3682006224E-03
-85.4000E-09,-12.5523009338E-03
-84.9000E-09,+0.0E+00
-84.4000E-09,+0.0E+00
-83.9000E-09,+4.1841003113E-03
-83.4000E-09,+0.0E+00
-82.9000E-09,+0.0E+00
-82.4000E-09,+4.1841003112E-03
-81.9000E-09,+0.0E+00
-81.4000E-09,+0.0E+00
-80.9000E-09,-16.7364012450E-03
-80.4000E-09,-16.7364012450E-03
-79.9000E-09,-12.5523009337E-03
-79.4000E-09,-12.5523009338E-03
-78.9000E-09,-16.7364012450E-03
-78.4000E-09,+0.0E+00
-77.9000E-09,-12.5523009337E-03
-77.4000E-09,-16.7364012450E-03
-76.9000E-09,-16.7364012450E-03
-76.4000E-09,-4.1841003112E-03
-75.9000E-09,+0.0E+00
-75.4000E-09,+0.0E+00
-74.9000E-09,+4.1841003113E-03
-74.4000E-09,+0.0E+00
-73.9000E-09,-12.5523009337E-03
-73.4000E-09,+0.0E+00
-72.9000E-09,-16.7364012450E-03
-72.4000E-09,-4.1841003112E-03
-71.9000E-09,+0.0E+00
-71.4000E-09,-4.1841003112E-03
-70.9000E-09,-12.5523009337E-03
-70.4000E-09,-8.3682006226E-03
-69.9000E-09,-8.3682006224E-03
-69.4000E-09,-4.1841003112E-03
-68.9000E-09,+0.0E+00
-68.4000E-09,+0.0E+00
-67.9000E-09,-12.5523009337E-03
-67.4000E-09,+0.0E+00
-66.9000E-09,+0.0E+00
-66.4000E-09,-12.5523009338E-03
-65.9000E-09,+4.1841003113E-03
-65.4000E-09,-4.1841003112E-03
-64.9000E-09,+0.0E+00
-64.4000E-09,-16.7364012450E-03
-63.9000E-09,-4.1841003113E-03
-63.4000E-09,+0.0E+00
-62.9000E-09,+0.0E+00
-62.4000E-09,+0.0E+00
-61.9000E-09,+0.0E+00
-61.4000E-09,+0.0E+00
-60.9000E-09,+16.7364012450E-03
-60.4000E-09,+16.7364012450E-03
-59.9000E-09,-12.5523009337E-03
-59.4000E-09,+4.1841003112E-03
-58.9000E-09,+0.0E+00
-58.4000E-09,-4.1841003112E-03
-57.9000E-09,-12.5523009337E-03
-57.4000E-09,-4.1841003112E-03
-56.9000E-09,+0.0E+00
-56.4000E-09,+12.5523009338E-03
-55.9000E-09,+12.5523009337E-03
-55.4000E-09,-12.5523009338E-03
-54.9000E-09,+0.0E+00
-54.4000E-09,+0.0E+00
-53.9000E-09,-4.1841003113E-03
-53.4000E-09,-12.5523009338E-03
-52.9000E-09,+0.0E+00
-52.4000E-09,+0.0E+00
-51.9000E-09,-4.1841003113E-03
-51.4000E-09,+0.0E+00
-50.9000E-09,-12.5523009337E-03
-50.4000E-09,+0.0E+00
-49.9000E-09,+12.5523009337E-03
-49.4000E-09,+16.7364012450E-03
-48.9000E-09,-16.7364012450E-03
-48.4000E-09,+0.0E+00
-47.9000E-09,+0.0E+00
-47.4000E-09,-12.5523009338E-03
-46.9000E-09,-12.5523009337E-03
-46.4000E-09,-12.5523009338E-03
-45.9000E-09,-16.7364012450E-03
-45.4000E-09,-16.7364012450E-03
-44.9000E-09,-4.1841003113E-03
-44.4000E-09,-16.7364012450E-03
-43.9000E-09,-4.1841003113E-03
-43.4000E-09,+0.0E+00
-42.9000E-09,+0.0E+00
-42.4000E-09,-4.1841003112E-03
-41.9000E-09,-12.5523009337E-03
-41.4000E-09,+0.0E+00
-40.9000E-09,-12.5523009337E-03
-40.4000E-09,+54.3933040464E-03
-39.9000E-09,+188.2845140065E-03
-39.4000E-09,+426.7782317478E-03
-38.9000E-09,+661.0878491778E-03
-38.4000E-09,+857.7405638063E-03
-37.9000E-09,+928.8702690975E-03
-37.4000E-09,+937.2384697199E-03
-36.9000E-09,+916.3179681636E-03
-36.4000E-09,+878.6610653623E-03
-35.9000E-09,+857.7405638062E-03
-35.4000E-09,+853.5564634949E-03
-34.9000E-09,+853.5564634949E-03
-34.4000E-09,+841.0041625611E-03
-33.9000E-09,+849.3723631836E-03
-33.4000E-09,+824.2677613161E-03
-32.9000E-09,+799.1631594486E-03
-32.4000E-09,+702.9288522897E-03
-31.9000E-09,+531.3807395284E-03
-31.4000E-09,+334.7280248997E-03
-30.9000E-09,+117.1548087148E-03
-30.4000E-09,-37.6569028014E-03
-29.9000E-09,-179.9163133839E-03
-29.4000E-09,-276.1506205426E-03
-28.9000E-09,-359.8326267676E-03
-28.4000E-09,-426.7782317475E-03
-27.9000E-09,-510.4602379725E-03
-27.4000E-09,-548.1171407737E-03
-26.9000E-09,-589.9581438862E-03
-26.4000E-09,-619.2468460649E-03
-25.9000E-09,-669.4560497999E-03
-25.4000E-09,-686.1924510449E-03
-24.9000E-09,-711.2970529125E-03
-24.4000E-09,-753.1380560249E-03
-23.9000E-09,-790.7949588262E-03
-23.4000E-09,-803.3472597599E-03
-22.9000E-09,-824.2677613162E-03
-22.4000E-09,-836.8200622499E-03
-21.9000E-09,-857.7405638062E-03
-21.4000E-09,-870.2928647399E-03
-20.9000E-09,-870.2928647399E-03
-20.4000E-09,-887.0292659849E-03
-19.9000E-09,-874.4769650512E-03
-19.4000E-09,-874.4769650511E-03
-18.9000E-09,-870.2928647399E-03
-18.4000E-09,-849.3723631837E-03
-17.9000E-09,-820.0836610049E-03
-17.4000E-09,-803.3472597599E-03
-16.9000E-09,-799.1631594486E-03
-16.4000E-09,-757.3221563361E-03
-15.9000E-09,-732.2175544686E-03
-15.4000E-09,-715.4811532237E-03
-14.9000E-09,-698.7447519786E-03
-14.4000E-09,-669.4560497999E-03
-13.9000E-09,-640.1673476212E-03
-13.4000E-09,-640.1673476211E-03
-12.9000E-09,-602.5104448199E-03
-12.4000E-09,-602.5104448199E-03
-11.9000E-09,-560.6694417073E-03
-11.4000E-09,-523.0125389061E-03
-10.9000E-09,-497.9079370386E-03
-10.4000E-09,-456.0669339261E-03
-9.9000E-09,-418.4100311249E-03
-9.4000E-09,-389.1213289462E-03
-8.9000E-09,-368.2008273900E-03
-8.4000E-09,-338.9121252112E-03
-7.9000E-09,-322.1757239663E-03
-7.4000E-09,-359.8326267676E-03
-6.9000E-09,-485.3556361052E-03
-6.4000E-09,-635.9832473101E-03
-5.9000E-09,-761.5062566475E-03
-5.4000E-09,-820.0836610049E-03
-4.9000E-09,-832.6359619386E-03
-4.4000E-09,-807.5313600711E-03
-3.9000E-09,-799.1631594486E-03
-3.4000E-09,-774.0585575811E-03
-2.9000E-09,-753.1380560249E-03
-2.4000E-09,-753.1380560249E-03
-1.9000E-09,-753.1380560249E-03
-1.4000E-09,-740.5857550911E-03
-900.0E-12,-589.9581438858E-03
-400.0E-12,-200.8368149393E-03
+100.0E-12,+355.6485264569E-03
+600.0E-12,+857.7405638067E-03
+1.1000E-09,+1.1380752846601E+00
+1.6000E-09,+1.2217572908849E+00
+2.1000E-09,+1.1506275855936E+00
+2.6000E-09,+1.0669455793685E+00
+3.1000E-09,+887.0292659845E-03
+3.6000E-09,+468.6192348593E-03
+4.1000E-09,-79.4979059145E-03
+4.6000E-09,-560.6694417080E-03
+5.1000E-09,-820.0836610051E-03
+5.6000E-09,-874.4769650511E-03
+6.1000E-09,-728.0334541569E-03
+6.6000E-09,-271.9665202305E-03
+7.1000E-09,+292.8870217882E-03
+7.6000E-09,+811.7154603829E-03
+8.1000E-09,+1.1213388834151E+00
+8.6000E-09,+1.1882844883949E+00
+9.1000E-09,+1.1631798865273E+00
+9.6000E-09,+1.0836819806135E+00
+10.1000E-09,+1.0376568771899E+00
+10.6000E-09,+1.0083681750111E+00
+11.1000E-09,+1.0209204759449E+00
+11.6000E-09,+991.6317737661E-03
+12.1000E-09,+841.0041625608E-03
+12.6000E-09,+443.5146329919E-03
+13.1000E-09,-121.3389090269E-03
+13.6000E-09,-594.1422441980E-03
+14.1000E-09,-765.6903569586E-03
+14.6000E-09,-543.9330404619E-03
+15.1000E-09,+12.5523009345E-03
+15.6000E-09,+598.3263445094E-03
+16.1000E-09,+991.6317737664E-03
+16.6000E-09,+1.1297070840375E+00
+17.1000E-09,+1.1046024821699E+00
+17.6000E-09,+1.0292886765673E+00
+18.1000E-09,+979.0794728323E-03
+18.6000E-09,+937.2384697199E-03
+19.1000E-09,+958.1589712762E-03
+19.6000E-09,+970.7112722099E-03
+20.1000E-09,+920.5020684747E-03
+20.6000E-09,+640.1673476207E-03
+21.1000E-09,+125.5230093367E-03
+21.6000E-09,-435.1464323706E-03
+22.1000E-09,-841.0041625614E-03
+22.6000E-09,-983.2635731437E-03
+23.1000E-09,-878.6610653621E-03
+23.6000E-09,-460.2510342367E-03
+24.1000E-09,+142.2594105832E-03
+24.6000E-09,+677.8242504230E-03
+25.1000E-09,+983.2635731438E-03
+25.6000E-09,+1.0585773787461E+00
+26.1000E-09,+1.0334727768786E+00
+26.6000E-09,+958.1589712761E-03
+27.1000E-09,+920.5020684749E-03
+27.6000E-09,+907.9497675411E-03
+28.1000E-09,+870.2928647399E-03
+28.6000E-09,+728.0334541571E-03
+29.1000E-09,+313.8075233430E-03
+29.6000E-09,-271.9665202320E-03
+30.1000E-09,-744.7698554030E-03
+30.6000E-09,-1.0083681750113E+00
+31.1000E-09,-1.0669455793686E+00
+31.6000E-09,-999.9999743885E-03
+32.1000E-09,-803.3472597595E-03
+32.6000E-09,-384.9372286343E-03
+33.1000E-09,+154.8117115169E-03
+33.6000E-09,+648.5355482442E-03
+34.1000E-09,+933.0543694088E-03
+34.6000E-09,+1.0334727768787E+00
+35.1000E-09,+999.9999743886E-03
+35.6000E-09,+941.4225700311E-03
+36.1000E-09,+887.0292659847E-03
+36.6000E-09,+786.6108585147E-03
+37.1000E-09,+456.0669339256E-03
+37.6000E-09,-66.9456049806E-03
+38.1000E-09,-594.1422441980E-03
+38.6000E-09,-945.6066703427E-03
+39.1000E-09,-1.0460250778125E+00
+39.6000E-09,-1.0585773787461E+00
+40.1000E-09,-991.6317737660E-03
+40.6000E-09,-882.8451656735E-03
+41.1000E-09,-615.0627457532E-03
+41.6000E-09,-121.3389090255E-03
+42.1000E-09,+414.2259308143E-03
+42.6000E-09,+807.5313600715E-03
+43.1000E-09,+1.0083681750112E+00
+43.6000E-09,+995.8158740773E-03
+44.1000E-09,+966.5271718986E-03
+44.6000E-09,+891.2133662961E-03
+45.1000E-09,+673.6401501108E-03
+45.6000E-09,+242.6778180517E-03
+46.1000E-09,-305.4393227219E-03
+46.6000E-09,-782.4267582041E-03
+47.1000E-09,-1.0167363756338E+00
+47.6000E-09,-1.0669455793687E+00
+48.1000E-09,-999.9999743886E-03
+48.6000E-09,-941.4225700311E-03
+49.1000E-09,-887.0292659847E-03
+49.6000E-09,-661.0878491771E-03
+50.1000E-09,-209.2050155618E-03
+50.6000E-09,+364.0167270793E-03
+51.1000E-09,+807.5313600714E-03
+51.6000E-09,+979.0794728325E-03
+52.1000E-09,+1.0125522753223E+00
+52.6000E-09,+974.8953725211E-03
+53.1000E-09,+870.2928647397E-03
+53.6000E-09,+619.2468460645E-03
+54.1000E-09,+146.4435108931E-03
+54.6000E-09,-401.6736298805E-03
+55.1000E-09,-815.8995606940E-03
+55.6000E-09,-999.9999743887E-03
+56.1000E-09,-1.0460250778123E+00
+56.6000E-09,-974.8953725211E-03
+57.1000E-09,-937.2384697199E-03
+57.6000E-09,-907.9497675411E-03
+58.1000E-09,-899.5815669186E-03
+58.6000E-09,-887.0292659849E-03
+59.1000E-09,-887.0292659849E-03
+59.6000E-09,-887.0292659849E-03
+60.1000E-09,-882.8451656736E-03
+60.6000E-09,-874.4769650511E-03
+61.1000E-09,-824.2677613160E-03
+61.6000E-09,-673.6401501109E-03
+62.1000E-09,-251.0460186744E-03
+62.6000E-09,+292.8870217881E-03
+63.1000E-09,+757.3221563366E-03
+63.6000E-09,+1.0334727768789E+00
+64.1000E-09,+1.1046024821699E+00
+64.6000E-09,+1.0753137799911E+00
+65.1000E-09,+1.0125522753223E+00
+65.6000E-09,+958.1589712761E-03
+66.1000E-09,+933.0543694086E-03
+66.6000E-09,+882.8451656735E-03
+67.1000E-09,+631.7991469983E-03
+67.6000E-09,+142.2594105818E-03
+68.1000E-09,-422.5941314368E-03
+68.6000E-09,-832.6359619390E-03
+69.1000E-09,-991.6317737662E-03
+69.6000E-09,-979.0794728323E-03
+70.1000E-09,-799.1631594483E-03
+70.6000E-09,-384.9372286345E-03
+71.1000E-09,+188.2845140068E-03
+71.6000E-09,+677.8242504229E-03
+72.1000E-09,+966.5271718988E-03
+72.6000E-09,+1.0376568771899E+00
+73.1000E-09,+1.0292886765673E+00
+73.6000E-09,+974.8953725211E-03
+74.1000E-09,+933.0543694086E-03
+74.6000E-09,+836.8200622497E-03
+75.1000E-09,+610.8786454420E-03
+75.6000E-09,+104.6025077807E-03
+76.1000E-09,-451.8828336154E-03
+76.6000E-09,-857.7405638064E-03
+77.1000E-09,-1.0125522753225E+00
+77.6000E-09,-1.0209204759449E+00
+78.1000E-09,-962.3430715873E-03
+78.6000E-09,-887.0292659847E-03
+79.1000E-09,-719.6652535346E-03
+79.6000E-09,-301.2552224095E-03
+80.1000E-09,+242.6778180530E-03
+80.6000E-09,+728.0334541578E-03
+81.1000E-09,+974.8953725213E-03
+81.6000E-09,+1.0376568771899E+00
+82.1000E-09,+999.9999743886E-03
+82.6000E-09,+953.9748709649E-03
+83.1000E-09,+933.0543694086E-03
+83.6000E-09,+891.2133662961E-03
+84.1000E-09,+903.7656672299E-03
+84.6000E-09,+887.0292659849E-03
+85.1000E-09,+887.0292659849E-03
+85.6000E-09,+866.1087644287E-03
+86.1000E-09,+845.1882628723E-03
+86.6000E-09,+707.1129526010E-03
+87.1000E-09,+317.9916236545E-03
+87.6000E-09,-205.0209152516E-03
+88.1000E-09,-702.9288522902E-03
+88.6000E-09,-999.9999743888E-03
+89.1000E-09,-1.0920501812362E+00
+89.6000E-09,-1.0543932784349E+00
+90.1000E-09,-1.0083681750110E+00
+90.6000E-09,-953.9748709649E-03
+91.1000E-09,-920.5020684749E-03
+91.6000E-09,-924.6861687861E-03
+92.1000E-09,-891.2133662960E-03
+92.6000E-09,-698.7447519784E-03
+93.1000E-09,-230.1255171183E-03
+93.6000E-09,+343.0962255229E-03
+94.1000E-09,+803.3472597602E-03
+94.6000E-09,+991.6317737662E-03
+95.1000E-09,+928.8702690972E-03
+95.6000E-09,+539.7489401507E-03
+96.1000E-09,-41.8410031129E-03
+96.6000E-09,-573.2217426415E-03
+97.1000E-09,-924.6861687863E-03
+97.6000E-09,-1.0334727768787E+00
+98.1000E-09,-999.9999743886E-03
+98.6000E-09,-949.7907706535E-03
+99.1000E-09,-903.7656672299E-03
+99.6000E-09,-887.0292659849E-03
+100.1000E-09,-845.1882628723E-03
+100.6000E-09,-631.7991469985E-03
+101.1000E-09,-158.9958118271E-03
+101.6000E-09,+414.2259308141E-03
+102.1000E-09,+824.2677613164E-03
+102.6000E-09,+1.0251045762562E+00
+103.1000E-09,+1.0669455793686E+00
+103.6000E-09,+1.0083681750111E+00
+104.1000E-09,+866.1087644285E-03
+104.6000E-09,+556.4853413959E-03
+105.1000E-09,+75.3138056021E-03
+105.6000E-09,-464.4351345491E-03
+106.1000E-09,-832.6359619389E-03
+106.6000E-09,-999.9999743887E-03
+107.1000E-09,-1.0041840746999E+00
+107.6000E-09,-945.6066703423E-03
+108.1000E-09,-903.7656672299E-03
+108.6000E-09,-891.2133662961E-03
+109.1000E-09,-887.0292659849E-03
+109.6000E-09,-882.8451656737E-03
+110.1000E-09,-887.0292659849E-03
+110.6000E-09,-870.2928647399E-03
+111.1000E-09,-866.1087644286E-03
+111.6000E-09,-824.2677613161E-03
+112.1000E-09,-656.9037488660E-03
+112.6000E-09,-267.7824199196E-03
+113.1000E-09,+259.4142192978E-03
+113.6000E-09,+753.1380560251E-03
+114.1000E-09,+1.0376568771900E+00
+114.6000E-09,+1.1046024821699E+00
+115.1000E-09,+1.0836819806136E+00
+115.6000E-09,+1.0251045762561E+00
+116.1000E-09,+966.5271718986E-03
+116.6000E-09,+953.9748709649E-03
+117.1000E-09,+937.2384697199E-03
+117.6000E-09,+949.7907706537E-03
+118.1000E-09,+941.4225700312E-03
+118.6000E-09,+966.5271718987E-03
+119.1000E-09,+933.0543694086E-03
+119.6000E-09,+928.8702690974E-03
+120.1000E-09,+920.5020684749E-03
+120.6000E-09,+907.9497675411E-03
+121.1000E-09,+790.7949588259E-03
+121.6000E-09,+435.1464323696E-03
+122.1000E-09,-117.1548087154E-03
+122.6000E-09,-640.1673476215E-03
+123.1000E-09,-941.4225700313E-03
+123.6000E-09,-1.0502091781237E+00
+124.1000E-09,-1.0292886765673E+00
+124.6000E-09,-962.3430715873E-03
+125.1000E-09,-916.3179681636E-03
+125.6000E-09,-891.2133662961E-03
+126.1000E-09,-891.2133662962E-03
+126.6000E-09,-899.5815669187E-03
+127.1000E-09,-887.0292659849E-03
+127.6000E-09,-899.5815669187E-03
+128.1000E-09,-887.0292659849E-03
+128.6000E-09,-874.4769650511E-03
+129.1000E-09,-841.0041625610E-03
+129.6000E-09,-619.2468460646E-03
+130.1000E-09,-158.9958118268E-03
+130.6000E-09,+414.2259308143E-03
+131.1000E-09,+849.3723631840E-03
+131.6000E-09,+1.0543932784351E+00
+132.1000E-09,+1.0669455793686E+00
+132.6000E-09,+1.0167363756335E+00
+133.1000E-09,+983.2635731436E-03
+133.6000E-09,+941.4225700311E-03
+134.1000E-09,+899.5815669186E-03
+134.6000E-09,+715.4811532233E-03
+135.1000E-09,+280.3347208530E-03
+135.6000E-09,-280.3347208544E-03
+136.1000E-09,-765.6903569591E-03
+136.6000E-09,-999.9999743889E-03
+137.1000E-09,-999.9999743886E-03
+137.6000E-09,-891.2133662958E-03
+138.1000E-09,-585.7740435744E-03
+138.6000E-09,-121.3389090254E-03
+139.1000E-09,+447.6987333044E-03
+139.6000E-09,+841.0041625616E-03
+140.1000E-09,+1.0292886765675E+00
+140.6000E-09,+1.0543932784349E+00
+141.1000E-09,+999.9999743886E-03
+141.6000E-09,+958.1589712761E-03
+142.1000E-09,+895.3974666073E-03
+142.6000E-09,+744.7698554020E-03
+143.1000E-09,+364.0167270778E-03
+143.6000E-09,-175.7322130734E-03
+144.1000E-09,-656.9037488668E-03
+144.6000E-09,-945.6066703428E-03
+145.1000E-09,-1.0334727768786E+00
+145.6000E-09,-1.0083681750111E+00
+146.1000E-09,-941.4225700309E-03
+146.6000E-09,-786.6108585146E-03
+147.1000E-09,-426.7782317467E-03
+147.6000E-09,+83.6820062259E-03
+148.1000E-09,+594.1422441982E-03
+148.6000E-09,+912.1338678528E-03
+149.1000E-09,+1.0251045762562E+00
+149.6000E-09,+1.0041840746999E+00
+150.1000E-09,+953.9748709649E-03
+150.6000E-09,+924.6861687861E-03
+151.1000E-09,+899.5815669186E-03
+151.6000E-09,+899.5815669187E-03
+152.1000E-09,+874.4769650512E-03
+152.6000E-09,+887.0292659849E-03
+153.1000E-09,+866.1087644286E-03
+153.6000E-09,+874.4769650511E-03
+154.1000E-09,+828.4518616272E-03
+154.6000E-09,+615.0627457530E-03
+155.1000E-09,+179.9163133825E-03
+155.6000E-09,-380.7531283249E-03
+156.1000E-09,-832.6359619393E-03
+156.6000E-09,-1.0585773787464E+00
+157.1000E-09,-1.0878660809249E+00
+157.6000E-09,-1.0502091781233E+00
+158.1000E-09,-979.0794728322E-03
+158.6000E-09,-941.4225700310E-03
+159.1000E-09,-916.3179681635E-03
+159.6000E-09,-920.5020684749E-03
+160.1000E-09,-920.5020684749E-03
+160.6000E-09,-924.6861687860E-03
+161.1000E-09,-916.3179681635E-03
+161.6000E-09,-891.2133662960E-03
+162.1000E-09,-887.0292659849E-03
+162.6000E-09,-874.4769650510E-03
+163.1000E-09,-841.0041625608E-03
+163.6000E-09,-615.0627457529E-03
+164.1000E-09,-150.6276112037E-03
+164.6000E-09,+426.7782317489E-03
+165.1000E-09,+845.1882628731E-03
+165.6000E-09,+1.0543932784353E+00
+166.1000E-09,+1.0669455793685E+00
+166.6000E-09,+995.8158740772E-03
+167.1000E-09,+949.7907706535E-03
+167.6000E-09,+924.6861687860E-03
+168.1000E-09,+903.7656672299E-03
+168.6000E-09,+895.3974666072E-03
+169.1000E-09,+903.7656672299E-03
+169.6000E-09,+903.7656672299E-03
+170.1000E-09,+903.7656672299E-03
+170.6000E-09,+895.3974666071E-03
+171.1000E-09,+899.5815669185E-03
+171.6000E-09,+832.6359619383E-03
+172.1000E-09,+560.6694417062E-03
+172.6000E-09,+66.9456049785E-03
+173.1000E-09,-502.0920373514E-03
+173.6000E-09,-891.2133662970E-03
+174.1000E-09,-1.0627614790576E+00
+174.6000E-09,-1.0794978803021E+00
+175.1000E-09,-1.0292886765671E+00
+175.6000E-09,-958.1589712760E-03
+176.1000E-09,-916.3179681635E-03
+176.6000E-09,-841.0041625610E-03
+177.1000E-09,-577.4058429511E-03
+177.6000E-09,-83.6820062233E-03
+178.1000E-09,+468.6192348616E-03
+178.6000E-09,+845.1882628732E-03
+179.1000E-09,+1.0083681750113E+00
+179.6000E-09,+979.0794728321E-03
+180.1000E-09,+845.1882628716E-03
+180.6000E-09,+514.6443382822E-03
+181.1000E-09,-8.3682006244E-03
+181.6000E-09,-552.3012410867E-03
+182.1000E-09,-907.9497675419E-03
+182.6000E-09,-1.0209204759449E+00
+183.1000E-09,-1.0334727768785E+00
+183.6000E-09,-979.0794728321E-03
+184.1000E-09,-937.2384697199E-03
+184.6000E-09,-920.5020684749E-03
+185.1000E-09,-920.5020684749E-03
+185.6000E-09,-903.7656672299E-03
+186.1000E-09,-916.3179681635E-03
+186.6000E-09,-903.7656672299E-03
+187.1000E-09,-887.0292659849E-03
+187.6000E-09,-887.0292659849E-03
+188.1000E-09,-824.2677613157E-03
+188.6000E-09,-585.7740435737E-03
+189.1000E-09,-108.7866080904E-03
+189.6000E-09,+447.6987333058E-03
+190.1000E-09,+870.2928647412E-03
+190.6000E-09,+1.0585773787466E+00
+191.1000E-09,+1.0836819806135E+00
+191.6000E-09,+1.0292886765671E+00
+192.1000E-09,+983.2635731435E-03
+192.6000E-09,+949.7907706538E-03
+193.1000E-09,+937.2384697199E-03
+193.6000E-09,+924.6861687860E-03
+194.1000E-09,+920.5020684749E-03
+194.6000E-09,+920.5020684749E-03
+195.1000E-09,+916.3179681635E-03
+195.6000E-09,+903.7656672299E-03
+196.1000E-09,+882.8451656735E-03
+196.6000E-09,+887.0292659849E-03
+197.1000E-09,+836.8200622492E-03
+197.6000E-09,+556.4853413946E-03
+198.1000E-09,+62.7615046665E-03
+198.6000E-09,-497.9079370410E-03
+199.1000E-09,-870.2928647413E-03
+199.6000E-09,-1.0502091781238E+00
+200.1000E-09,-1.0627614790570E+00
+200.6000E-09,-1.0083681750110E+00
+201.1000E-09,-937.2384697199E-03
+201.6000E-09,-907.9497675410E-03
+202.1000E-09,-907.9497675413E-03
+202.6000E-09,-916.3179681638E-03
+203.1000E-09,-899.5815669185E-03
+203.6000E-09,-891.2133662960E-03
+204.1000E-09,-887.0292659849E-03
+204.6000E-09,-903.7656672299E-03
+205.1000E-09,-882.8451656735E-03
+205.6000E-09,-723.8493538452E-03
+206.1000E-09,-347.2803258312E-03
+206.6000E-09,+209.2050155651E-03
+207.1000E-09,+707.1129526029E-03
+207.6000E-09,+987.4476734556E-03
+208.1000E-09,+1.0836819806134E+00
+208.6000E-09,+1.0460250778120E+00
+209.1000E-09,+970.7112722099E-03
+209.6000E-09,+928.8702690970E-03
+210.1000E-09,+920.5020684749E-03
+210.6000E-09,+920.5020684749E-03
+211.1000E-09,+933.0543694084E-03
+211.6000E-09,+916.3179681638E-03
+212.1000E-09,+903.7656672299E-03
+212.6000E-09,+891.2133662959E-03
+213.1000E-09,+887.0292659849E-03
+213.6000E-09,+861.9246641170E-03
+214.1000E-09,+740.5857550897E-03
+214.6000E-09,+364.0167270764E-03
+215.1000E-09,-209.2050155654E-03
+215.6000E-09,-711.2970529145E-03
+216.1000E-09,-1.0041840747007E+00
+216.6000E-09,-1.0836819806138E+00
+217.1000E-09,-1.0502091781234E+00
+217.6000E-09,-991.6317737659E-03
+218.1000E-09,-933.0543694084E-03
+218.6000E-09,-924.6861687859E-03
+219.1000E-09,-937.2384697199E-03
+219.6000E-09,-933.0543694089E-03
+220.1000E-09,-920.5020684749E-03
+220.6000E-09,-903.7656672299E-03
+221.1000E-09,-891.2133662964E-03
+221.6000E-09,-899.5815669189E-03
+222.1000E-09,-866.1087644284E-03
+222.6000E-09,-740.5857550901E-03
+223.1000E-09,-334.7280248973E-03
+223.6000E-09,+230.1255171216E-03
+224.1000E-09,+719.6652535367E-03
+224.6000E-09,+999.9999743897E-03
+225.1000E-09,+1.0711296796799E+00
+225.6000E-09,+1.0418409775009E+00
+226.1000E-09,+979.0794728319E-03
+226.6000E-09,+937.2384697199E-03
+227.1000E-09,+920.5020684749E-03
+227.6000E-09,+937.2384697199E-03
+228.1000E-09,+928.8702690969E-03
+228.6000E-09,+920.5020684749E-03
+229.1000E-09,+903.7656672299E-03
+229.6000E-09,+887.0292659849E-03
+230.1000E-09,+903.7656672299E-03
+230.6000E-09,+874.4769650509E-03
+231.1000E-09,+719.6652535330E-03
+231.6000E-09,+288.7029214731E-03
+232.1000E-09,-276.1506205458E-03
+232.6000E-09,-765.6903569608E-03
+233.1000E-09,-1.0292886765679E+00
+233.6000E-09,-1.0753137799909E+00
+234.1000E-09,-1.0376568771899E+00
+234.6000E-09,-991.6317737659E-03
+235.1000E-09,-953.9748709649E-03
+235.6000E-09,-924.6861687859E-03
+236.1000E-09,-790.7949588245E-03
+236.6000E-09,-422.5941314330E-03
+237.1000E-09,+138.0753102744E-03
+237.6000E-09,+644.3514479349E-03
+238.1000E-09,+953.9748709659E-03
+238.6000E-09,+1.0209204759449E+00
+239.1000E-09,+920.5020684739E-03
+239.6000E-09,+656.9037488640E-03
+240.1000E-09,+163.1799121356E-03
+240.6000E-09,-414.2259308169E-03
+241.1000E-09,-841.0041625624E-03
+241.6000E-09,-1.0209204759459E+00
+242.1000E-09,-1.0460250778119E+00
+242.6000E-09,-991.6317737659E-03
+243.1000E-09,-941.4225700314E-03
+243.6000E-09,-903.7656672299E-03
+244.1000E-09,-799.1631594475E-03
+244.6000E-09,-489.5397364141E-03
+245.1000E-09,+25.1046018707E-03
+245.6000E-09,+552.3012410877E-03
+246.1000E-09,+907.9497675423E-03
+246.6000E-09,+1.0502091781239E+00
+247.1000E-09,+1.0334727768784E+00
+247.6000E-09,+970.7112722099E-03
+248.1000E-09,+824.2677613146E-03
+248.6000E-09,+476.9874354802E-03
+249.1000E-09,-41.8410031156E-03
+249.6000E-09,-556.4853413986E-03
+250.1000E-09,-899.5815669193E-03
+250.6000E-09,-1.0167363756339E+00
+251.1000E-09,-1.0167363756334E+00
+251.6000E-09,-958.1589712759E-03
+252.1000E-09,-870.2928647390E-03
+252.6000E-09,-652.7196485532E-03
+253.1000E-09,-179.9163133810E-03
+253.6000E-09,+359.8326267704E-03
+254.1000E-09,+799.1631594501E-03
+254.6000E-09,+1.0083681750117E+00
+255.1000E-09,+1.0334727768784E+00
+255.6000E-09,+991.6317737659E-03
+256.1000E-09,+945.6066703420E-03
+256.6000E-09,+849.3723631831E-03
+257.1000E-09,+577.4058429505E-03
+257.6000E-09,+100.4184074676E-03
+258.1000E-09,-435.1464323723E-03
+258.6000E-09,-841.0041625625E-03
+259.1000E-09,-999.9999743892E-03
+259.6000E-09,-1.0083681750109E+00
+260.1000E-09,-983.2635731434E-03
+260.6000E-09,-853.5564634941E-03
+261.1000E-09,-573.2217426391E-03
+261.6000E-09,-71.1297052888E-03
+262.1000E-09,+468.6192348622E-03
+262.6000E-09,+857.7405638074E-03
+263.1000E-09,+1.0209204759449E+00
+263.6000E-09,+1.0083681750110E+00
+264.1000E-09,+962.3430715870E-03
+264.6000E-09,+907.9497675410E-03
+265.1000E-09,+820.0836610042E-03
+265.6000E-09,+556.4853413945E-03
+266.1000E-09,+58.5774043550E-03
+266.6000E-09,-497.9079370410E-03
+267.1000E-09,-866.1087644299E-03
+267.6000E-09,-1.0292886765677E+00
+268.1000E-09,-1.0376568771899E+00
+268.6000E-09,-979.0794728320E-03
+269.1000E-09,-866.1087644278E-03
+269.6000E-09,-569.0376423286E-03
+270.1000E-09,-62.7615046666E-03
+270.6000E-09,+481.1715357959E-03
+271.1000E-09,+832.6359619398E-03
+271.6000E-09,+1.0125522753227E+00
+272.1000E-09,+1.0167363756335E+00
+272.6000E-09,+962.3430715871E-03
+273.1000E-09,+903.7656672299E-03
+273.6000E-09,+807.5313600704E-03
+274.1000E-09,+497.9079370366E-03
+274.6000E-09,-29.2887021807E-03
+275.1000E-09,-560.6694417090E-03
+275.6000E-09,-912.1338678533E-03
+276.1000E-09,-1.0418409775013E+00
+276.6000E-09,-1.0418409775010E+00
+277.1000E-09,-979.0794728321E-03
+277.6000E-09,-870.2928647393E-03
+278.1000E-09,-589.9581438846E-03
+278.6000E-09,-75.3138056005E-03
+279.1000E-09,+451.8828336167E-03
+279.6000E-09,+849.3723631849E-03
+280.1000E-09,+995.8158740777E-03
+280.6000E-09,+1.0083681750110E+00
+281.1000E-09,+962.3430715871E-03
+281.6000E-09,+899.5815669182E-03
+282.1000E-09,+765.6903569580E-03
+282.6000E-09,+430.9623320572E-03
+283.1000E-09,-108.7866080944E-03
+283.6000E-09,-610.8786454437E-03
+284.1000E-09,-937.2384697204E-03
+284.6000E-09,-1.0376568771899E+00
+285.1000E-09,-1.0209204759449E+00
+285.6000E-09,-979.0794728321E-03
+286.1000E-09,-853.5564634944E-03
+286.6000E-09,-577.4058429512E-03
+287.1000E-09,-75.3138056008E-03
+287.6000E-09,+451.8828336164E-03
+288.1000E-09,+841.0041625618E-03
+288.6000E-09,+995.8158740776E-03
+289.1000E-09,+999.9999743885E-03
+289.6000E-09,+974.8953725210E-03
+290.1000E-09,+903.7656672294E-03
+290.6000E-09,+740.5857550906E-03
+291.1000E-09,+351.4644261436E-03
+291.6000E-09,-196.6527146302E-03
+292.1000E-09,-694.5606516685E-03
+292.6000E-09,-966.5271718992E-03
+293.1000E-09,-1.0543932784349E+00
+293.6000E-09,-1.0292886765672E+00
+294.1000E-09,-962.3430715872E-03
+294.6000E-09,-866.1087644283E-03
+295.1000E-09,-564.8535420177E-03
+295.6000E-09,-71.1297052900E-03
+296.1000E-09,+481.1715357948E-03
+296.6000E-09,+828.4518616280E-03
+297.1000E-09,+1.0041840746999E+00
+297.6000E-09,+1.0083681750110E+00
+298.1000E-09,+962.3430715872E-03
+298.6000E-09,+870.2928647395E-03
+299.1000E-09,+702.9288522892E-03
+299.6000E-09,+301.2552224089E-03
+300.1000E-09,-255.2301189874E-03
+300.6000E-09,-732.2175544695E-03
+301.1000E-09,-995.8158740776E-03
+301.6000E-09,-1.0502091781237E+00
+302.1000E-09,-1.0292886765672E+00
+302.6000E-09,-958.1589712761E-03
+303.1000E-09,-849.3723631832E-03
+303.6000E-09,-539.7489401504E-03
+304.1000E-09,-29.2887021778E-03
+304.6000E-09,+502.0920373509E-03
+305.1000E-09,+849.3723631842E-03
+305.6000E-09,+1.0167363756337E+00
+306.1000E-09,+1.0041840746999E+00
+306.6000E-09,+949.7907706534E-03
+307.1000E-09,+891.2133662959E-03
+307.6000E-09,+694.5606516670E-03
+308.1000E-09,+263.5983196078E-03
+308.6000E-09,-280.3347208546E-03
+309.1000E-09,-753.1380560255E-03
+309.6000E-09,-991.6317737663E-03
+310.1000E-09,-1.0543932784349E+00
+310.6000E-09,-1.0083681750111E+00
+311.1000E-09,-962.3430715873E-03
+311.6000E-09,-841.0041625608E-03
+312.1000E-09,-518.8284385942E-03
+312.6000E-09,+700E-15
+313.1000E-09,+543.9330404630E-03
+313.6000E-09,+882.8451656739E-03
+314.1000E-09,+1.0083681750112E+00
+314.6000E-09,+1.0083681750111E+00
+315.1000E-09,+949.7907706536E-03
+315.6000E-09,+878.6610653623E-03
+316.1000E-09,+652.7196485546E-03
+316.6000E-09,+217.5732161844E-03
+317.1000E-09,-317.9916236555E-03
+317.6000E-09,-782.4267582041E-03
+318.1000E-09,-1.0125522753225E+00
+318.6000E-09,-1.0460250778123E+00
+319.1000E-09,-1.0167363756336E+00
+319.6000E-09,-958.1589712761E-03
+320.1000E-09,-937.2384697199E-03
+320.6000E-09,-907.9497675411E-03
+321.1000E-09,-903.7656672299E-03
+321.6000E-09,-891.2133662961E-03
+322.1000E-09,-891.2133662962E-03
+322.6000E-09,-891.2133662961E-03
+323.1000E-09,-882.8451656736E-03
+323.6000E-09,-799.1631594486E-03
+324.1000E-09,-581.5899432634E-03
+324.6000E-09,-87.8661065358E-03
+325.1000E-09,+464.4351345490E-03
+325.6000E-09,+853.5564634951E-03
+326.1000E-09,+1.0376568771900E+00
+326.6000E-09,+1.0711296796799E+00
+327.1000E-09,+1.0292886765673E+00
+327.6000E-09,+979.0794728324E-03
+328.1000E-09,+920.5020684749E-03
+328.6000E-09,+907.9497675411E-03
+329.1000E-09,+874.4769650511E-03
+329.6000E-09,+635.9832473098E-03
+330.1000E-09,+142.2594105823E-03
+330.6000E-09,-460.2510342377E-03
+331.1000E-09,-845.1882628725E-03
+331.6000E-09,-1.0125522753224E+00
+332.1000E-09,-983.2635731436E-03
+332.6000E-09,-707.1129526011E-03
+333.1000E-09,-205.0209152511E-03
+333.6000E-09,+384.9372286350E-03
+334.1000E-09,+811.7154603824E-03
+334.6000E-09,+1.0125522753224E+00
+335.1000E-09,+1.0334727768786E+00
+335.6000E-09,+983.2635731436E-03
+336.1000E-09,+937.2384697199E-03
+336.6000E-09,+891.2133662961E-03
+337.1000E-09,+794.9790591374E-03
+337.6000E-09,+556.4853413963E-03
+338.1000E-09,+62.7615046688E-03
+338.6000E-09,-468.6192348599E-03
+339.1000E-09,-874.4769650511E-03
+339.6000E-09,-1.0418409775011E+00
+340.1000E-09,-1.0502091781236E+00
+340.6000E-09,-995.8158740774E-03
+341.1000E-09,-887.0292659850E-03
+341.6000E-09,-652.7196485550E-03
+342.1000E-09,-196.6527146289E-03
+342.6000E-09,+347.2803258335E-03
+343.1000E-09,+765.6903569585E-03
+343.6000E-09,+999.9999743885E-03
+344.1000E-09,+1.0167363756337E+00
+344.6000E-09,+962.3430715874E-03
+345.1000E-09,+870.2928647400E-03
+345.6000E-09,+665.2719494889E-03
+346.1000E-09,+217.5732161853E-03
+346.6000E-09,-326.3598242770E-03
+347.1000E-09,-782.4267582034E-03
+347.6000E-09,-1.0083681750110E+00
+348.1000E-09,-1.0418409775011E+00
+348.6000E-09,-1.0125522753224E+00
+349.1000E-09,-949.7907706537E-03
+349.6000E-09,-882.8451656738E-03
+350.1000E-09,-702.9288522902E-03
+350.6000E-09,-271.9665202317E-03
+351.1000E-09,+271.9665202307E-03
+351.6000E-09,+719.6652535345E-03
+352.1000E-09,+979.0794728323E-03
+352.6000E-09,+1.0334727768786E+00
+353.1000E-09,+1.0083681750113E+00
+353.6000E-09,+928.8702690975E-03
+354.1000E-09,+912.1338678525E-03
+354.6000E-09,+887.0292659849E-03
+355.1000E-09,+887.0292659849E-03
+355.6000E-09,+887.0292659849E-03
+356.1000E-09,+866.1087644287E-03
+356.6000E-09,+887.0292659849E-03
+357.1000E-09,+845.1882628725E-03
+357.6000E-09,+690.3765513565E-03
+358.1000E-09,+297.0711220995E-03
+358.6000E-09,-259.4142192966E-03
+359.1000E-09,-728.0334541568E-03
+359.6000E-09,-1.0041840746996E+00
+360.1000E-09,-1.0878660809249E+00
+360.6000E-09,-1.0627614790575E+00
+361.1000E-09,-999.9999743887E-03
+361.6000E-09,-941.4225700312E-03
+362.1000E-09,-924.6861687861E-03
+362.6000E-09,-937.2384697199E-03
+363.1000E-09,-857.7405638064E-03
+363.6000E-09,-573.2217426419E-03
+364.1000E-09,-58.5774043586E-03
+364.6000E-09,+493.7238367264E-03
+365.1000E-09,+861.9246641169E-03
+365.6000E-09,+999.9999743886E-03
+366.1000E-09,+912.1338678528E-03
+366.6000E-09,+548.1171407745E-03
+367.1000E-09,-25.1046018663E-03
+367.6000E-09,-556.4853413953E-03
+368.1000E-09,-920.5020684746E-03
+368.6000E-09,-1.0460250778122E+00
+369.1000E-09,-1.0418409775014E+00
+369.6000E-09,-987.4476734549E-03
+370.1000E-09,-933.0543694087E-03
+370.6000E-09,-895.3974666076E-03
+371.1000E-09,-799.1631594491E-03
+371.6000E-09,-493.7238367284E-03
+372.1000E-09,+25.1046018662E-03
+372.6000E-09,+573.2217426402E-03
+373.1000E-09,+924.6861687856E-03
+373.6000E-09,+1.0502091781235E+00
+374.1000E-09,+1.0376568771899E+00
+374.6000E-09,+974.8953725212E-03
+375.1000E-09,+832.6359619392E-03
+375.6000E-09,+539.7489401521E-03
+376.1000E-09,+29.2887021801E-03
+376.6000E-09,-502.0920373487E-03
+377.1000E-09,-861.9246641168E-03
+377.6000E-09,-1.0251045762558E+00
+378.1000E-09,-1.0125522753226E+00
+378.6000E-09,-974.8953725212E-03
+379.1000E-09,-920.5020684749E-03
+379.6000E-09,-903.7656672299E-03
+380.1000E-09,-903.7656672299E-03
+380.6000E-09,-887.0292659849E-03
+381.1000E-09,-870.2928647399E-03
+381.6000E-09,-887.0292659849E-03
+382.1000E-09,-853.5564634949E-03
+382.6000E-09,-815.8995606940E-03
+383.1000E-09,-598.3263445098E-03
+383.6000E-09,-150.6276112064E-03
+384.1000E-09,+418.4100311235E-03
+384.6000E-09,+861.9246641161E-03
+385.1000E-09,+1.0585773787460E+00
+385.6000E-09,+1.1004183818585E+00
+386.1000E-09,+1.0460250778126E+00
+386.6000E-09,+979.0794728326E-03
+387.1000E-09,+933.0543694088E-03
+387.6000E-09,+924.6861687863E-03
+388.1000E-09,+916.3179681638E-03
+388.6000E-09,+933.0543694085E-03
+389.1000E-09,+907.9497675410E-03
+389.6000E-09,+920.5020684749E-03
+390.1000E-09,+907.9497675410E-03
+390.6000E-09,+903.7656672299E-03
+391.1000E-09,+920.5020684749E-03
+391.6000E-09,+891.2133662963E-03
+392.1000E-09,+740.5857550922E-03
+392.6000E-09,+334.7280249017E-03
+393.1000E-09,-209.2050155603E-03
+393.6000E-09,-728.0334541559E-03
+394.1000E-09,-987.4476734543E-03
+394.6000E-09,-1.0794978803021E+00
+395.1000E-09,-1.0334727768788E+00
+395.6000E-09,-974.8953725213E-03
+396.1000E-09,-933.0543694088E-03
+396.6000E-09,-912.1338678527E-03
+397.1000E-09,-916.3179681638E-03
+397.6000E-09,-903.7656672299E-03
+398.1000E-09,-916.3179681638E-03
+398.6000E-09,-907.9497675413E-03
+399.1000E-09,-920.5020684749E-03
+399.6000E-09,-903.7656672299E-03
+400.1000E-09,-815.8995606945E-03
+400.6000E-09,-539.7489401527E-03
+401.1000E-09,-54.3933040488E-03
+401.6000E-09,+506.2761376593E-03
+402.1000E-09,+878.6610653614E-03
+402.6000E-09,+1.0585773787456E+00
+403.1000E-09,+1.0669455793688E+00
+403.6000E-09,+991.6317737663E-03
+404.1000E-09,+953.9748709649E-03
+404.6000E-09,+924.6861687863E-03
+405.1000E-09,+870.2928647406E-03
+405.6000E-09,+631.7991470000E-03
+406.1000E-09,+175.7322130750E-03
+406.6000E-09,-397.4895295663E-03
+407.1000E-09,-815.8995606924E-03
+407.6000E-09,-1.0041840746999E+00
+408.1000E-09,-1.0125522753227E+00
+408.6000E-09,-870.2928647407E-03
+409.1000E-09,-523.0125389083E-03
+409.6000E-09,-2.3E-12
+410.1000E-09,+535.5648398377E-03
+410.6000E-09,+895.3974666062E-03
+411.1000E-09,+1.0543932784349E+00
+411.6000E-09,+1.0251045762563E+00
+412.1000E-09,+966.5271718988E-03
+412.6000E-09,+924.6861687863E-03
+413.1000E-09,+878.6610653628E-03
+413.6000E-09,+694.5606516686E-03
+414.1000E-09,+280.3347208563E-03
+414.6000E-09,-284.5188211626E-03
+415.1000E-09,-723.8493538443E-03
+415.6000E-09,-999.9999743876E-03
+416.1000E-09,-1.0669455793688E+00
+416.6000E-09,-1.0125522753228E+00
+417.1000E-09,-924.6861687868E-03
+417.6000E-09,-744.7698554037E-03
+418.1000E-09,-351.4644261475E-03
+418.6000E-09,+196.6527146260E-03
+419.1000E-09,+661.0878491753E-03
+419.6000E-09,+953.9748709640E-03
+420.1000E-09,+1.0292886765678E+00
+420.6000E-09,+995.8158740778E-03
+421.1000E-09,+928.8702690978E-03
+421.6000E-09,+807.5313600723E-03
+422.1000E-09,+460.2510342397E-03
+422.6000E-09,-58.5774043543E-03
+423.1000E-09,-564.8535420162E-03
+423.6000E-09,-916.3179681625E-03
+424.1000E-09,-1.0376568771899E+00
+424.6000E-09,-1.0376568771899E+00
+425.1000E-09,-979.0794728328E-03
+425.6000E-09,-912.1338678528E-03
+426.1000E-09,-761.5062566488E-03
+426.6000E-09,-410.0418305048E-03
+427.1000E-09,+150.6276112022E-03
+427.6000E-09,+631.7991469966E-03
+428.1000E-09,+920.5020684739E-03
+428.6000E-09,+1.0292886765669E+00
+429.1000E-09,+999.9999743889E-03
+429.6000E-09,+945.6066703429E-03
+430.1000E-09,+774.0585575829E-03
+430.6000E-09,+410.0418305049E-03
+431.1000E-09,-154.8117115131E-03
+431.6000E-09,-644.3514479300E-03
+432.1000E-09,-928.8702690969E-03
+432.6000E-09,-1.0292886765669E+00
+433.1000E-09,-1.0125522753229E+00
+433.6000E-09,-953.9748709649E-03
+434.1000E-09,-895.3974666079E-03
+434.6000E-09,-744.7698554040E-03
+435.1000E-09,-351.4644261481E-03
+435.6000E-09,+179.9163133804E-03
+436.1000E-09,+677.8242504198E-03
+436.6000E-09,+953.9748709639E-03
+437.1000E-09,+1.0376568771899E+00
+437.6000E-09,+1.0083681750114E+00
+438.1000E-09,+953.9748709649E-03
+438.6000E-09,+937.2384697199E-03
+439.1000E-09,+899.5815669189E-03
+439.6000E-09,+895.3974666069E-03
+440.1000E-09,+887.0292659849E-03
+440.6000E-09,+887.0292659849E-03
+441.1000E-09,+882.8451656739E-03
+441.6000E-09,+878.6610653629E-03
+442.1000E-09,+803.3472597610E-03
+442.6000E-09,+539.7489401537E-03
+443.1000E-09,+46.0251034273E-03
+443.6000E-09,-489.5397364132E-03
+444.1000E-09,-887.0292659827E-03
+444.6000E-09,-1.0627614790568E+00
+445.1000E-09,-1.0711296796799E+00
+445.6000E-09,-1.0292886765679E+00
+446.1000E-09,-949.7907706539E-03
+446.6000E-09,-924.6861687864E-03
+447.1000E-09,-920.5020684749E-03
+447.6000E-09,-937.2384697199E-03
+448.1000E-09,-937.2384697199E-03
+448.6000E-09,-924.6861687864E-03
+449.1000E-09,-916.3179681639E-03
+449.6000E-09,-891.2133662964E-03
+450.1000E-09,-891.2133662959E-03
+450.6000E-09,-891.2133662964E-03
+451.1000E-09,-778.2426578942E-03
+451.6000E-09,-430.9623320620E-03
+452.1000E-09,+108.7866080882E-03
+452.6000E-09,+661.0878491744E-03
+453.1000E-09,+966.5271718977E-03
+453.6000E-09,+1.0669455793683E+00
+454.1000E-09,+1.0334727768789E+00
+454.6000E-09,+962.3430715880E-03
+455.1000E-09,+933.0543694089E-03
+455.6000E-09,+903.7656672299E-03
+456.1000E-09,+815.8995606952E-03
+456.6000E-09,+514.6443382871E-03
+457.1000E-09,-8.3682006181E-03
+457.6000E-09,-552.3012410812E-03
+458.1000E-09,-891.2133662945E-03
+458.6000E-09,-1.0292886765667E+00
+459.1000E-09,-937.2384697212E-03
+459.6000E-09,-640.1673476241E-03
+460.1000E-09,-87.8661065410E-03
+460.6000E-09,+493.7238367230E-03
+461.1000E-09,+861.9246641155E-03
+461.6000E-09,+1.0209204759449E+00
+462.1000E-09,+1.0334727768790E+00
+462.6000E-09,+962.3430715880E-03
+463.1000E-09,+903.7656672299E-03
+463.6000E-09,+891.2133662965E-03
+464.1000E-09,+845.1882628731E-03
+464.6000E-09,+631.7991470010E-03
+465.1000E-09,+188.2845140099E-03
+465.6000E-09,-364.0167270744E-03
+466.1000E-09,-799.1631594463E-03
+466.6000E-09,-1.0376568771885E+00
+467.1000E-09,-1.0669455793690E+00
+467.6000E-09,-1.0251045762565E+00
+468.1000E-09,-828.4518616295E-03
+468.6000E-09,-447.6987333075E-03
+469.1000E-09,+79.4979059086E-03
+469.6000E-09,+602.5104448157E-03
+470.1000E-09,+903.7656672285E-03
+470.6000E-09,+1.0125522753217E+00
+471.1000E-09,+966.5271718990E-03
+471.6000E-09,+920.5020684749E-03
+472.1000E-09,+861.9246641181E-03
+472.6000E-09,+740.5857550929E-03
+473.1000E-09,+418.4100311292E-03
+473.6000E-09,-121.3389090210E-03
+474.1000E-09,-640.1673476180E-03
+474.6000E-09,-962.3430715852E-03
+475.1000E-09,-1.0920501812358E+00
+475.6000E-09,-1.0627614790581E+00
+476.1000E-09,-1.0083681750122E+00
+476.6000E-09,-874.4769650530E-03
+477.1000E-09,-564.8535420220E-03
+477.6000E-09,-112.9707084078E-03
+478.1000E-09,+447.6987332998E-03
+478.6000E-09,+820.0836610021E-03
+479.1000E-09,+974.8953725208E-03
+479.6000E-09,+974.8953725215E-03
+480.1000E-09,+933.0543694090E-03
+480.6000E-09,+899.5815669183E-03
+481.1000E-09,+870.2928647399E-03
+481.6000E-09,+853.5564634949E-03
+482.1000E-09,+849.3723631840E-03
+482.6000E-09,+836.8200622499E-03
+483.1000E-09,+849.3723631840E-03
+483.6000E-09,+853.5564634949E-03
+484.1000E-09,+807.5313600721E-03
+484.6000E-09,+707.1129526028E-03
+485.1000E-09,+364.0167270828E-03
+485.6000E-09,-175.7322130681E-03
+486.1000E-09,-694.5606516644E-03
+486.6000E-09,-1.0167363756321E+00
+487.1000E-09,-1.1129706827918E+00
+487.6000E-09,-1.1087865824814E+00
+488.1000E-09,-1.0460250778130E+00
+488.6000E-09,-1.0041840746999E+00
+489.1000E-09,-953.9748709649E-03
+489.6000E-09,-953.9748709649E-03
+490.1000E-09,-866.1087644301E-03
+490.6000E-09,-585.7740435771E-03
+491.1000E-09,-29.2887021823E-03
+491.6000E-09,+502.0920373467E-03
+492.1000E-09,+870.2928647388E-03
+492.6000E-09,+991.6317737653E-03
+493.1000E-09,+962.3430715879E-03
+493.6000E-09,+899.5815669194E-03
+494.1000E-09,+849.3723631839E-03
+494.6000E-09,+820.0836610049E-03
+495.1000E-09,+836.8200622499E-03
+495.6000E-09,+849.3723631834E-03
+496.1000E-09,+836.8200622499E-03
+496.6000E-09,+824.2677613164E-03
+497.1000E-09,+790.7949588259E-03
+497.6000E-09,+736.4016547809E-03
+498.1000E-09,+556.4853413978E-03
+498.6000E-09,+263.5983196103E-03
+499.1000E-09,-12.5523009322E-03
+499.6000E-09,-234.3096174291E-03
+500.1000E-09,-414.2259308130E-03
+500.6000E-09,-569.0376423291E-03
+501.1000E-09,-715.4811532230E-03
+501.6000E-09,-857.7405638055E-03
+502.1000E-09,-979.0794728320E-03
+502.6000E-09,-1.0334727768784E+00
+503.1000E-09,-1.0418409775009E+00
+503.6000E-09,-1.0418409775013E+00
+504.1000E-09,-1.0167363756338E+00
+504.6000E-09,-987.4476734549E-03
+505.1000E-09,-974.8953725210E-03
+505.6000E-09,-983.2635731434E-03
+506.1000E-09,-983.2635731438E-03
+506.6000E-09,-974.8953725213E-03
+507.1000E-09,-958.1589712760E-03
+507.6000E-09,-958.1589712763E-03
+508.1000E-09,-937.2384697199E-03
+508.6000E-09,-924.6861687863E-03
+509.1000E-09,-903.7656672299E-03
+509.6000E-09,-903.7656672299E-03
+510.1000E-09,-870.2928647399E-03
+510.6000E-09,-841.0041625613E-03
+511.1000E-09,-786.6108585149E-03
+511.6000E-09,-757.3221563363E-03
+512.1000E-09,-694.5606516677E-03
+512.6000E-09,-610.8786454427E-03
+513.1000E-09,-560.6694417077E-03
+513.6000E-09,-506.2761376613E-03
+514.1000E-09,-447.6987333038E-03
+514.6000E-09,-393.3054292577E-03
+515.1000E-09,-330.5439245888E-03
+515.6000E-09,-271.9665202313E-03
+516.1000E-09,-234.3096174300E-03
+516.6000E-09,-171.5481127613E-03
+517.1000E-09,-146.4435108938E-03
+517.6000E-09,-117.1548087150E-03
+518.1000E-09,-79.4979059138E-03
+518.6000E-09,-50.2092037350E-03
+519.1000E-09,-33.4728024900E-03
+519.6000E-09,-16.7364012450E-03
+520.1000E-09,+4.1841003112E-03
+520.6000E-09,+16.7364012450E-03
+521.1000E-09,+37.6569028012E-03
+521.6000E-09,+66.9456049800E-03
+522.1000E-09,+87.8661065362E-03
+522.6000E-09,+100.4184074700E-03
+523.1000E-09,+133.8912099600E-03
+523.6000E-09,+163.1799121387E-03
+524.1000E-09,+175.7322130723E-03
+524.6000E-09,+196.6527146287E-03
+525.1000E-09,+200.8368149400E-03
+525.6000E-09,+205.0209152513E-03
+526.1000E-09,+217.5732161850E-03
+526.6000E-09,+217.5732161850E-03
+527.1000E-09,+205.0209152512E-03
+527.6000E-09,+217.5732161850E-03
+528.1000E-09,+221.7573164962E-03
+528.6000E-09,+221.7573164963E-03
+529.1000E-09,+209.2050155624E-03
+529.6000E-09,+234.3096174300E-03
+530.1000E-09,+217.5732161850E-03
+530.6000E-09,+234.3096174300E-03
+531.1000E-09,+246.8619183638E-03
+531.6000E-09,+221.7573164962E-03
+532.1000E-09,+246.8619183637E-03
+532.6000E-09,+234.3096174300E-03
+533.1000E-09,+234.3096174300E-03
+533.6000E-09,+230.1255171187E-03
+534.1000E-09,+221.7573164962E-03
+534.6000E-09,+234.3096174300E-03
+535.1000E-09,+230.1255171187E-03
+535.6000E-09,+213.3891158737E-03
+536.1000E-09,+217.5732161850E-03
+536.6000E-09,+217.5732161850E-03
+537.1000E-09,+217.5732161850E-03
+537.6000E-09,+205.0209152512E-03
+538.1000E-09,+200.8368149400E-03
+538.6000E-09,+171.5481127612E-03
+539.1000E-09,+184.1004136950E-03
+539.6000E-09,+188.2845140062E-03
+540.1000E-09,+184.1004136950E-03
+540.6000E-09,+196.6527146288E-03
+541.1000E-09,+200.8368149400E-03
+541.6000E-09,+184.1004136950E-03
+542.1000E-09,+184.1004136950E-03
+542.6000E-09,+167.3640124500E-03
+543.1000E-09,+163.1799121387E-03
+543.6000E-09,+150.6276112050E-03
+544.1000E-09,+163.1799121387E-03
+544.6000E-09,+150.6276112050E-03
+545.1000E-09,+146.4435108937E-03
+545.6000E-09,+150.6276112050E-03
+546.1000E-09,+133.8912099600E-03
+546.6000E-09,+133.8912099600E-03
+547.1000E-09,+121.3389090263E-03
+547.6000E-09,+133.8912099600E-03
+548.1000E-09,+117.1548087150E-03
+548.6000E-09,+133.8912099600E-03
+549.1000E-09,+121.3389090263E-03
+549.6000E-09,+121.3389090261E-03
+550.1000E-09,+104.6025077813E-03
+550.6000E-09,+112.9707084038E-03
+551.1000E-09,+117.1548087150E-03
+551.6000E-09,+117.1548087150E-03
+552.1000E-09,+129.7071096486E-03
+552.6000E-09,+104.6025077811E-03
+553.1000E-09,+112.9707084036E-03
+553.6000E-09,+100.4184074700E-03
+554.1000E-09,+96.2343071586E-03
+554.6000E-09,+71.1297052911E-03
+555.1000E-09,+83.6820062250E-03
+555.6000E-09,+83.6820062250E-03
+556.1000E-09,+66.9456049800E-03
+556.6000E-09,+96.2343071589E-03
+557.1000E-09,+83.6820062250E-03
+557.6000E-09,+83.6820062250E-03
+558.1000E-09,+87.8661065364E-03
+558.6000E-09,+83.6820062250E-03
+559.1000E-09,+83.6820062250E-03
+559.6000E-09,+66.9456049800E-03
+560.1000E-09,+83.6820062250E-03
+560.6000E-09,+83.6820062250E-03
+561.1000E-09,+66.9456049800E-03
+561.6000E-09,+66.9456049800E-03
+562.1000E-09,+62.7615046686E-03
+562.6000E-09,+62.7615046689E-03
+563.1000E-09,+62.7615046686E-03
+563.6000E-09,+62.7615046689E-03
+564.1000E-09,+50.2092037350E-03
+564.6000E-09,+50.2092037350E-03
+565.1000E-09,+50.2092037350E-03
+565.6000E-09,+50.2092037350E-03
+566.1000E-09,+41.8410031129E-03
+566.6000E-09,+62.7615046689E-03
+567.1000E-09,+54.3933040464E-03
+567.6000E-09,+50.2092037350E-03
+568.1000E-09,+62.7615046685E-03
+568.6000E-09,+50.2092037350E-03
+569.1000E-09,+50.2092037350E-03
+569.6000E-09,+50.2092037350E-03
+570.1000E-09,+41.8410031129E-03
+570.6000E-09,+33.4728024900E-03
+571.1000E-09,+33.4728024900E-03
+571.6000E-09,+33.4728024900E-03
+572.1000E-09,+29.2887021785E-03
+572.6000E-09,+29.2887021790E-03
+573.1000E-09,+33.4728024900E-03
+573.6000E-09,+33.4728024900E-03
+574.1000E-09,+46.0251034235E-03
+574.6000E-09,+20.9205015560E-03
+575.1000E-09,+20.9205015565E-03
+575.6000E-09,+20.9205015560E-03
+576.1000E-09,+12.5523009335E-03
+576.6000E-09,+29.2887021790E-03
+577.1000E-09,+16.7364012450E-03
+577.6000E-09,+29.2887021790E-03
+578.1000E-09,+25.1046018669E-03
+578.6000E-09,+16.7364012450E-03
+579.1000E-09,+29.2887021785E-03
+579.6000E-09,+33.4728024900E-03
+580.1000E-09,-4.1841003115E-03
+580.6000E-09,+12.5523009340E-03
+581.1000E-09,+16.7364012450E-03
+581.6000E-09,+0.0E+00
+582.1000E-09,-8.3682006219E-03
+582.6000E-09,-12.5523009341E-03
+583.1000E-09,-4.1841003116E-03
+583.6000E-09,+0.0E+00
+584.1000E-09,+4.1841003116E-03
+584.6000E-09,+12.5523009341E-03
+585.1000E-09,+12.5523009334E-03
+585.6000E-09,+16.7364012450E-03
+586.1000E-09,+12.5523009334E-03
+586.6000E-09,+4.1841003109E-03
+587.1000E-09,+0.0E+00
+587.6000E-09,+0.0E+00
+588.1000E-09,-12.5523009334E-03
+588.6000E-09,-4.1841003109E-03
+589.1000E-09,+0.0E+00
+589.6000E-09,-12.5523009341E-03
+590.1000E-09,+0.0E+00
+590.6000E-09,+0.0E+00
+591.1000E-09,+0.0E+00
+591.6000E-09,+0.0E+00
+592.1000E-09,+12.5523009334E-03
+592.6000E-09,+4.1841003109E-03
+593.1000E-09,+4.1841003116E-03
+593.6000E-09,+4.1841003109E-03
+594.1000E-09,+0.0E+00
+594.6000E-09,+0.0E+00
+595.1000E-09,-16.7364012450E-03
+595.6000E-09,-4.1841003109E-03
+596.1000E-09,-12.5523009334E-03
+596.6000E-09,-4.1841003109E-03
+597.1000E-09,-16.7364012450E-03
+597.6000E-09,-16.7364012450E-03
+598.1000E-09,+0.0E+00
+598.6000E-09,+0.0E+00
+599.1000E-09,-16.7364012450E-03
+599.6000E-09,-4.1841003108E-03
+600.1000E-09,+0.0E+00
+600.6000E-09,-29.2887021792E-03
+601.1000E-09,-16.7364012450E-03
+601.6000E-09,-12.5523009342E-03
+602.1000E-09,-16.7364012450E-03
+602.6000E-09,+0.0E+00
+603.1000E-09,-16.7364012450E-03
+603.6000E-09,-16.7364012450E-03
+604.1000E-09,-12.5523009333E-03
+604.6000E-09,-4.1841003108E-03
+605.1000E-09,+0.0E+00
+605.6000E-09,-12.5523009342E-03
+606.1000E-09,-12.5523009333E-03
+606.6000E-09,-16.7364012450E-03
+607.1000E-09,-16.7364012450E-03
+607.6000E-09,-16.7364012450E-03
+608.1000E-09,-16.7364012450E-03
+608.6000E-09,-4.1841003108E-03
+609.1000E-09,-4.1841003117E-03
+609.6000E-09,-4.1841003108E-03
+610.1000E-09,-16.7364012450E-03
+610.6000E-09,-16.7364012450E-03
+611.1000E-09,-20.9205015567E-03
+611.6000E-09,-16.7364012450E-03
+612.1000E-09,-8.3682006235E-03
+612.6000E-09,-16.7364012450E-03
+613.1000E-09,-20.9205015567E-03
+613.6000E-09,-16.7364012450E-03
+614.1000E-09,-29.2887021782E-03
+614.6000E-09,-37.6569028007E-03
+615.1000E-09,-33.4728024900E-03
+615.6000E-09,-33.4728024900E-03
+616.1000E-09,-29.2887021782E-03
+616.6000E-09,-33.4728024900E-03
+617.1000E-09,-20.9205015568E-03
+617.6000E-09,-16.7364012450E-03
+618.1000E-09,-20.9205015568E-03
+618.6000E-09,-46.0251034243E-03
+619.1000E-09,-8.3682006236E-03
+619.6000E-09,-16.7364012450E-03
+620.1000E-09,-16.7364012450E-03
+620.6000E-09,-8.3682006214E-03
+621.1000E-09,-20.9205015568E-03
+621.6000E-09,-16.7364012450E-03
+622.1000E-09,-33.4728024900E-03
+622.6000E-09,-20.9205015557E-03
+623.1000E-09,-46.0251034232E-03
+623.6000E-09,-20.9205015557E-03
+624.1000E-09,+0.0E+00
+624.6000E-09,-12.5523009343E-03
+625.1000E-09,-12.5523009332E-03
+625.6000E-09,-4.1841003107E-03
+626.1000E-09,-20.9205015568E-03
+626.6000E-09,-33.4728024900E-03
+627.1000E-09,-25.1046018687E-03
+627.6000E-09,-33.4728024900E-03
+628.1000E-09,-16.7364012450E-03
+628.6000E-09,-33.4728024900E-03
+629.1000E-09,-46.0251034232E-03
+629.6000E-09,-33.4728024900E-03
+630.1000E-09,-29.2887021781E-03
+630.6000E-09,-25.1046018663E-03
+631.1000E-09,-37.6569028019E-03
+631.6000E-09,-25.1046018663E-03
+632.1000E-09,-20.9205015569E-03
+632.6000E-09,-33.4728024900E-03
+633.1000E-09,-37.6569028019E-03
+633.6000E-09,-29.2887021794E-03
+634.1000E-09,-29.2887021781E-03
+634.6000E-09,-16.7364012450E-03
+635.1000E-09,-29.2887021781E-03
+635.6000E-09,-16.7364012450E-03
+636.1000E-09,-16.7364012450E-03
+636.6000E-09,-4.1841003106E-03
+637.1000E-09,-16.7364012450E-03
+637.6000E-09,-16.7364012450E-03
+638.1000E-09,-12.5523009331E-03
+638.6000E-09,-16.7364012450E-03
+639.1000E-09,-16.7364012450E-03
+639.6000E-09,-29.2887021794E-03
+640.1000E-09,-20.9205015569E-03
+640.6000E-09,-20.9205015556E-03
+641.1000E-09,-20.9205015569E-03
+641.6000E-09,-29.2887021794E-03
+642.1000E-09,-16.7364012450E-03
+642.6000E-09,-16.7364012450E-03
+643.1000E-09,-16.7364012450E-03
+643.6000E-09,-12.5523009344E-03
+644.1000E-09,-33.4728024900E-03
+644.6000E-09,-16.7364012450E-03
+645.1000E-09,-33.4728024900E-03
+645.6000E-09,-41.8410031139E-03
+646.1000E-09,-33.4728024900E-03
+646.6000E-09,-33.4728024900E-03
+647.1000E-09,-33.4728024900E-03
+647.6000E-09,-33.4728024900E-03
+648.1000E-09,-25.1046018689E-03
+648.6000E-09,-46.0251034245E-03
+649.1000E-09,-33.4728024900E-03
+649.6000E-09,-16.7364012450E-03
+650.1000E-09,-33.4728024900E-03
+650.6000E-09,-41.8410031140E-03
+651.1000E-09,-16.7364012450E-03
+651.6000E-09,-20.9205015555E-03
+652.1000E-09,-16.7364012450E-03
+652.6000E-09,-8.3682006210E-03
+653.1000E-09,-16.7364012450E-03
+653.6000E-09,-16.7364012450E-03
+654.1000E-09,-16.7364012450E-03
+654.6000E-09,-16.7364012450E-03
+655.1000E-09,-20.9205015570E-03
+655.6000E-09,-16.7364012450E-03
+656.1000E-09,-12.5523009330E-03
+656.6000E-09,-16.7364012450E-03
+657.1000E-09,-29.2887021780E-03
+657.6000E-09,-16.7364012450E-03
+658.1000E-09,-29.2887021780E-03
+658.6000E-09,-16.7364012450E-03
+659.1000E-09,-16.7364012450E-03
+659.6000E-09,-16.7364012450E-03
+660.1000E-09,-16.7364012450E-03
+660.6000E-09,-29.2887021795E-03
+661.1000E-09,-20.9205015570E-03
+661.6000E-09,-33.4728024900E-03
+662.1000E-09,-29.2887021780E-03
+662.6000E-09,-16.7364012450E-03
+663.1000E-09,-33.4728024900E-03
+663.6000E-09,-25.1046018659E-03
+664.1000E-09,-20.9205015571E-03
+664.6000E-09,-33.4728024900E-03
+665.1000E-09,-33.4728024900E-03
+665.6000E-09,-33.4728024900E-03
+666.1000E-09,-33.4728024900E-03
+666.6000E-09,-16.7364012450E-03
+667.1000E-09,-29.2887021779E-03
+667.6000E-09,-16.7364012450E-03
+668.1000E-09,-29.2887021779E-03
+668.6000E-09,-20.9205015554E-03
+669.1000E-09,-4.1841003121E-03
+669.6000E-09,-33.4728024900E-03
+670.1000E-09,-16.7364012450E-03
+670.6000E-09,-29.2887021796E-03
+671.1000E-09,-33.4728024900E-03
+671.6000E-09,-46.0251034246E-03
+672.1000E-09,-33.4728024900E-03
+672.6000E-09,-37.6569028004E-03
+673.1000E-09,-33.4728024900E-03
+673.6000E-09,-33.4728024900E-03
+674.1000E-09,-33.4728024900E-03
+674.6000E-09,-16.7364012450E-03
+675.1000E-09,-16.7364012450E-03
+675.6000E-09,-12.5523009346E-03
+676.1000E-09,-37.6569028021E-03
+676.6000E-09,-16.7364012450E-03
+677.1000E-09,-4.1841003121E-03
+677.6000E-09,-29.2887021796E-03
+678.1000E-09,-29.2887021778E-03
+678.6000E-09,-33.4728024900E-03
+679.1000E-09,-16.7364012450E-03
+679.6000E-09,-16.7364012450E-03
+680.1000E-09,-20.9205015572E-03
+680.6000E-09,-29.2887021797E-03
+681.1000E-09,-20.9205015572E-03
+681.6000E-09,-16.7364012450E-03
+682.1000E-09,-20.9205015572E-03
+682.6000E-09,-46.0251034247E-03
+683.1000E-09,-16.7364012450E-03
+683.6000E-09,-29.2887021797E-03
+684.1000E-09,-29.2887021778E-03
+684.6000E-09,-4.1841003103E-03
+685.1000E-09,-29.2887021778E-03
+685.6000E-09,-25.1046018694E-03
+686.1000E-09,-16.7364012450E-03
+686.6000E-09,-16.7364012450E-03
+687.1000E-09,-16.7364012450E-03
+687.6000E-09,-16.7364012450E-03
+688.1000E-09,-16.7364012450E-03
+688.6000E-09,-33.4728024900E-03
+689.1000E-09,-46.0251034228E-03
+689.6000E-09,-20.9205015553E-03
+690.1000E-09,-33.4728024900E-03
+690.6000E-09,-20.9205015553E-03
+691.1000E-09,-20.9205015572E-03
+691.6000E-09,-16.7364012450E-03
+692.1000E-09,-16.7364012450E-03
+692.6000E-09,-20.9205015552E-03
+693.1000E-09,-16.7364012450E-03
+693.6000E-09,-20.9205015552E-03
+694.1000E-09,-29.2887021777E-03
+694.6000E-09,-16.7364012450E-03
+695.1000E-09,-16.7364012450E-03
+695.6000E-09,-8.3682006205E-03
+696.1000E-09,-16.7364012450E-03
+696.6000E-09,-16.7364012450E-03
+697.1000E-09,-20.9205015573E-03
+697.6000E-09,-25.1046018696E-03
+698.1000E-09,-29.2887021777E-03
+698.6000E-09,-16.7364012450E-03
+699.1000E-09,-29.2887021777E-03
+699.6000E-09,-33.4728024900E-03
+700.1000E-09,-29.2887021777E-03
+700.6000E-09,-20.9205015552E-03
+701.1000E-09,-16.7364012450E-03
+701.6000E-09,-16.7364012450E-03
+702.1000E-09,-12.5523009327E-03
+702.6000E-09,-12.5523009348E-03
+703.1000E-09,-4.1841003123E-03
+703.6000E-09,-12.5523009348E-03
+704.1000E-09,-16.7364012450E-03
+704.6000E-09,-4.1841003102E-03
+705.1000E-09,-20.9205015573E-03
+705.6000E-09,-20.9205015552E-03
+706.1000E-09,-16.7364012450E-03
