x-axis,1
second,Volt
-274.0000E-09,
-273.5000E-09,+21.9665266341E-03
-273.0000E-09,+0.0E+00
-272.5000E-09,+11.5062758559E-03
-272.0000E-09,+0.0E+00
-271.5000E-09,+0.0E+00
-271.0000E-09,+0.0E+00
-270.5000E-09,+0.0E+00
-270.0000E-09,+0.0E+00
-269.5000E-09,+5.2301253891E-03
-269.0000E-09,+0.0E+00
-268.5000E-09,+0.0E+00
-268.0000E-09,-13.5983260116E-03
-267.5000E-09,-16.7364012450E-03
-267.0000E-09,+0.0E+00
-266.5000E-09,-11.5062758559E-03
-266.0000E-09,-16.7364012450E-03
-265.5000E-09,-21.9665266341E-03
-265.0000E-09,-13.5983260116E-03
-264.5000E-09,-16.7364012450E-03
-264.0000E-09,+13.5983260116E-03
-263.5000E-09,-11.5062758559E-03
-263.0000E-09,-13.5983260116E-03
-262.5000E-09,-5.2301253891E-03
-262.0000E-09,+0.0E+00
-261.5000E-09,+11.5062758559E-03
-261.0000E-09,+3.1380752334E-03
-260.5000E-09,+0.0E+00
-260.0000E-09,-13.5983260116E-03
-259.5000E-09,+0.0E+00
-259.0000E-09,+10.4602507782E-03
-258.5000E-09,-21.9665266341E-03
-258.0000E-09,-16.7364012450E-03
-257.5000E-09,-21.9665266341E-03
-257.0000E-09,-16.7364012450E-03
-256.5000E-09,-16.7364012450E-03
-256.0000E-09,+0.0E+00
-255.5000E-09,+0.0E+00
-255.0000E-09,-13.5983260116E-03
-254.5000E-09,-5.2301253891E-03
-254.0000E-09,-16.7364012450E-03
-253.5000E-09,-5.2301253891E-03
-253.0000E-09,+13.5983260116E-03
-252.5000E-09,+0.0E+00
-252.0000E-09,+0.0E+00
-251.5000E-09,+11.5062758559E-03
-251.0000E-09,+3.1380752334E-03
-250.5000E-09,+11.5062758559E-03
-250.0000E-09,+0.0E+00
-249.5000E-09,-5.2301253891E-03
-249.0000E-09,+3.1380752334E-03
-248.5000E-09,-5.2301253891E-03
-248.0000E-09,-13.5983260116E-03
-247.5000E-09,-5.2301253891E-03
-247.0000E-09,-13.5983260116E-03
-246.5000E-09,+0.0E+00
-246.0000E-09,-13.5983260116E-03
-245.5000E-09,+0.0E+00
-245.0000E-09,-3.1380752334E-03
-244.5000E-09,-5.2301253891E-03
-244.0000E-09,-13.5983260116E-03
-243.5000E-09,-11.5062758559E-03
-243.0000E-09,+0.0E+00
-242.5000E-09,+0.0E+00
-242.0000E-09,+0.0E+00
-241.5000E-09,+16.7364012450E-03
-241.0000E-09,+13.5983260116E-03
-240.5000E-09,-16.7364012450E-03
-240.0000E-09,-16.7364012450E-03
-239.5000E-09,-16.7364012450E-03
-239.0000E-09,-3.1380752333E-03
-238.5000E-09,+0.0E+00
-238.0000E-09,+0.0E+00
-237.5000E-09,+5.2301253892E-03
-237.0000E-09,-16.7364012450E-03
-236.5000E-09,+0.0E+00
-236.0000E-09,-16.7364012450E-03
-235.5000E-09,-28.2426771009E-03
-235.0000E-09,-3.1380752334E-03
-234.5000E-09,-11.5062758559E-03
-234.0000E-09,+0.0E+00
-233.5000E-09,-5.2301253891E-03
-233.0000E-09,-16.7364012450E-03
-232.5000E-09,+11.5062758559E-03
-232.0000E-09,-3.1380752334E-03
-231.5000E-09,-16.7364012450E-03
-231.0000E-09,-13.5983260116E-03
-230.5000E-09,-11.5062758559E-03
-230.0000E-09,+3.1380752334E-03
-229.5000E-09,+0.0E+00
-229.0000E-09,-13.5983260116E-03
-228.5000E-09,-11.5062758559E-03
-228.0000E-09,+0.0E+00
-227.5000E-09,+0.0E+00
-227.0000E-09,+13.5983260116E-03
-226.5000E-09,-5.2301253891E-03
-226.0000E-09,-3.1380752334E-03
-225.5000E-09,-16.7364012450E-03
-225.0000E-09,-3.1380752334E-03
-224.5000E-09,-5.2301253891E-03
-224.0000E-09,-13.5983260116E-03
-223.5000E-09,+11.5062758559E-03
-223.0000E-09,-3.1380752334E-03
-222.5000E-09,-5.2301253891E-03
-222.0000E-09,+0.0E+00
-221.5000E-09,-11.5062758559E-03
-221.0000E-09,-3.1380752334E-03
-220.5000E-09,+0.0E+00
-220.0000E-09,+0.0E+00
-219.5000E-09,+5.2301253891E-03
-219.0000E-09,+0.0E+00
-218.5000E-09,-11.5062758559E-03
-218.0000E-09,-13.5983260116E-03
-217.5000E-09,+0.0E+00
-217.0000E-09,+3.1380752334E-03
-216.5000E-09,+11.5062758559E-03
-216.0000E-09,+0.0E+00
-215.5000E-09,-11.5062758559E-03
-215.0000E-09,-3.1380752334E-03
-214.5000E-09,-23.0125517118E-03
-214.0000E-09,-13.5983260116E-03
-213.5000E-09,+0.0E+00
-213.0000E-09,+0.0E+00
-212.5000E-09,-5.2301253891E-03
-212.0000E-09,-16.7364012450E-03
-211.5000E-09,-21.9665266341E-03
-211.0000E-09,-13.5983260116E-03
-210.5000E-09,+0.0E+00
-210.0000E-09,-16.7364012450E-03
-209.5000E-09,+0.0E+00
-209.0000E-09,-3.1380752334E-03
-208.5000E-09,-16.7364012450E-03
-208.0000E-09,-13.5983260116E-03
-207.5000E-09,-16.7364012450E-03
-207.0000E-09,+0.0E+00
-206.5000E-09,-16.7364012450E-03
-206.0000E-09,-16.7364012450E-03
-205.5000E-09,-16.7364012450E-03
-205.0000E-09,-16.7364012450E-03
-204.5000E-09,+0.0E+00
-204.0000E-09,-13.5983260116E-03
-203.5000E-09,+0.0E+00
-203.0000E-09,-3.1380752334E-03
-202.5000E-09,-11.5062758559E-03
-202.0000E-09,+0.0E+00
-201.5000E-09,-5.2301253891E-03
-201.0000E-09,-16.7364012450E-03
-200.5000E-09,+0.0E+00
-200.0000E-09,-13.5983260116E-03
-199.5000E-09,-11.5062758559E-03
-199.0000E-09,-3.1380752334E-03
-198.5000E-09,-16.7364012450E-03
-198.0000E-09,+0.0E+00
-197.5000E-09,-16.7364012450E-03
-197.0000E-09,-30.3347272566E-03
-196.5000E-09,+0.0E+00
-196.0000E-09,-16.7364012450E-03
-195.5000E-09,-5.2301253891E-03
-195.0000E-09,-3.1380752334E-03
-194.5000E-09,-5.2301253891E-03
-194.0000E-09,+0.0E+00
-193.5000E-09,+0.0E+00
-193.0000E-09,+10.4602507781E-03
-192.5000E-09,-16.7364012450E-03
-192.0000E-09,-13.5983260116E-03
-191.5000E-09,+0.0E+00
-191.0000E-09,-13.5983260116E-03
-190.5000E-09,+0.0E+00
-190.0000E-09,+0.0E+00
-189.5000E-09,-16.7364012450E-03
-189.0000E-09,-3.1380752334E-03
-188.5000E-09,+0.0E+00
-188.0000E-09,-27.1966520231E-03
-187.5000E-09,+0.0E+00
-187.0000E-09,+0.0E+00
-186.5000E-09,-5.2301253891E-03
-186.0000E-09,-13.5983260116E-03
-185.5000E-09,+0.0E+00
-185.0000E-09,+0.0E+00
-184.5000E-09,-16.7364012450E-03
-184.0000E-09,-13.5983260116E-03
-183.5000E-09,-11.5062758560E-03
-183.0000E-09,-16.7364012450E-03
-182.5000E-09,-6.2761504669E-03
-182.0000E-09,-16.7364012450E-03
-181.5000E-09,+0.0E+00
-181.0000E-09,+0.0E+00
-180.5000E-09,+0.0E+00
-180.0000E-09,-16.7364012450E-03
-179.5000E-09,-16.7364012450E-03
-179.0000E-09,-16.7364012450E-03
-178.5000E-09,-11.5062758560E-03
-178.0000E-09,-16.7364012450E-03
-177.5000E-09,-5.2301253890E-03
-177.0000E-09,-16.7364012450E-03
-176.5000E-09,-16.7364012450E-03
-176.0000E-09,-16.7364012450E-03
-175.5000E-09,-5.2301253890E-03
-175.0000E-09,+0.0E+00
-174.5000E-09,+0.0E+00
-174.0000E-09,+0.0E+00
-173.5000E-09,-16.7364012450E-03
-173.0000E-09,-16.7364012450E-03
-172.5000E-09,+0.0E+00
-172.0000E-09,+10.4602507781E-03
-171.5000E-09,-16.7364012450E-03
-171.0000E-09,+0.0E+00
-170.5000E-09,-11.5062758560E-03
-170.0000E-09,-27.1966520231E-03
-169.5000E-09,-10.4602507780E-03
-169.0000E-09,-13.5983260115E-03
-168.5000E-09,-16.7364012450E-03
-168.0000E-09,-16.7364012450E-03
-167.5000E-09,-11.5062758560E-03
-167.0000E-09,-16.7364012450E-03
-166.5000E-09,-16.7364012450E-03
-166.0000E-09,+0.0E+00
-165.5000E-09,-16.7364012450E-03
-165.0000E-09,-13.5983260115E-03
-164.5000E-09,+0.0E+00
-164.0000E-09,-13.5983260115E-03
-163.5000E-09,-5.2301253890E-03
-163.0000E-09,-16.7364012450E-03
-162.5000E-09,-5.2301253890E-03
-162.0000E-09,-13.5983260115E-03
-161.5000E-09,-11.5062758560E-03
-161.0000E-09,-16.7364012450E-03
-160.5000E-09,-5.2301253890E-03
-160.0000E-09,-13.5983260115E-03
-159.5000E-09,+0.0E+00
-159.0000E-09,-13.5983260115E-03
-158.5000E-09,-5.2301253890E-03
-158.0000E-09,+0.0E+00
-157.5000E-09,+0.0E+00
-157.0000E-09,-3.1380752335E-03
-156.5000E-09,+0.0E+00
-156.0000E-09,+0.0E+00
-155.5000E-09,-11.5062758560E-03
-155.0000E-09,-13.5983260115E-03
-154.5000E-09,+0.0E+00
-154.0000E-09,-16.7364012450E-03
-153.5000E-09,+0.0E+00
-153.0000E-09,+0.0E+00
-152.5000E-09,-5.2301253890E-03
-152.0000E-09,+0.0E+00
-151.5000E-09,-5.2301253890E-03
-151.0000E-09,-13.5983260115E-03
-150.5000E-09,-11.5062758560E-03
-150.0000E-09,-3.1380752335E-03
-149.5000E-09,-5.2301253890E-03
-149.0000E-09,-3.1380752335E-03
-148.5000E-09,+0.0E+00
-148.0000E-09,-3.1380752335E-03
-147.5000E-09,+0.0E+00
-147.0000E-09,+0.0E+00
-146.5000E-09,+5.2301253890E-03
-146.0000E-09,+13.5983260115E-03
-145.5000E-09,+16.7364012450E-03
-145.0000E-09,-3.1380752335E-03
-144.5000E-09,-16.7364012450E-03
-144.0000E-09,-13.5983260115E-03
-143.5000E-09,-16.7364012450E-03
-143.0000E-09,-13.5983260115E-03
-142.5000E-09,-16.7364012450E-03
-142.0000E-09,+0.0E+00
-141.5000E-09,+0.0E+00
-141.0000E-09,+0.0E+00
-140.5000E-09,+16.7364012450E-03
-140.0000E-09,+10.4602507779E-03
-139.5000E-09,-11.5062758560E-03
-139.0000E-09,+13.5983260115E-03
-138.5000E-09,+0.0E+00
-138.0000E-09,+3.1380752335E-03
-137.5000E-09,-5.2301253890E-03
-137.0000E-09,-13.5983260115E-03
-136.5000E-09,+0.0E+00
-136.0000E-09,-16.7364012450E-03
-135.5000E-09,+0.0E+00
-135.0000E-09,+0.0E+00
-134.5000E-09,+0.0E+00
-134.0000E-09,+0.0E+00
-133.5000E-09,-11.5062758560E-03
-133.0000E-09,-13.5983260115E-03
-132.5000E-09,-16.7364012450E-03
-132.0000E-09,-13.5983260115E-03
-131.5000E-09,-5.2301253890E-03
-131.0000E-09,+0.0E+00
-130.5000E-09,-16.7364012450E-03
-130.0000E-09,-16.7364012450E-03
-129.5000E-09,-5.2301253889E-03
-129.0000E-09,-16.7364012450E-03
-128.5000E-09,-16.7364012450E-03
-128.0000E-09,-13.5983260114E-03
-127.5000E-09,+0.0E+00
-127.0000E-09,-3.1380752336E-03
-126.5000E-09,+0.0E+00
-126.0000E-09,+3.1380752336E-03
-125.5000E-09,+0.0E+00
-125.0000E-09,+13.5983260114E-03
-124.5000E-09,+0.0E+00
-124.0000E-09,+0.0E+00
-123.5000E-09,+0.0E+00
-123.0000E-09,+3.1380752336E-03
-122.5000E-09,-11.5062758561E-03
-122.0000E-09,-3.1380752336E-03
-121.5000E-09,+0.0E+00
-121.0000E-09,+10.4602507779E-03
-120.5000E-09,-5.2301253889E-03
-120.0000E-09,+3.1380752336E-03
-119.5000E-09,-5.2301253889E-03
-119.0000E-09,-16.7364012450E-03
-118.5000E-09,-11.5062758561E-03
-118.0000E-09,-16.7364012450E-03
-117.5000E-09,+0.0E+00
-117.0000E-09,+0.0E+00
-116.5000E-09,+0.0E+00
-116.0000E-09,+0.0E+00
-115.5000E-09,-11.5062758561E-03
-115.0000E-09,+3.1380752336E-03
-114.5000E-09,+16.7364012450E-03
-114.0000E-09,+0.0E+00
-113.5000E-09,+0.0E+00
-113.0000E-09,-3.1380752336E-03
-112.5000E-09,-16.7364012450E-03
-112.0000E-09,-13.5983260114E-03
-111.5000E-09,-16.7364012450E-03
-111.0000E-09,-3.1380752336E-03
-110.5000E-09,+0.0E+00
-110.0000E-09,+0.0E+00
-109.5000E-09,-16.7364012450E-03
-109.0000E-09,-16.7364012450E-03
-108.5000E-09,+0.0E+00
-108.0000E-09,-3.1380752336E-03
-107.5000E-09,-16.7364012450E-03
-107.0000E-09,-3.1380752336E-03
-106.5000E-09,+5.2301253889E-03
-106.0000E-09,-13.5983260114E-03
-105.5000E-09,-5.2301253889E-03
-105.0000E-09,-13.5983260114E-03
-104.5000E-09,+0.0E+00
-104.0000E-09,+0.0E+00
-103.5000E-09,+0.0E+00
-103.0000E-09,-13.5983260114E-03
-102.5000E-09,-5.2301253889E-03
-102.0000E-09,+0.0E+00
-101.5000E-09,-11.5062758561E-03
-101.0000E-09,-13.5983260114E-03
-100.5000E-09,+5.2301253889E-03
-100.0000E-09,-3.1380752336E-03
-99.5000E-09,-11.5062758561E-03
-99.0000E-09,+0.0E+00
-98.5000E-09,-5.2301253889E-03
-98.0000E-09,+0.0E+00
-97.5000E-09,+11.5062758561E-03
-97.0000E-09,+0.0E+00
-96.5000E-09,-5.2301253889E-03
-96.0000E-09,+0.0E+00
-95.5000E-09,+11.5062758561E-03
-95.0000E-09,-16.7364012450E-03
-94.5000E-09,+0.0E+00
-94.0000E-09,-13.5983260114E-03
-93.5000E-09,-16.7364012450E-03
-93.0000E-09,-16.7364012450E-03
-92.5000E-09,-16.7364012450E-03
-92.0000E-09,-16.7364012450E-03
-91.5000E-09,-16.7364012450E-03
-91.0000E-09,-13.5983260114E-03
-90.5000E-09,-11.5062758561E-03
-90.0000E-09,-16.7364012450E-03
-89.5000E-09,-16.7364012450E-03
-89.0000E-09,+10.4602507779E-03
-88.5000E-09,-5.2301253889E-03
-88.0000E-09,+0.0E+00
-87.5000E-09,-5.2301253889E-03
-87.0000E-09,+0.0E+00
-86.5000E-09,-23.0125517121E-03
-86.0000E-09,-3.1380752336E-03
-85.5000E-09,+0.0E+00
-85.0000E-09,-3.1380752336E-03
-84.5000E-09,+0.0E+00
-84.0000E-09,-16.7364012450E-03
-83.5000E-09,+0.0E+00
-83.0000E-09,+0.0E+00
-82.5000E-09,+0.0E+00
-82.0000E-09,-16.7364012450E-03
-81.5000E-09,-5.2301253889E-03
-81.0000E-09,-3.1380752336E-03
-80.5000E-09,-11.5062758561E-03
-80.0000E-09,-24.0585767893E-03
-79.5000E-09,-23.0125517121E-03
-79.0000E-09,+0.0E+00
-78.5000E-09,-5.2301253889E-03
-78.0000E-09,+0.0E+00
-77.5000E-09,-11.5062758561E-03
-77.0000E-09,-19.8744764785E-03
-76.5000E-09,-11.5062758561E-03
-76.0000E-09,-3.1380752336E-03
-75.5000E-09,-11.5062758561E-03
-75.0000E-09,+13.5983260114E-03
-74.5000E-09,+5.2301253889E-03
-74.0000E-09,+0.0E+00
-73.5000E-09,+6.2761504671E-03
-73.0000E-09,+0.0E+00
-72.5000E-09,+16.7364012450E-03
-72.0000E-09,+0.0E+00
-71.5000E-09,+0.0E+00
-71.0000E-09,+0.0E+00
-70.5000E-09,+0.0E+00
-70.0000E-09,+0.0E+00
-69.5000E-09,+5.2301253890E-03
-69.0000E-09,-13.5983260114E-03
-68.5000E-09,+0.0E+00
-68.0000E-09,-3.1380752335E-03
-67.5000E-09,-5.2301253889E-03
-67.0000E-09,-3.1380752336E-03
-66.5000E-09,+0.0E+00
-66.0000E-09,+0.0E+00
-65.5000E-09,-16.7364012450E-03
-65.0000E-09,+3.1380752335E-03
-64.5000E-09,-16.7364012450E-03
-64.0000E-09,+0.0E+00
-63.5000E-09,+11.5062758561E-03
-63.0000E-09,-3.1380752335E-03
-62.5000E-09,-5.2301253890E-03
-62.0000E-09,+16.7364012450E-03
-61.5000E-09,-5.2301253890E-03
-61.0000E-09,+0.0E+00
-60.5000E-09,+5.2301253890E-03
-60.0000E-09,+0.0E+00
-59.5000E-09,-5.2301253890E-03
-59.0000E-09,-13.5983260115E-03
-58.5000E-09,+6.2761504671E-03
-58.0000E-09,+0.0E+00
-57.5000E-09,-5.2301253890E-03
-57.0000E-09,+16.7364012450E-03
-56.5000E-09,-11.5062758560E-03
-56.0000E-09,+0.0E+00
-55.5000E-09,-5.2301253890E-03
-55.0000E-09,-3.1380752335E-03
-54.5000E-09,-11.5062758560E-03
-54.0000E-09,-16.7364012450E-03
-53.5000E-09,-5.2301253890E-03
-53.0000E-09,+0.0E+00
-52.5000E-09,+0.0E+00
-52.0000E-09,-3.1380752335E-03
-51.5000E-09,-16.7364012450E-03
-51.0000E-09,+0.0E+00
-50.5000E-09,-11.5062758560E-03
-50.0000E-09,-6.2761504671E-03
-49.5000E-09,+0.0E+00
-49.0000E-09,-3.1380752335E-03
-48.5000E-09,-16.7364012450E-03
-48.0000E-09,-13.5983260115E-03
-47.5000E-09,-16.7364012450E-03
-47.0000E-09,+0.0E+00
-46.5000E-09,-6.2761504671E-03
-46.0000E-09,+0.0E+00
-45.5000E-09,+0.0E+00
-45.0000E-09,+0.0E+00
-44.5000E-09,+0.0E+00
-44.0000E-09,+0.0E+00
-43.5000E-09,-28.2426771010E-03
-43.0000E-09,-3.1380752335E-03
-42.5000E-09,-11.5062758560E-03
-42.0000E-09,-13.5983260115E-03
-41.5000E-09,+34.5188275681E-03
-41.0000E-09,+132.8451848827E-03
-40.5000E-09,+325.3137992002E-03
-40.0000E-09,+494.7698618056E-03
-39.5000E-09,+608.7865952870E-03
-39.0000E-09,+632.8451720764E-03
-38.5000E-09,+591.0041689639E-03
-38.0000E-09,+549.1631658514E-03
-37.5000E-09,+518.8284385949E-03
-37.0000E-09,+471.7573100935E-03
-36.5000E-09,+473.8493602489E-03
-36.0000E-09,+435.1464323699E-03
-35.5000E-09,+401.6736298800E-03
-35.0000E-09,+358.7866016893E-03
-34.5000E-09,+273.0125453089E-03
-34.0000E-09,+214.4351409514E-03
-33.5000E-09,+144.3514607379E-03
-33.0000E-09,+94.1422570029E-03
-32.5000E-09,+21.9665266340E-03
-32.0000E-09,-19.8744764785E-03
-31.5000E-09,-61.7154795910E-03
-31.0000E-09,-106.6945579371E-03
-30.5000E-09,-150.6276112050E-03
-30.0000E-09,-184.1004136950E-03
-29.5000E-09,-200.8368149400E-03
-29.0000E-09,-223.8493666520E-03
-28.5000E-09,-240.5857678970E-03
-28.0000E-09,-254.1840939085E-03
-27.5000E-09,-267.7824199200E-03
-27.0000E-09,-270.9204951535E-03
-26.5000E-09,-301.2552224100E-03
-26.0000E-09,-317.9916236550E-03
-25.5000E-09,-329.4978995110E-03
-25.0000E-09,-334.7280249000E-03
-24.5000E-09,-346.2343007560E-03
-24.0000E-09,-331.5899496664E-03
-23.5000E-09,-334.7280249000E-03
-23.0000E-09,-324.2677741220E-03
-22.5000E-09,-334.7280249000E-03
-22.0000E-09,-334.7280249000E-03
-21.5000E-09,-334.7280249000E-03
-21.0000E-09,-321.1296988885E-03
-20.5000E-09,-317.9916236550E-03
-20.0000E-09,-337.8661001335E-03
-19.5000E-09,-334.7280249000E-03
-19.0000E-09,-331.5899496664E-03
-18.5000E-09,-334.7280249000E-03
-18.0000E-09,-334.7280249000E-03
-17.5000E-09,-289.7489465539E-03
-17.0000E-09,-281.3807459314E-03
-16.5000E-09,-284.5188211650E-03
-16.0000E-09,-281.3807459314E-03
-15.5000E-09,-267.7824199200E-03
-15.0000E-09,-234.3096174300E-03
-14.5000E-09,-217.5732161850E-03
-14.0000E-09,-214.4351409514E-03
-13.5000E-09,-217.5732161850E-03
-13.0000E-09,-200.8368149400E-03
-12.5000E-09,-189.3305390839E-03
-12.0000E-09,-184.1004136950E-03
-11.5000E-09,-195.6066895510E-03
-11.0000E-09,-153.7656864385E-03
-10.5000E-09,-150.6276112050E-03
-10.0000E-09,-150.6276112050E-03
-9.5000E-09,-127.6150594929E-03
-9.0000E-09,-130.7531347264E-03
-8.5000E-09,-117.1548087150E-03
-8.0000E-09,-114.0167334815E-03
-7.5000E-09,-111.9246833260E-03
-7.0000E-09,-94.1422570029E-03
-6.5000E-09,-95.1882820810E-03
-6.0000E-09,-216.5271911077E-03
-5.5000E-09,-448.7447583822E-03
-5.0000E-09,-715.4811532241E-03
-4.5000E-09,-876.5690152070E-03
-4.0000E-09,-937.2384697199E-03
-3.5000E-09,-925.7321938639E-03
-3.0000E-09,-897.4895167628E-03
-2.5000E-09,-870.2928647399E-03
-2.0000E-09,-853.5564634949E-03
-1.5000E-09,-813.8075105378E-03
-1.0000E-09,-627.6150466866E-03
-500.0E-12,-218.6192412615E-03
+0.0E+00,+322.1757239674E-03
+500.0E-12,+744.7698554032E-03
+1.0000E-09,+946.6526954205E-03
+1.5000E-09,+1.0104602251670E+00
+2.0000E-09,+1.0041840746999E+00
+2.5000E-09,+930.9623192528E-03
+3.0000E-09,+711.2970529116E-03
+3.5000E-09,+313.8075233425E-03
+4.0000E-09,-128.6610845718E-03
+4.5000E-09,-397.4895295691E-03
+5.0000E-09,-485.3556361049E-03
+5.5000E-09,-457.1129590039E-03
+6.0000E-09,-415.2719558914E-03
+6.5000E-09,-333.6819998218E-03
+7.0000E-09,-72.1757303682E-03
+7.5000E-09,+332.6359747453E-03
+8.0000E-09,+728.0334541582E-03
+8.5000E-09,+983.2635731440E-03
+9.0000E-09,+1.0543932784349E+00
+9.5000E-09,+1.0261506013338E+00
+10.0000E-09,+984.3095982213E-03
+10.5000E-09,+953.9748709649E-03
+11.0000E-09,+914.2259180078E-03
+11.5000E-09,+790.7949588258E-03
+12.0000E-09,+520.9204887496E-03
+12.5000E-09,+114.0167334807E-03
+13.0000E-09,-183.0543886177E-03
+13.5000E-09,-324.2677741220E-03
+14.0000E-09,-337.8661001335E-03
+14.5000E-09,-334.7280249000E-03
+15.0000E-09,-271.9665202308E-03
+15.5000E-09,-36.6108777227E-03
+16.0000E-09,+362.9707020018E-03
+16.5000E-09,+728.0334541582E-03
+17.0000E-09,+943.5146201870E-03
+17.5000E-09,+1.0041840746999E+00
+18.0000E-09,+981.1715229878E-03
+18.5000E-09,+925.7321938638E-03
+19.0000E-09,+900.6275919964E-03
+19.5000E-09,+858.7865888839E-03
+20.0000E-09,+694.5606516666E-03
+20.5000E-09,+325.3137991986E-03
+21.0000E-09,-101.4644325489E-03
+21.5000E-09,-420.5020812812E-03
+22.0000E-09,-555.4393163185E-03
+22.5000E-09,-557.5313664739E-03
+23.0000E-09,-549.1631658514E-03
+23.5000E-09,-472.8033351708E-03
+24.0000E-09,-206.0669403281E-03
+24.5000E-09,+198.7447647853E-03
+25.0000E-09,+577.4058429533E-03
+25.5000E-09,+849.3723631840E-03
+26.0000E-09,+937.2384697199E-03
+26.5000E-09,+925.7321938638E-03
+27.0000E-09,+856.6945387284E-03
+27.5000E-09,+847.2803130278E-03
+28.0000E-09,+787.6568835922E-03
+28.5000E-09,+527.1966392166E-03
+29.0000E-09,+62.7615046675E-03
+29.5000E-09,-404.8117051143E-03
+30.0000E-09,-695.6066767455E-03
+30.5000E-09,-786.6108585149E-03
+31.0000E-09,-769.8744572699E-03
+31.5000E-09,-769.8744572699E-03
+32.0000E-09,-690.3765513558E-03
+32.5000E-09,-432.0083571356E-03
+33.0000E-09,-15.6903761661E-03
+33.5000E-09,+411.0878555814E-03
+34.0000E-09,+698.7447519791E-03
+34.5000E-09,+814.8535356159E-03
+35.0000E-09,+800.2091845264E-03
+35.5000E-09,+775.1045826589E-03
+36.0000E-09,+763.5983068028E-03
+36.5000E-09,+645.3974730097E-03
+37.0000E-09,+316.9455985761E-03
+37.5000E-09,-177.8242632295E-03
+38.0000E-09,-627.6150466882E-03
+38.5000E-09,-866.1087644290E-03
+39.0000E-09,-920.5020684749E-03
+39.5000E-09,-903.7656672299E-03
+40.0000E-09,-870.2928647399E-03
+40.5000E-09,-830.5439117828E-03
+41.0000E-09,-591.0041689631E-03
+41.5000E-09,-157.9497867486E-03
+42.0000E-09,+296.0250970218E-03
+42.5000E-09,+609.8326203651E-03
+43.0000E-09,+719.6652535349E-03
+43.5000E-09,+708.1589776789E-03
+44.0000E-09,+689.3305262785E-03
+44.5000E-09,+708.1589776789E-03
+45.0000E-09,+583.6819934187E-03
+45.5000E-09,+208.1589904836E-03
+46.0000E-09,-291.8409967109E-03
+46.5000E-09,-716.5271783021E-03
+47.0000E-09,-926.7782189420E-03
+47.5000E-09,-965.4811468209E-03
+48.0000E-09,-934.1003944864E-03
+48.5000E-09,-920.5020684749E-03
+49.0000E-09,-860.8786390393E-03
+49.5000E-09,-627.6150466866E-03
+50.0000E-09,-183.0543886161E-03
+50.5000E-09,+248.9539685203E-03
+51.0000E-09,+581.5899432641E-03
+51.5000E-09,+702.9288522899E-03
+52.0000E-09,+702.9288522899E-03
+52.5000E-09,+691.4225764339E-03
+53.0000E-09,+710.2510278343E-03
+53.5000E-09,+538.7029150727E-03
+54.0000E-09,+132.8451848811E-03
+54.5000E-09,-360.8786518463E-03
+55.0000E-09,-758.3681814146E-03
+55.5000E-09,-938.2844947980E-03
+56.0000E-09,-967.5731969764E-03
+56.5000E-09,-925.7321938639E-03
+57.0000E-09,-903.7656672299E-03
+57.5000E-09,-903.7656672299E-03
+58.0000E-09,-920.5020684749E-03
+58.5000E-09,-937.2384697199E-03
+59.0000E-09,-934.1003944864E-03
+59.5000E-09,-932.0083443309E-03
+60.0000E-09,-920.5020684749E-03
+60.5000E-09,-892.2593913739E-03
+61.0000E-09,-790.7949588258E-03
+61.5000E-09,-543.9330404617E-03
+62.0000E-09,-89.9581566906E-03
+62.5000E-09,+422.5941314373E-03
+63.0000E-09,+825.3137863946E-03
+63.5000E-09,+1.0167363756340E+00
+64.0000E-09,+1.0543932784349E+00
+64.5000E-09,+1.0146443254778E+00
+65.0000E-09,+950.8367957314E-03
+65.5000E-09,+915.2719430859E-03
+66.0000E-09,+883.8911907514E-03
+66.5000E-09,+802.3012346818E-03
+67.0000E-09,+537.6568899946E-03
+67.5000E-09,+62.7615046676E-03
+68.0000E-09,-373.4309527797E-03
+68.5000E-09,-631.7991469990E-03
+69.0000E-09,-702.9288522899E-03
+69.5000E-09,-702.9288522899E-03
+70.0000E-09,-660.0418240993E-03
+70.5000E-09,-415.2719558907E-03
+71.0000E-09,-2.0920501547E-03
+71.5000E-09,+449.7907834602E-03
+72.0000E-09,+768.8284321925E-03
+72.5000E-09,+910.0418176969E-03
+73.0000E-09,+900.6275919964E-03
+73.5000E-09,+842.0501876389E-03
+74.0000E-09,+820.0836610049E-03
+74.5000E-09,+740.5857550908E-03
+75.0000E-09,+450.8368085362E-03
+75.5000E-09,-27.1966520243E-03
+76.0000E-09,-547.0711156967E-03
+76.5000E-09,-844.1422377950E-03
+77.0000E-09,-950.8367957314E-03
+77.5000E-09,-908.9957926189E-03
+78.0000E-09,-897.4895167628E-03
+78.5000E-09,-830.5439117829E-03
+79.0000E-09,-664.2259244103E-03
+79.5000E-09,-291.8409967087E-03
+80.0000E-09,+185.1464387737E-03
+80.5000E-09,+520.9204887511E-03
+81.0000E-09,+692.4686015120E-03
+81.5000E-09,+708.1589776789E-03
+82.0000E-09,+702.9288522899E-03
+82.5000E-09,+714.4351281459E-03
+83.0000E-09,+792.8870089819E-03
+83.5000E-09,+859.8326139619E-03
+84.0000E-09,+887.0292659849E-03
+84.5000E-09,+847.2803130279E-03
+85.0000E-09,+816.9455857714E-03
+85.5000E-09,+746.8619055579E-03
+86.0000E-09,+623.4309463758E-03
+86.5000E-09,+456.0669339259E-03
+87.0000E-09,+189.3305390833E-03
+87.5000E-09,-210.2510406412E-03
+88.0000E-09,-630.7531219216E-03
+88.5000E-09,-939.3305198760E-03
+89.0000E-09,-1.0742677549134E+00
+89.5000E-09,-1.0763598050689E+00
+90.0000E-09,-1.0209204759449E+00
+90.5000E-09,-975.9413975989E-03
+91.0000E-09,-967.5731969764E-03
+91.5000E-09,-937.2384697199E-03
+92.0000E-09,-864.0167142729E-03
+92.5000E-09,-661.0878491768E-03
+93.0000E-09,-256.2761440633E-03
+93.5000E-09,+142.2594105832E-03
+94.0000E-09,+394.3514543355E-03
+94.5000E-09,+503.1380624280E-03
+95.0000E-09,+552.3012410849E-03
+95.5000E-09,+484.3096110269E-03
+96.0000E-09,+199.7907898613E-03
+96.5000E-09,-238.4937177421E-03
+97.0000E-09,-647.4895231666E-03
+97.5000E-09,-933.0543694090E-03
+98.0000E-09,-1.0209204759449E+00
+98.5000E-09,-997.9079242329E-03
+99.0000E-09,-950.8367957314E-03
+99.5000E-09,-903.7656672299E-03
+100.0000E-09,-790.7949588259E-03
+100.5000E-09,-515.6903633608E-03
+101.0000E-09,-46.0251034228E-03
+101.5000E-09,+404.8117051141E-03
+102.0000E-09,+698.7447519790E-03
+102.5000E-09,+809.6234102269E-03
+103.0000E-09,+803.3472597599E-03
+103.5000E-09,+803.3472597599E-03
+104.0000E-09,+777.1966328144E-03
+104.5000E-09,+543.9330404618E-03
+105.0000E-09,+96.2343071578E-03
+105.5000E-09,-377.6150530911E-03
+106.0000E-09,-701.8828272125E-03
+106.5000E-09,-820.0836610049E-03
+107.0000E-09,-803.3472597599E-03
+107.5000E-09,-769.8744572699E-03
+108.0000E-09,-786.6108585149E-03
+108.5000E-09,-831.5899368609E-03
+109.0000E-09,-873.4309399734E-03
+109.5000E-09,-898.5355418409E-03
+110.0000E-09,-906.9037424634E-03
+110.5000E-09,-870.2928647399E-03
+111.0000E-09,-813.8075105379E-03
+111.5000E-09,-673.6401501109E-03
+112.0000E-09,-476.9874354818E-03
+112.5000E-09,-142.2594105819E-03
+113.0000E-09,+315.8995735001E-03
+113.5000E-09,+711.2970529130E-03
+114.0000E-09,+983.2635731439E-03
+114.5000E-09,+1.0543932784349E+00
+115.0000E-09,+1.0512552032014E+00
+115.5000E-09,+1.0146443254779E+00
+116.0000E-09,+950.8367957314E-03
+116.5000E-09,+914.2259180079E-03
+117.0000E-09,+934.1003944864E-03
+117.5000E-09,+937.2384697199E-03
+118.0000E-09,+937.2384697199E-03
+118.5000E-09,+932.0083443309E-03
+119.0000E-09,+903.7656672299E-03
+119.5000E-09,+915.2719430859E-03
+120.0000E-09,+903.7656672299E-03
+120.5000E-09,+887.0292659849E-03
+121.0000E-09,+731.1715293903E-03
+121.5000E-09,+347.2803258328E-03
+122.0000E-09,-191.4225892407E-03
+122.5000E-09,-695.6066767461E-03
+123.0000E-09,-996.8618991554E-03
+123.5000E-09,-1.0711296796799E+00
+124.0000E-09,-1.0313807267228E+00
+124.5000E-09,-964.4351217428E-03
+125.0000E-09,-906.9037424634E-03
+125.5000E-09,-908.9957926189E-03
+126.0000E-09,-906.9037424634E-03
+126.5000E-09,-920.5020684749E-03
+127.0000E-09,-903.7656672299E-03
+127.5000E-09,-898.5355418409E-03
+128.0000E-09,-900.6275919964E-03
+128.5000E-09,-864.0167142728E-03
+129.0000E-09,-790.7949588258E-03
+129.5000E-09,-509.4142128936E-03
+130.0000E-09,-9.4142256991E-03
+130.5000E-09,+511.5062630513E-03
+131.0000E-09,+902.7196421526E-03
+131.5000E-09,+1.0658995542909E+00
+132.0000E-09,+1.0648535292128E+00
+132.5000E-09,+997.9079242328E-03
+133.0000E-09,+950.8367957313E-03
+133.5000E-09,+925.7321938639E-03
+134.0000E-09,+857.7405638058E-03
+134.5000E-09,+644.3514479316E-03
+135.0000E-09,+213.3891158725E-03
+135.5000E-09,-260.4602443764E-03
+136.0000E-09,-581.5899432641E-03
+136.5000E-09,-686.1924510449E-03
+137.0000E-09,-689.3305262785E-03
+137.5000E-09,-674.6861751889E-03
+138.0000E-09,-533.4727896837E-03
+138.5000E-09,-186.1924638495E-03
+139.0000E-09,+279.2886957769E-03
+139.5000E-09,+666.3179745672E-03
+140.0000E-09,+893.3054164520E-03
+140.5000E-09,+953.9748709649E-03
+141.0000E-09,+934.1003944863E-03
+141.5000E-09,+880.7531155178E-03
+142.0000E-09,+827.4058365492E-03
+142.5000E-09,+667.3639996436E-03
+143.0000E-09,+246.8619183624E-03
+143.5000E-09,-271.9665202326E-03
+144.0000E-09,-671.5480999563E-03
+144.5000E-09,-859.8326139620E-03
+145.0000E-09,-856.6945387285E-03
+145.5000E-09,-842.0501876388E-03
+146.0000E-09,-816.9455857713E-03
+146.5000E-09,-718.6192284567E-03
+147.0000E-09,-400.6276048008E-03
+147.5000E-09,+76.3598306816E-03
+148.0000E-09,+490.5857614949E-03
+148.5000E-09,+715.4811532242E-03
+149.0000E-09,+786.6108585149E-03
+149.5000E-09,+758.3681814138E-03
+150.0000E-09,+769.8744572699E-03
+150.5000E-09,+821.1296860831E-03
+151.0000E-09,+859.8326139620E-03
+151.5000E-09,+875.5229901288E-03
+152.0000E-09,+887.0292659849E-03
+152.5000E-09,+881.7991405960E-03
+153.0000E-09,+836.8200622499E-03
+153.5000E-09,+780.3347080478E-03
+154.0000E-09,+640.1673476206E-03
+154.5000E-09,+410.0418305014E-03
+155.0000E-09,+21.9665266328E-03
+155.5000E-09,-405.8577301928E-03
+156.0000E-09,-788.7029086714E-03
+156.5000E-09,-1.0167363756342E+00
+157.0000E-09,-1.0711296796799E+00
+157.5000E-09,-1.0481171279677E+00
+158.0000E-09,-994.7698489991E-03
+158.5000E-09,-959.2049963538E-03
+159.0000E-09,-934.1003944863E-03
+159.5000E-09,-942.4685951088E-03
+160.0000E-09,-937.2384697199E-03
+160.5000E-09,-932.0083443310E-03
+161.0000E-09,-930.9623192527E-03
+161.5000E-09,-908.9957926188E-03
+162.0000E-09,-900.6275919963E-03
+162.5000E-09,-892.2593913738E-03
+163.0000E-09,-830.5439117827E-03
+163.5000E-09,-571.1296924840E-03
+164.0000E-09,-89.9581566897E-03
+164.5000E-09,+467.5732097841E-03
+165.0000E-09,+872.3849148965E-03
+165.5000E-09,+1.0439330276571E+00
+166.0000E-09,+1.0376568771899E+00
+166.5000E-09,+986.4016483766E-03
+167.0000E-09,+937.2384697199E-03
+167.5000E-09,+920.5020684749E-03
+168.0000E-09,+920.5020684749E-03
+168.5000E-09,+915.2719430860E-03
+169.0000E-09,+917.3639932413E-03
+169.5000E-09,+892.2593913738E-03
+170.0000E-09,+900.6275919963E-03
+170.5000E-09,+887.0292659849E-03
+171.0000E-09,+880.7531155177E-03
+171.5000E-09,+774.0585575805E-03
+172.0000E-09,+464.4351345467E-03
+172.5000E-09,-49.1631786594E-03
+173.0000E-09,-583.6819934211E-03
+173.5000E-09,-917.3639932427E-03
+174.0000E-09,-1.0742677549135E+00
+174.5000E-09,-1.0533472533565E+00
+175.0000E-09,-1.0010459994663E+00
+175.5000E-09,-942.4685951088E-03
+176.0000E-09,-930.9623192527E-03
+176.5000E-09,-807.5313600704E-03
+177.0000E-09,-504.1840875037E-03
+177.5000E-09,-46.0251034216E-03
+178.0000E-09,+393.3054292589E-03
+178.5000E-09,+620.2928711433E-03
+179.0000E-09,+702.9288522899E-03
+179.5000E-09,+714.4351281460E-03
+180.0000E-09,+696.6527018227E-03
+180.5000E-09,+493.7238367260E-03
+181.0000E-09,+93.0962319228E-03
+181.5000E-09,-405.8577301935E-03
+182.0000E-09,-771.9665074267E-03
+182.5000E-09,-943.5146201871E-03
+183.0000E-09,-967.5731969763E-03
+183.5000E-09,-925.7321938638E-03
+184.0000E-09,-900.6275919963E-03
+184.5000E-09,-887.0292659849E-03
+185.0000E-09,-906.9037424635E-03
+185.5000E-09,-898.5355418410E-03
+186.0000E-09,-903.7656672299E-03
+186.5000E-09,-892.2593913738E-03
+187.0000E-09,-880.7531155176E-03
+187.5000E-09,-813.8075105376E-03
+188.0000E-09,-667.3639996431E-03
+188.5000E-09,-376.5690280109E-03
+189.0000E-09,+67.9916300601E-03
+189.5000E-09,+533.4727896864E-03
+190.0000E-09,+889.1213161418E-03
+190.5000E-09,+1.0554393035133E+00
+191.0000E-09,+1.0711296796799E+00
+191.5000E-09,+1.0261506013337E+00
+192.0000E-09,+967.5731969762E-03
+192.5000E-09,+942.4685951087E-03
+193.0000E-09,+923.6401437085E-03
+193.5000E-09,+926.7782189422E-03
+194.0000E-09,+923.6401437085E-03
+194.5000E-09,+920.5020684749E-03
+195.0000E-09,+917.3639932412E-03
+195.5000E-09,+908.9957926187E-03
+196.0000E-09,+890.1673412185E-03
+196.5000E-09,+887.0292659849E-03
+197.0000E-09,+807.5313600703E-03
+197.5000E-09,+504.1840875034E-03
+198.0000E-09,-10.4602507812E-03
+198.5000E-09,-578.4518680327E-03
+199.0000E-09,-919.4560433982E-03
+199.5000E-09,-1.0774058301472E+00
+200.0000E-09,-1.0512552032012E+00
+200.5000E-09,-1.0094142000887E+00
+201.0000E-09,-937.2384697199E-03
+201.5000E-09,-920.5020684749E-03
+202.0000E-09,-934.1003944862E-03
+202.5000E-09,-920.5020684749E-03
+203.0000E-09,-917.3639932412E-03
+203.5000E-09,-908.9957926187E-03
+204.0000E-09,-903.7656672299E-03
+204.5000E-09,-892.2593913737E-03
+205.0000E-09,-844.1422377939E-03
+205.5000E-09,-639.1213225417E-03
+206.0000E-09,-213.3891158709E-03
+206.5000E-09,+350.4184010702E-03
+207.0000E-09,+791.8409839056E-03
+207.5000E-09,+1.0167363756346E+00
+208.0000E-09,+1.0543932784349E+00
+208.5000E-09,+997.9079242325E-03
+209.0000E-09,+964.4351217425E-03
+209.5000E-09,+937.2384697199E-03
+210.0000E-09,+920.5020684749E-03
+210.5000E-09,+908.9957926187E-03
+211.0000E-09,+906.9037424636E-03
+211.5000E-09,+920.5020684749E-03
+212.0000E-09,+914.2259180075E-03
+212.5000E-09,+880.7531155175E-03
+213.0000E-09,+883.8911907512E-03
+213.5000E-09,+835.7740371713E-03
+214.0000E-09,+644.3514479304E-03
+214.5000E-09,+213.3891158707E-03
+215.0000E-09,-338.9121252142E-03
+215.5000E-09,-789.7489337506E-03
+216.0000E-09,-1.0303347016459E+00
+216.5000E-09,-1.0711296796799E+00
+217.0000E-09,-1.0481171279675E+00
+217.5000E-09,-964.4351217425E-03
+218.0000E-09,-920.5020684749E-03
+218.5000E-09,-920.5020684749E-03
+219.0000E-09,-917.3639932412E-03
+219.5000E-09,-920.5020684749E-03
+220.0000E-09,-903.7656672299E-03
+220.5000E-09,-908.9957926187E-03
+221.0000E-09,-887.0292659849E-03
+221.5000E-09,-892.2593913737E-03
+222.0000E-09,-844.1422377938E-03
+222.5000E-09,-661.0878491753E-03
+223.0000E-09,-230.1255171155E-03
+223.5000E-09,+316.9455985806E-03
+224.0000E-09,+778.2426578945E-03
+224.5000E-09,+1.0219665010235E+00
+225.0000E-09,+1.0711296796799E+00
+225.5000E-09,+1.0209204759449E+00
+226.0000E-09,+967.5731969762E-03
+226.5000E-09,+925.7321938637E-03
+227.0000E-09,+920.5020684749E-03
+227.5000E-09,+920.5020684749E-03
+228.0000E-09,+920.5020684749E-03
+228.5000E-09,+915.2719430861E-03
+229.0000E-09,+903.7656672299E-03
+229.5000E-09,+898.5355418411E-03
+230.0000E-09,+887.0292659849E-03
+230.5000E-09,+835.7740371712E-03
+231.0000E-09,+624.4769714515E-03
+231.5000E-09,+151.6736362791E-03
+232.0000E-09,-402.7196549609E-03
+232.5000E-09,-828.4518616297E-03
+233.0000E-09,-1.0271966264123E+00
+233.5000E-09,-1.0763598050687E+00
+234.0000E-09,-1.0282426514887E+00
+234.5000E-09,-959.2049963537E-03
+235.0000E-09,-937.2384697199E-03
+235.5000E-09,-880.7531155174E-03
+236.0000E-09,-714.4351281438E-03
+236.5000E-09,-342.0502004415E-03
+237.0000E-09,+101.4644325510E-03
+237.5000E-09,+453.9748837723E-03
+238.0000E-09,+619.2468460649E-03
+238.5000E-09,+664.2259244111E-03
+239.0000E-09,+669.4560497999E-03
+239.5000E-09,+561.7154667838E-03
+240.0000E-09,+236.4016675827E-03
+240.5000E-09,-226.9874418885E-03
+241.0000E-09,-644.3514479347E-03
+241.5000E-09,-911.0878427760E-03
+242.0000E-09,-973.8493474436E-03
+242.5000E-09,-953.9748709649E-03
+243.0000E-09,-917.3639932412E-03
+243.5000E-09,-858.7865888837E-03
+244.0000E-09,-734.3096046226E-03
+244.5000E-09,-403.7656800328E-03
+245.0000E-09,+101.4644325508E-03
+245.5000E-09,+510.4602379746E-03
+246.0000E-09,+762.5522817260E-03
+246.5000E-09,+826.3598114723E-03
+247.0000E-09,+836.8200622499E-03
+247.5000E-09,+825.3137863937E-03
+248.0000E-09,+770.9204823464E-03
+248.5000E-09,+498.9539621141E-03
+249.0000E-09,+12.5523009306E-03
+249.5000E-09,-449.7907834620E-03
+250.0000E-09,-748.9539557147E-03
+250.5000E-09,-836.8200622499E-03
+251.0000E-09,-813.8075105375E-03
+251.5000E-09,-781.3807331261E-03
+252.0000E-09,-746.8619055575E-03
+252.5000E-09,-566.9455921728E-03
+253.0000E-09,-149.5815861243E-03
+253.5000E-09,+327.4058493580E-03
+254.0000E-09,+705.0209024470E-03
+254.5000E-09,+871.3388898185E-03
+255.0000E-09,+887.0292659849E-03
+255.5000E-09,+853.5564634949E-03
+256.0000E-09,+839.9581374836E-03
+256.5000E-09,+785.5648334364E-03
+257.0000E-09,+520.9204887481E-03
+257.5000E-09,+52.3012538882E-03
+258.0000E-09,-429.9163069831E-03
+258.5000E-09,-715.4811532246E-03
+259.0000E-09,-803.3472597599E-03
+259.5000E-09,-769.8744572699E-03
+260.0000E-09,-749.9999807912E-03
+260.5000E-09,-713.3891030676E-03
+261.0000E-09,-510.4602379706E-03
+261.5000E-09,-91.0041817671E-03
+262.0000E-09,+385.9832537153E-03
+262.5000E-09,+733.2635795481E-03
+263.0000E-09,+876.5690152072E-03
+263.5000E-09,+880.7531155176E-03
+264.0000E-09,+853.5564634949E-03
+264.5000E-09,+842.0501876387E-03
+265.0000E-09,+774.0585575803E-03
+265.5000E-09,+482.2175608695E-03
+266.0000E-09,-17.7824263252E-03
+266.5000E-09,-471.7573100954E-03
+267.0000E-09,-745.8158804809E-03
+267.5000E-09,-820.0836610049E-03
+268.0000E-09,-786.6108585149E-03
+268.5000E-09,-775.1045826588E-03
+269.0000E-09,-726.9874290790E-03
+269.5000E-09,-493.7238367257E-03
+270.0000E-09,-69.0376551335E-03
+270.5000E-09,+399.5815797265E-03
+271.0000E-09,+718.6192284581E-03
+271.5000E-09,+859.8326139622E-03
+272.0000E-09,+853.5564634949E-03
+272.5000E-09,+825.3137863938E-03
+273.0000E-09,+833.6819870163E-03
+273.5000E-09,+729.0794792342E-03
+274.0000E-09,+420.5020812786E-03
+274.5000E-09,-71.1297052936E-03
+275.0000E-09,-527.1966392190E-03
+275.5000E-09,-770.9204823483E-03
+276.0000E-09,-836.8200622499E-03
+276.5000E-09,-836.8200622499E-03
+277.0000E-09,-803.3472597599E-03
+277.5000E-09,-831.5899368610E-03
+278.0000E-09,-873.4309399735E-03
+278.5000E-09,-908.9957926188E-03
+279.0000E-09,-920.5020684749E-03
+279.5000E-09,-920.5020684749E-03
+280.0000E-09,-900.6275919963E-03
+280.5000E-09,-842.0501876388E-03
+281.0000E-09,-717.5732033782E-03
+281.5000E-09,-455.0209088471E-03
+282.0000E-09,-49.1631786552E-03
+282.5000E-09,+427.8242568273E-03
+283.0000E-09,+794.9790591388E-03
+283.5000E-09,+1.0156903505560E+00
+284.0000E-09,+1.0575313536685E+00
+284.5000E-09,+1.0261506013338E+00
+285.0000E-09,+981.1715229877E-03
+285.5000E-09,+920.5020684749E-03
+286.0000E-09,+923.6401437085E-03
+286.5000E-09,+915.2719430860E-03
+287.0000E-09,+920.5020684749E-03
+287.5000E-09,+915.2719430860E-03
+288.0000E-09,+903.7656672299E-03
+288.5000E-09,+903.7656672299E-03
+289.0000E-09,+887.0292659849E-03
+289.5000E-09,+881.7991405960E-03
+290.0000E-09,+790.7949588255E-03
+290.5000E-09,+515.6903633601E-03
+291.0000E-09,+19.8744764760E-03
+291.5000E-09,-539.7489401530E-03
+292.0000E-09,-905.8577173864E-03
+292.5000E-09,-1.0606694289021E+00
+293.0000E-09,-1.0679916044463E+00
+293.5000E-09,-1.0094142000888E+00
+294.0000E-09,-964.4351217427E-03
+294.5000E-09,-925.7321938638E-03
+295.0000E-09,-920.5020684749E-03
+295.5000E-09,-925.7321938638E-03
+296.0000E-09,-920.5020684749E-03
+296.5000E-09,-925.7321938638E-03
+297.0000E-09,-917.3639932413E-03
+297.5000E-09,-903.7656672299E-03
+298.0000E-09,-883.8911907513E-03
+298.5000E-09,-774.0585575806E-03
+299.0000E-09,-470.7112850142E-03
+299.5000E-09,+37.6569028029E-03
+300.0000E-09,+563.8075169421E-03
+300.5000E-09,+917.3639932424E-03
+301.0000E-09,+1.0575313536684E+00
+301.5000E-09,+1.0481171279677E+00
+302.0000E-09,+981.1715229877E-03
+302.5000E-09,+942.4685951088E-03
+303.0000E-09,+917.3639932413E-03
+303.5000E-09,+920.5020684749E-03
+304.0000E-09,+906.9037424635E-03
+304.5000E-09,+908.9957926188E-03
+305.0000E-09,+903.7656672299E-03
+305.5000E-09,+887.0292659849E-03
+306.0000E-09,+887.0292659849E-03
+306.5000E-09,+830.5439117828E-03
+307.0000E-09,+661.0878491765E-03
+307.5000E-09,+241.6317929734E-03
+308.0000E-09,-325.3137992011E-03
+308.5000E-09,-796.0250842165E-03
+309.0000E-09,-1.0303347016455E+00
+309.5000E-09,-1.0711296796799E+00
+310.0000E-09,-1.0313807267228E+00
+310.5000E-09,-975.9413975988E-03
+311.0000E-09,-950.8367957313E-03
+311.5000E-09,-903.7656672299E-03
+312.0000E-09,-834.7280120936E-03
+312.5000E-09,-549.1631658505E-03
+313.0000E-09,-116.1087836361E-03
+313.5000E-09,+304.3932976443E-03
+314.0000E-09,+544.9790655405E-03
+314.5000E-09,+625.5229965320E-03
+315.0000E-09,+625.5229965320E-03
+315.5000E-09,+596.2342943529E-03
+316.0000E-09,+339.9581502882E-03
+316.5000E-09,-104.6025077823E-03
+317.0000E-09,-519.8744636738E-03
+317.5000E-09,-849.3723631840E-03
+318.0000E-09,-987.4476734549E-03
+318.5000E-09,-992.6777988439E-03
+319.0000E-09,-934.1003944864E-03
+319.5000E-09,-908.9957926189E-03
+320.0000E-09,-887.0292659849E-03
+320.5000E-09,-870.2928647399E-03
+321.0000E-09,-900.6275919964E-03
+321.5000E-09,-880.7531155179E-03
+322.0000E-09,-883.8911907514E-03
+322.5000E-09,-858.7865888839E-03
+323.0000E-09,-816.9455857714E-03
+323.5000E-09,-707.1129526009E-03
+324.0000E-09,-417.3640060463E-03
+324.5000E-09,+65.8995799031E-03
+325.0000E-09,+566.9455921750E-03
+325.5000E-09,+917.3639932419E-03
+326.0000E-09,+1.0742677549134E+00
+326.5000E-09,+1.0878660809249E+00
+327.0000E-09,+1.0512552032014E+00
+327.5000E-09,+992.6777988439E-03
+328.0000E-09,+953.9748709649E-03
+328.5000E-09,+925.7321938639E-03
+329.0000E-09,+854.6024885724E-03
+329.5000E-09,+594.1422441969E-03
+330.0000E-09,+149.5815861265E-03
+330.5000E-09,-247.9079434420E-03
+331.0000E-09,-494.7698618054E-03
+331.5000E-09,-563.8075169409E-03
+332.0000E-09,-569.0376423299E-03
+332.5000E-09,-494.7698618050E-03
+333.0000E-09,-219.6652663401E-03
+333.5000E-09,+210.2510406408E-03
+334.0000E-09,+607.7405702093E-03
+334.5000E-09,+882.8451656738E-03
+335.0000E-09,+973.8493474434E-03
+335.5000E-09,+975.9413975989E-03
+336.0000E-09,+937.2384697199E-03
+336.5000E-09,+920.5020684749E-03
+337.0000E-09,+821.1296860825E-03
+337.5000E-09,+537.6568899952E-03
+338.0000E-09,+62.7615046683E-03
+338.5000E-09,-433.0543822147E-03
+339.0000E-09,-732.2175544688E-03
+339.5000E-09,-831.5899368609E-03
+340.0000E-09,-806.4853349934E-03
+340.5000E-09,-803.3472597599E-03
+341.0000E-09,-743.7238303245E-03
+341.5000E-09,-510.4602379722E-03
+342.0000E-09,-82.6359811468E-03
+342.5000E-09,+372.3849277015E-03
+343.0000E-09,+698.7447519788E-03
+343.5000E-09,+814.8535356159E-03
+344.0000E-09,+786.6108585149E-03
+344.5000E-09,+786.6108585149E-03
+345.0000E-09,+769.8744572699E-03
+345.5000E-09,+662.1338742552E-03
+346.0000E-09,+330.5439245885E-03
+346.5000E-09,-199.7907898624E-03
+347.0000E-09,-657.9497739441E-03
+347.5000E-09,-882.8451656737E-03
+348.0000E-09,-917.3639932414E-03
+348.5000E-09,-880.7531155180E-03
+349.0000E-09,-836.8200622499E-03
+349.5000E-09,-808.5773851490E-03
+350.0000E-09,-587.8660937305E-03
+350.5000E-09,-163.1799121386E-03
+351.0000E-09,+326.3598242775E-03
+351.5000E-09,+632.8451720765E-03
+352.0000E-09,+769.8744572699E-03
+352.5000E-09,+775.1045826590E-03
+353.0000E-09,+766.7363820365E-03
+353.5000E-09,+764.6443318808E-03
+354.0000E-09,+630.7531219209E-03
+354.5000E-09,+241.6317929747E-03
+355.0000E-09,-271.9665202311E-03
+355.5000E-09,-683.0543758114E-03
+356.0000E-09,-890.1673412183E-03
+356.5000E-09,-908.9957926190E-03
+357.0000E-09,-867.1547895065E-03
+357.5000E-09,-842.0501876390E-03
+358.0000E-09,-793.9330340596E-03
+358.5000E-09,-549.1631658516E-03
+359.0000E-09,-96.2343071589E-03
+359.5000E-09,+366.1087772342E-03
+360.0000E-09,+695.6066767452E-03
+360.5000E-09,+781.3807331258E-03
+361.0000E-09,+769.8744572699E-03
+361.5000E-09,+769.8744572699E-03
+362.0000E-09,+820.0836610049E-03
+362.5000E-09,+876.5690152067E-03
+363.0000E-09,+903.7656672299E-03
+363.5000E-09,+903.7656672299E-03
+364.0000E-09,+903.7656672299E-03
+364.5000E-09,+892.2593913740E-03
+365.0000E-09,+847.2803130281E-03
+365.5000E-09,+740.5857550913E-03
+366.0000E-09,+543.9330404627E-03
+366.5000E-09,+219.6652663410E-03
+367.0000E-09,-252.0920437524E-03
+367.5000E-09,-684.1004008889E-03
+368.0000E-09,-963.3890966651E-03
+368.5000E-09,-1.0658995542908E+00
+369.0000E-09,-1.0512552032015E+00
+369.5000E-09,-1.0041840746999E+00
+370.0000E-09,-950.8367957315E-03
+370.5000E-09,-937.2384697199E-03
+371.0000E-09,-923.6401437083E-03
+371.5000E-09,-925.7321938640E-03
+372.0000E-09,-923.6401437083E-03
+372.5000E-09,-932.0083443308E-03
+373.0000E-09,-903.7656672299E-03
+373.5000E-09,-903.7656672299E-03
+374.0000E-09,-887.0292659849E-03
+374.5000E-09,-835.7740371723E-03
+375.0000E-09,-624.4769714545E-03
+375.5000E-09,-140.1673604277E-03
+376.0000E-09,+392.2594041788E-03
+376.5000E-09,+828.4518616269E-03
+377.0000E-09,+1.0271966264116E+00
+377.5000E-09,+1.0596234038240E+00
+378.0000E-09,+1.0041840746999E+00
+378.5000E-09,+953.9748709649E-03
+379.0000E-09,+906.9037424633E-03
+379.5000E-09,+869.2468396623E-03
+380.0000E-09,+664.2259244113E-03
+380.5000E-09,+269.8744700764E-03
+381.0000E-09,-185.1464387720E-03
+381.5000E-09,-492.6778116492E-03
+382.0000E-09,-588.9121188083E-03
+382.5000E-09,-602.5104448199E-03
+383.0000E-09,-579.4978931082E-03
+383.5000E-09,-444.5606580706E-03
+384.0000E-09,-69.0376551365E-03
+384.5000E-09,+382.8451784785E-03
+385.0000E-09,+724.8953789234E-03
+385.5000E-09,+949.7907706533E-03
+386.0000E-09,+987.4476734549E-03
+386.5000E-09,+959.2049963540E-03
+387.0000E-09,+917.3639932415E-03
+387.5000E-09,+869.2468396624E-03
+388.0000E-09,+717.5732033798E-03
+388.5000E-09,+347.2803258348E-03
+389.0000E-09,-138.0753102701E-03
+389.5000E-09,-560.6694417067E-03
+390.0000E-09,-759.4142064916E-03
+390.5000E-09,-803.3472597599E-03
+391.0000E-09,-769.8744572699E-03
+391.5000E-09,-769.8744572699E-03
+392.0000E-09,-647.4895231666E-03
+392.5000E-09,-291.8409967108E-03
+393.0000E-09,+168.4100375266E-03
+393.5000E-09,+560.6694417066E-03
+394.0000E-09,+809.6234102266E-03
+394.5000E-09,+853.5564634949E-03
+395.0000E-09,+816.9455857716E-03
+395.5000E-09,+814.8535356157E-03
+396.0000E-09,+823.2217362382E-03
+396.5000E-09,+865.0627393507E-03
+397.0000E-09,+873.4309399732E-03
+397.5000E-09,+875.5229901291E-03
+398.0000E-09,+864.0167142732E-03
+398.5000E-09,+853.5564634949E-03
+399.0000E-09,+800.2091845266E-03
+399.5000E-09,+696.6527018233E-03
+400.0000E-09,+469.6652599384E-03
+400.5000E-09,+91.0041817710E-03
+401.0000E-09,-385.9832537114E-03
+401.5000E-09,-801.2552096031E-03
+402.0000E-09,-1.0439330276565E+00
+402.5000E-09,-1.1046024821699E+00
+403.0000E-09,-1.0711296796799E+00
+403.5000E-09,-1.0146443254783E+00
+404.0000E-09,-970.7112722099E-03
+404.5000E-09,-965.4811468207E-03
+405.0000E-09,-911.0878427750E-03
+405.5000E-09,-734.3096046251E-03
+406.0000E-09,-383.8912035586E-03
+406.5000E-09,+76.3598306788E-03
+407.0000E-09,+403.7656800348E-03
+407.5000E-09,+558.5773915515E-03
+408.0000E-09,+605.6485200532E-03
+408.5000E-09,+596.2342943533E-03
+409.0000E-09,+393.3054292586E-03
+409.5000E-09,-14.6443510879E-03
+410.0000E-09,-463.3891094695E-03
+410.5000E-09,-816.9455857704E-03
+411.0000E-09,-1.0041840746999E+00
+411.5000E-09,-1.0156903505557E+00
+412.0000E-09,-964.4351217433E-03
+412.5000E-09,-908.9957926191E-03
+413.0000E-09,-860.8786390400E-03
+413.5000E-09,-661.0878491786E-03
+414.0000E-09,-243.7238431324E-03
+414.5000E-09,+255.2301189843E-03
+415.0000E-09,+634.9372222313E-03
+415.5000E-09,+799.1631594480E-03
+416.0000E-09,+823.2217362382E-03
+416.5000E-09,+836.8200622499E-03
+417.0000E-09,+816.9455857716E-03
+417.5000E-09,+690.3765513568E-03
+418.0000E-09,+347.2803258357E-03
+418.5000E-09,-143.3054356585E-03
+419.0000E-09,-577.4058429511E-03
+419.5000E-09,-787.6568835922E-03
+420.0000E-09,-816.9455857716E-03
+420.5000E-09,-791.8409839041E-03
+421.0000E-09,-780.3347080484E-03
+421.5000E-09,-690.3765513569E-03
+422.0000E-09,-403.7656800374E-03
+422.5000E-09,+48.1171535775E-03
+423.0000E-09,+496.8619119592E-03
+423.5000E-09,+805.4393099144E-03
+424.0000E-09,+917.3639932416E-03
+424.5000E-09,+875.5229901291E-03
+425.0000E-09,+864.0167142734E-03
+425.5000E-09,+842.0501876392E-03
+426.0000E-09,+731.1715293922E-03
+426.5000E-09,+370.2928775475E-03
+427.0000E-09,-121.3389090240E-03
+427.5000E-09,-560.6694417059E-03
+428.0000E-09,-762.5522817246E-03
+428.5000E-09,-791.8409839042E-03
+429.0000E-09,-766.7363820367E-03
+429.5000E-09,-736.4016547799E-03
+430.0000E-09,-670.5020748787E-03
+430.5000E-09,-353.5564763026E-03
+431.0000E-09,+104.6025077789E-03
+431.5000E-09,+543.9330404609E-03
+432.0000E-09,+815.8995606928E-03
+432.5000E-09,+887.0292659849E-03
+433.0000E-09,+877.6150402852E-03
+433.5000E-09,+836.8200622499E-03
+434.0000E-09,+816.9455857717E-03
+434.5000E-09,+678.8702755013E-03
+435.0000E-09,+297.0711221013E-03
+435.5000E-09,-188.2845140037E-03
+436.0000E-09,-580.5439181839E-03
+436.5000E-09,-804.3932848371E-03
+437.0000E-09,-833.6819870167E-03
+437.5000E-09,-791.8409839042E-03
+438.0000E-09,-780.3347080485E-03
+438.5000E-09,-678.8702755013E-03
+439.0000E-09,-367.1548023146E-03
+439.5000E-09,+109.8326331678E-03
+440.0000E-09,+527.1966392156E-03
+440.5000E-09,+782.4267582027E-03
+441.0000E-09,+839.9581374831E-03
+441.5000E-09,+825.3137863942E-03
+442.0000E-09,+823.2217362381E-03
+442.5000E-09,+803.3472597599E-03
+443.0000E-09,+633.8911971557E-03
+443.5000E-09,+235.3556425108E-03
+444.0000E-09,-268.8284449952E-03
+444.5000E-09,-661.0878491755E-03
+445.0000E-09,-829.4978867045E-03
+445.5000E-09,-858.7865888842E-03
+446.0000E-09,-816.9455857717E-03
+446.5000E-09,-808.5773851492E-03
+447.0000E-09,-720.7112786139E-03
+447.5000E-09,-392.2594041823E-03
+448.0000E-09,+67.9916300551E-03
+448.5000E-09,+521.9665138262E-03
+449.0000E-09,+762.5522817245E-03
+449.5000E-09,+831.5899368606E-03
+450.0000E-09,+803.3472597599E-03
+450.5000E-09,+786.6108585149E-03
+451.0000E-09,+774.0585575822E-03
+451.5000E-09,+594.1422441995E-03
+452.0000E-09,+179.9163133868E-03
+452.5000E-09,-344.1422505974E-03
+453.0000E-09,-708.1589776772E-03
+453.5000E-09,-876.5690152063E-03
+454.0000E-09,-880.7531155185E-03
+454.5000E-09,-842.0501876392E-03
+455.0000E-09,-833.6819870167E-03
+455.5000E-09,-723.8493538472E-03
+456.0000E-09,-397.4895295719E-03
+456.5000E-09,+93.0962319224E-03
+457.0000E-09,+524.0585639821E-03
+457.5000E-09,+737.4476798569E-03
+458.0000E-09,+803.3472597599E-03
+458.5000E-09,+791.8409839042E-03
+459.0000E-09,+786.6108585149E-03
+459.5000E-09,+758.3681814142E-03
+460.0000E-09,+554.3932912433E-03
+460.5000E-09,+112.9707084070E-03
+461.0000E-09,-382.8451784766E-03
+461.5000E-09,-749.9999807895E-03
+462.0000E-09,-890.1673412180E-03
+462.5000E-09,-875.5229901292E-03
+463.0000E-09,-850.4183882617E-03
+463.5000E-09,-836.8200622499E-03
+464.0000E-09,-731.1715293929E-03
+464.5000E-09,-381.7991534041E-03
+465.0000E-09,+101.4644325446E-03
+465.5000E-09,+521.9665138258E-03
+466.0000E-09,+742.6778052462E-03
+466.5000E-09,+786.6108585149E-03
+467.0000E-09,+773.0125325030E-03
+467.5000E-09,+781.3807331256E-03
+468.0000E-09,+757.3221563374E-03
+468.5000E-09,+515.6903633642E-03
+469.0000E-09,+93.0962319293E-03
+469.5000E-09,-422.5941314326E-03
+470.0000E-09,-771.9665074237E-03
+470.5000E-09,-915.2719430855E-03
+471.0000E-09,-900.6275919968E-03
+471.5000E-09,-858.7865888843E-03
+472.0000E-09,-833.6819870168E-03
+472.5000E-09,-678.8702755018E-03
+473.0000E-09,-330.5439245925E-03
+473.5000E-09,+154.8117115126E-03
+474.0000E-09,+543.9330404599E-03
+474.5000E-09,+759.4142064912E-03
+475.0000E-09,+789.7489337480E-03
+475.5000E-09,+786.6108585149E-03
+476.0000E-09,+786.6108585149E-03
+476.5000E-09,+746.8619055587E-03
+477.0000E-09,+520.9204887538E-03
+477.5000E-09,+57.5313792832E-03
+478.0000E-09,-449.7907834561E-03
+478.5000E-09,-771.9665074237E-03
+479.0000E-09,-887.0292659849E-03
+479.5000E-09,-875.5229901293E-03
+480.0000E-09,-836.8200622499E-03
+480.5000E-09,-797.0711092936E-03
+481.0000E-09,-661.0878491798E-03
+481.5000E-09,-297.0711221022E-03
+482.0000E-09,+185.1464387696E-03
+482.5000E-09,+577.4058429501E-03
+483.0000E-09,+773.0125325031E-03
+483.5000E-09,+808.5773851492E-03
+484.0000E-09,+800.2091845267E-03
+484.5000E-09,+791.8409839042E-03
+485.0000E-09,+743.7238303254E-03
+485.5000E-09,+487.4476862633E-03
+486.0000E-09,+26.1506269488E-03
+486.5000E-09,-483.2635859467E-03
+487.0000E-09,-765.6903569576E-03
+487.5000E-09,-881.7991405956E-03
+488.0000E-09,-853.5564634949E-03
+488.5000E-09,-842.0501876392E-03
+489.0000E-09,-800.2091845267E-03
+489.5000E-09,-650.6275984008E-03
+490.0000E-09,-266.7363948448E-03
+490.5000E-09,+221.7573164934E-03
+491.0000E-09,+607.7405702074E-03
+491.5000E-09,+792.8870089813E-03
+492.0000E-09,+803.3472597599E-03
+492.5000E-09,+797.0711092935E-03
+493.0000E-09,+806.4853349931E-03
+493.5000E-09,+836.8200622499E-03
+494.0000E-09,+864.0167142734E-03
+494.5000E-09,+887.0292659849E-03
+495.0000E-09,+883.8911907517E-03
+495.5000E-09,+870.2928647399E-03
+496.0000E-09,+850.4183882617E-03
+496.5000E-09,+785.5648334377E-03
+497.0000E-09,+660.0418241002E-03
+497.5000E-09,+494.7698618062E-03
+498.0000E-09,+322.1757239670E-03
+498.5000E-09,+131.7991598055E-03
+499.0000E-09,-46.0251034230E-03
+499.5000E-09,-196.6527146280E-03
+500.0000E-09,-324.2677741215E-03
+500.5000E-09,-424.6861815915E-03
+501.0000E-09,-491.6317865715E-03
+501.5000E-09,-530.3347144507E-03
+502.0000E-09,-572.1757175632E-03
+502.5000E-09,-614.0167206757E-03
+503.0000E-09,-649.5815733216E-03
+503.5000E-09,-664.2259244107E-03
+504.0000E-09,-669.4560497999E-03
+504.5000E-09,-664.2259244107E-03
+505.0000E-09,-666.3179745666E-03
+505.5000E-09,-647.4895231657E-03
+506.0000E-09,-635.9832473099E-03
+506.5000E-09,-602.5104448199E-03
+507.0000E-09,-596.2342943533E-03
+507.5000E-09,-563.8075169407E-03
+508.0000E-09,-518.8284385949E-03
+508.5000E-09,-490.5857614941E-03
+509.0000E-09,-451.8828336149E-03
+509.5000E-09,-457.1129590041E-03
+510.0000E-09,-418.4100311249E-03
+510.5000E-09,-413.1799057358E-03
+511.0000E-09,-381.7991534016E-03
+511.5000E-09,-356.6945515341E-03
+512.0000E-09,-317.9916236550E-03
+512.5000E-09,-289.7489465541E-03
+513.0000E-09,-270.9204951533E-03
+513.5000E-09,-256.2761440641E-03
+514.0000E-09,-231.1715421966E-03
+514.5000E-09,-217.5732161850E-03
+515.0000E-09,-200.8368149400E-03
+515.5000E-09,-172.5941378391E-03
+516.0000E-09,-147.4895359716E-03
+516.5000E-09,-139.1213353491E-03
+517.0000E-09,-127.6150594932E-03
+517.5000E-09,-105.6485328591E-03
+518.0000E-09,-83.6820062250E-03
+518.5000E-09,-66.9456049800E-03
+519.0000E-09,-47.0711285016E-03
+519.5000E-09,-50.2092037350E-03
+520.0000E-09,-33.4728024900E-03
+520.5000E-09,-33.4728024900E-03
+521.0000E-09,-16.7364012450E-03
+521.5000E-09,-28.2426771009E-03
+522.0000E-09,-16.7364012450E-03
+522.5000E-09,-16.7364012450E-03
+523.0000E-09,+0.0E+00
+523.5000E-09,+11.5062758559E-03
+524.0000E-09,+30.3347272566E-03
+524.5000E-09,+33.4728024900E-03
+525.0000E-09,+36.6108777234E-03
+525.5000E-09,+44.9790783459E-03
+526.0000E-09,+33.4728024900E-03
+526.5000E-09,+38.7029278791E-03
+527.0000E-09,+36.6108777234E-03
+527.5000E-09,+38.7029278791E-03
+528.0000E-09,+53.3472789684E-03
+528.5000E-09,+55.4393291241E-03
+529.0000E-09,+66.9456049800E-03
+529.5000E-09,+55.4393291240E-03
+530.0000E-09,+80.5439309915E-03
+530.5000E-09,+55.4393291240E-03
+531.0000E-09,+50.2092037350E-03
+531.5000E-09,+66.9456049800E-03
+532.0000E-09,+77.4058557581E-03
+532.5000E-09,+50.2092037350E-03
+533.0000E-09,+66.9456049800E-03
+533.5000E-09,+66.9456049800E-03
+534.0000E-09,+63.8075297465E-03
+534.5000E-09,+73.2217554470E-03
+535.0000E-09,+70.0836802135E-03
+535.5000E-09,+55.4393291240E-03
+536.0000E-09,+66.9456049800E-03
+536.5000E-09,+72.1757303690E-03
+537.0000E-09,+70.0836802135E-03
+537.5000E-09,+66.9456049800E-03
+538.0000E-09,+70.0836802135E-03
+538.5000E-09,+66.9456049800E-03
+539.0000E-09,+53.3472789685E-03
+539.5000E-09,+55.4393291240E-03
+540.0000E-09,+53.3472789685E-03
+540.5000E-09,+66.9456049800E-03
+541.0000E-09,+66.9456049800E-03
+541.5000E-09,+78.4518808360E-03
+542.0000E-09,+50.2092037350E-03
+542.5000E-09,+61.7154795910E-03
+543.0000E-09,+53.3472789685E-03
+543.5000E-09,+50.2092037350E-03
+544.0000E-09,+53.3472789685E-03
+544.5000E-09,+61.7154795910E-03
+545.0000E-09,+53.3472789685E-03
+545.5000E-09,+44.9790783460E-03
+546.0000E-09,+50.2092037350E-03
+546.5000E-09,+50.2092037350E-03
+547.0000E-09,+43.9330532679E-03
+547.5000E-09,+55.4393291239E-03
+548.0000E-09,+36.6108777236E-03
+548.5000E-09,+38.7029278789E-03
+549.0000E-09,+50.2092037350E-03
+549.5000E-09,+33.4728024900E-03
+550.0000E-09,+33.4728024900E-03
+550.5000E-09,+33.4728024900E-03
+551.0000E-09,+47.0711285014E-03
+551.5000E-09,+44.9790783461E-03
+552.0000E-09,+33.4728024900E-03
+552.5000E-09,+44.9790783461E-03
+553.0000E-09,+33.4728024900E-03
+553.5000E-09,+33.4728024900E-03
+554.0000E-09,+33.4728024900E-03
+554.5000E-09,+50.2092037350E-03
+555.0000E-09,+47.0711285014E-03
+555.5000E-09,+44.9790783461E-03
+556.0000E-09,+33.4728024900E-03
+556.5000E-09,+33.4728024900E-03
+557.0000E-09,+33.4728024900E-03
+557.5000E-09,+50.2092037350E-03
+558.0000E-09,+30.3347272564E-03
+558.5000E-09,+33.4728024900E-03
+559.0000E-09,+36.6108777236E-03
+559.5000E-09,+33.4728024900E-03
+560.0000E-09,+36.6108777236E-03
+560.5000E-09,+33.4728024900E-03
+561.0000E-09,+33.4728024900E-03
+561.5000E-09,+21.9665266338E-03
+562.0000E-09,+33.4728024900E-03
+562.5000E-09,+28.2426771011E-03
+563.0000E-09,+30.3347272563E-03
+563.5000E-09,+28.2426771012E-03
+564.0000E-09,+30.3347272563E-03
+564.5000E-09,+11.5062758562E-03
+565.0000E-09,+30.3347272563E-03
+565.5000E-09,+16.7364012450E-03
+566.0000E-09,+16.7364012450E-03
+566.5000E-09,+23.0125517124E-03
+567.0000E-09,+19.8744764787E-03
+567.5000E-09,+33.4728024900E-03
+568.0000E-09,+16.7364012450E-03
+568.5000E-09,+21.9665266338E-03
+569.0000E-09,+16.7364012450E-03
+569.5000E-09,+11.5062758562E-03
+570.0000E-09,+16.7364012450E-03
+570.5000E-09,+21.9665266338E-03
+571.0000E-09,+16.7364012450E-03
+571.5000E-09,+27.1966520226E-03
+572.0000E-09,+16.7364012450E-03
+572.5000E-09,+16.7364012450E-03
+573.0000E-09,+13.5983260113E-03
+573.5000E-09,+11.5062758562E-03
+574.0000E-09,+16.7364012450E-03
+574.5000E-09,+5.2301253888E-03
+575.0000E-09,+13.5983260113E-03
+575.5000E-09,+0.0E+00
+576.0000E-09,+16.7364012450E-03
+576.5000E-09,+33.4728024900E-03
+577.0000E-09,+16.7364012450E-03
+577.5000E-09,+28.2426771012E-03
+578.0000E-09,+16.7364012450E-03
+578.5000E-09,+11.5062758563E-03
+579.0000E-09,+13.5983260112E-03
+579.5000E-09,+5.2301253887E-03
+580.0000E-09,+16.7364012450E-03
+580.5000E-09,+0.0E+00
+581.0000E-09,+3.1380752338E-03
+581.5000E-09,+16.7364012450E-03
+582.0000E-09,+16.7364012450E-03
+582.5000E-09,+16.7364012450E-03
+583.0000E-09,+19.8744764788E-03
+583.5000E-09,+11.5062758563E-03
+584.0000E-09,+16.7364012450E-03
+584.5000E-09,+11.5062758563E-03
+585.0000E-09,+16.7364012450E-03
+585.5000E-09,+5.2301253887E-03
+586.0000E-09,+0.0E+00
+586.5000E-09,+16.7364012450E-03
+587.0000E-09,+0.0E+00
+587.5000E-09,+0.0E+00
+588.0000E-09,+13.5983260112E-03
+588.5000E-09,+11.5062758563E-03
+589.0000E-09,+13.5983260112E-03
+589.5000E-09,+5.2301253887E-03
+590.0000E-09,-3.1380752338E-03
+590.5000E-09,+0.0E+00
+591.0000E-09,-10.4602507773E-03
+591.5000E-09,+0.0E+00
+592.0000E-09,-13.5983260112E-03
+592.5000E-09,+0.0E+00
+593.0000E-09,+0.0E+00
+593.5000E-09,+0.0E+00
+594.0000E-09,+0.0E+00
+594.5000E-09,-11.5062758564E-03
+595.0000E-09,-13.5983260111E-03
+595.5000E-09,+0.0E+00
+596.0000E-09,+0.0E+00
+596.5000E-09,+5.2301253886E-03
+597.0000E-09,+13.5983260111E-03
+597.5000E-09,+5.2301253886E-03
+598.0000E-09,-13.5983260111E-03
+598.5000E-09,-5.2301253886E-03
+599.0000E-09,-13.5983260111E-03
+599.5000E-09,-11.5062758564E-03
+600.0000E-09,-16.7364012450E-03
+600.5000E-09,+0.0E+00
+601.0000E-09,-3.1380752339E-03
+601.5000E-09,-16.7364012450E-03
+602.0000E-09,-16.7364012450E-03
+602.5000E-09,-16.7364012450E-03
+603.0000E-09,-13.5983260111E-03
+603.5000E-09,+0.0E+00
+604.0000E-09,+0.0E+00
+604.5000E-09,-11.5062758564E-03
+605.0000E-09,+0.0E+00
+605.5000E-09,-5.2301253886E-03
+606.0000E-09,+0.0E+00
+606.5000E-09,+0.0E+00
+607.0000E-09,+0.0E+00
+607.5000E-09,+0.0E+00
+608.0000E-09,-16.7364012450E-03
+608.5000E-09,+0.0E+00
+609.0000E-09,-16.7364012450E-03
+609.5000E-09,-16.7364012450E-03
+610.0000E-09,-6.2761504679E-03
+610.5000E-09,-16.7364012450E-03
+611.0000E-09,-19.8744764790E-03
+611.5000E-09,-11.5062758565E-03
+612.0000E-09,-3.1380752340E-03
+612.5000E-09,-11.5062758565E-03
+613.0000E-09,-13.5983260110E-03
+613.5000E-09,+0.0E+00
+614.0000E-09,+0.0E+00
+614.5000E-09,+6.2761504680E-03
+615.0000E-09,+16.7364012450E-03
+615.5000E-09,-16.7364012450E-03
+616.0000E-09,-10.4602507770E-03
+616.5000E-09,+0.0E+00
+617.0000E-09,+0.0E+00
+617.5000E-09,-11.5062758565E-03
+618.0000E-09,-13.5983260110E-03
+618.5000E-09,+0.0E+00
+619.0000E-09,-3.1380752340E-03
+619.5000E-09,-5.2301253885E-03
+620.0000E-09,-16.7364012450E-03
+620.5000E-09,-16.7364012450E-03
+621.0000E-09,+0.0E+00
+621.5000E-09,+0.0E+00
+622.0000E-09,-16.7364012450E-03
+622.5000E-09,+0.0E+00
+623.0000E-09,-16.7364012450E-03
+623.5000E-09,-5.2301253885E-03
+624.0000E-09,-13.5983260110E-03
+624.5000E-09,-16.7364012450E-03
+625.0000E-09,-16.7364012450E-03
+625.5000E-09,-16.7364012450E-03
+626.0000E-09,-3.1380752340E-03
+626.5000E-09,-16.7364012450E-03
+627.0000E-09,-16.7364012450E-03
+627.5000E-09,+6.2761504681E-03
+628.0000E-09,+13.5983260109E-03
+628.5000E-09,-11.5062758566E-03
+629.0000E-09,+0.0E+00
+629.5000E-09,-16.7364012450E-03
+630.0000E-09,-16.7364012450E-03
+630.5000E-09,+0.0E+00
+631.0000E-09,-30.3347272559E-03
+631.5000E-09,-11.5062758566E-03
+632.0000E-09,-30.3347272559E-03
+632.5000E-09,-11.5062758566E-03
+633.0000E-09,-16.7364012450E-03
+633.5000E-09,-11.5062758566E-03
+634.0000E-09,-13.5983260109E-03
+634.5000E-09,-16.7364012450E-03
+635.0000E-09,-13.5983260109E-03
+635.5000E-09,-11.5062758566E-03
+636.0000E-09,-16.7364012450E-03
+636.5000E-09,-16.7364012450E-03
+637.0000E-09,-16.7364012450E-03
+637.5000E-09,-5.2301253884E-03
+638.0000E-09,-3.1380752341E-03
+638.5000E-09,-28.2426771016E-03
+639.0000E-09,-16.7364012450E-03
+639.5000E-09,-5.2301253884E-03
+640.0000E-09,+0.0E+00
+640.5000E-09,+5.2301253884E-03
+641.0000E-09,-16.7364012450E-03
+641.5000E-09,-5.2301253883E-03
+642.0000E-09,+0.0E+00
+642.5000E-09,-16.7364012450E-03
+643.0000E-09,-19.8744764792E-03
+643.5000E-09,-23.0125517133E-03
+644.0000E-09,+0.0E+00
+644.5000E-09,-16.7364012450E-03
+645.0000E-09,-13.5983260108E-03
+645.5000E-09,-16.7364012450E-03
+646.0000E-09,-16.7364012450E-03
+646.5000E-09,-5.2301253883E-03
+647.0000E-09,-13.5983260108E-03
+647.5000E-09,-5.2301253883E-03
+648.0000E-09,-16.7364012450E-03
+648.5000E-09,-11.5062758567E-03
+649.0000E-09,-16.7364012450E-03
+649.5000E-09,-28.2426771017E-03
+650.0000E-09,-3.1380752342E-03
+650.5000E-09,-16.7364012450E-03
+651.0000E-09,-3.1380752342E-03
+651.5000E-09,-11.5062758567E-03
+652.0000E-09,-16.7364012450E-03
+652.5000E-09,-11.5062758567E-03
+653.0000E-09,-13.5983260108E-03
+653.5000E-09,+5.2301253883E-03
+654.0000E-09,-16.7364012450E-03
+654.5000E-09,-5.2301253883E-03
+655.0000E-09,-16.7364012450E-03
+655.5000E-09,-11.5062758567E-03
+656.0000E-09,-13.5983260108E-03
+656.5000E-09,-16.7364012450E-03
+657.0000E-09,+0.0E+00
+657.5000E-09,-11.5062758568E-03
+658.0000E-09,-3.1380752343E-03
+658.5000E-09,-16.7364012450E-03
+659.0000E-09,-16.7364012450E-03
+659.5000E-09,-16.7364012450E-03
+660.0000E-09,-16.7364012450E-03
+660.5000E-09,-28.2426771018E-03
+661.0000E-09,-16.7364012450E-03
+661.5000E-09,-16.7364012450E-03
+662.0000E-09,-13.5983260107E-03
+662.5000E-09,-5.2301253882E-03
+663.0000E-09,-16.7364012450E-03
+663.5000E-09,-11.5062758568E-03
+664.0000E-09,+0.0E+00
+664.5000E-09,-16.7364012450E-03
+665.0000E-09,-16.7364012450E-03
+665.5000E-09,-5.2301253882E-03
+666.0000E-09,-13.5983260107E-03
+666.5000E-09,-16.7364012450E-03
+667.0000E-09,-16.7364012450E-03
+667.5000E-09,-16.7364012450E-03
+668.0000E-09,-16.7364012450E-03
+668.5000E-09,-16.7364012450E-03
+669.0000E-09,-16.7364012450E-03
+669.5000E-09,-5.2301253882E-03
+670.0000E-09,-3.1380752343E-03
+670.5000E-09,+0.0E+00
+671.0000E-09,+0.0E+00
+671.5000E-09,+0.0E+00
+672.0000E-09,-13.5983260106E-03
+672.5000E-09,+0.0E+00
+673.0000E-09,-16.7364012450E-03
+673.5000E-09,-16.7364012450E-03
+674.0000E-09,-6.2761504687E-03
+674.5000E-09,-16.7364012450E-03
+675.0000E-09,-19.8744764793E-03
+675.5000E-09,-23.0125517137E-03
+676.0000E-09,-16.7364012450E-03
+676.5000E-09,+0.0E+00
+677.0000E-09,-13.5983260106E-03
+677.5000E-09,-16.7364012450E-03
+678.0000E-09,+0.0E+00
+678.5000E-09,+0.0E+00
+679.0000E-09,+0.0E+00
+679.5000E-09,-16.7364012450E-03
+680.0000E-09,+0.0E+00
+680.5000E-09,-11.5062758569E-03
+681.0000E-09,-3.1380752344E-03
+681.5000E-09,-16.7364012450E-03
+682.0000E-09,-16.7364012450E-03
+682.5000E-09,-5.2301253881E-03
+683.0000E-09,-3.1380752344E-03
+683.5000E-09,-5.2301253881E-03
+684.0000E-09,-16.7364012450E-03
+684.5000E-09,-11.5062758569E-03
+685.0000E-09,-3.1380752344E-03
+685.5000E-09,+0.0E+00
+686.0000E-09,-19.8744764794E-03
+686.5000E-09,+0.0E+00
+687.0000E-09,+0.0E+00
+687.5000E-09,-16.7364012450E-03
+688.0000E-09,-16.7364012450E-03
+688.5000E-09,-16.7364012450E-03
+689.0000E-09,+0.0E+00
+689.5000E-09,-5.2301253881E-03
+690.0000E-09,-3.1380752345E-03
+690.5000E-09,-16.7364012450E-03
+691.0000E-09,-16.7364012450E-03
+691.5000E-09,+0.0E+00
+692.0000E-09,-3.1380752345E-03
+692.5000E-09,-11.5062758570E-03
+693.0000E-09,+0.0E+00
+693.5000E-09,-5.2301253880E-03
+694.0000E-09,-16.7364012450E-03
+694.5000E-09,-10.4602507760E-03
+695.0000E-09,-13.5983260105E-03
+695.5000E-09,-11.5062758570E-03
+696.0000E-09,-16.7364012450E-03
+696.5000E-09,+0.0E+00
+697.0000E-09,-3.1380752345E-03
+697.5000E-09,-5.2301253880E-03
+698.0000E-09,+3.1380752345E-03
+698.5000E-09,-6.2761504690E-03
+699.0000E-09,-13.5983260105E-03
+699.5000E-09,-11.5062758570E-03
+700.0000E-09,-13.5983260105E-03
+700.5000E-09,-5.2301253880E-03
+701.0000E-09,-3.1380752345E-03
+701.5000E-09,-16.7364012450E-03
+702.0000E-09,-13.5983260105E-03
+702.5000E-09,-16.7364012450E-03
+703.0000E-09,-16.7364012450E-03
+703.5000E-09,-16.7364012450E-03
+704.0000E-09,-3.1380752345E-03
+704.5000E-09,+0.0E+00
+705.0000E-09,-13.5983260104E-03
+705.5000E-09,+6.2761504691E-03
+706.0000E-09,-13.5983260104E-03
+706.5000E-09,-11.5062758571E-03
+707.0000E-09,-16.7364012450E-03
+707.5000E-09,-11.5062758571E-03
+708.0000E-09,+0.0E+00
+708.5000E-09,-16.7364012450E-03
+709.0000E-09,-13.5983260104E-03
+709.5000E-09,-10.4602507758E-03
+710.0000E-09,-16.7364012450E-03
+710.5000E-09,-16.7364012450E-03
+711.0000E-09,-3.1380752346E-03
+711.5000E-09,-16.7364012450E-03
+712.0000E-09,+3.1380752346E-03
+712.5000E-09,+0.0E+00
+713.0000E-09,-3.1380752346E-03
+713.5000E-09,-28.2426771021E-03
+714.0000E-09,-13.5983260104E-03
+714.5000E-09,+0.0E+00
+715.0000E-09,+0.0E+00
+715.5000E-09,+0.0E+00
+716.0000E-09,+0.0E+00
+716.5000E-09,-5.2301253879E-03
+717.0000E-09,+0.0E+00
+717.5000E-09,+0.0E+00
+718.0000E-09,-3.1380752346E-03
+718.5000E-09,-5.2301253879E-03
+719.0000E-09,-16.7364012450E-03
+719.5000E-09,-16.7364012450E-03
+720.0000E-09,-16.7364012450E-03
+720.5000E-09,-16.7364012450E-03
+721.0000E-09,-3.1380752347E-03
+721.5000E-09,-11.5062758572E-03
+722.0000E-09,-3.1380752347E-03
+722.5000E-09,-16.7364012450E-03
+723.0000E-09,-3.1380752347E-03
+723.5000E-09,+0.0E+00
+724.0000E-09,-13.5983260103E-03
+724.5000E-09,-28.2426771022E-03
+725.0000E-09,+0.0E+00
+725.5000E-09,+0.0E+00
