x-axis,1
second,Volt
-288.6000E-09,-5.2301253891E-03
-288.1000E-09,+0.0E+00
-287.6000E-09,-5.2301253891E-03
-287.1000E-09,+10.4602507781E-03
-286.6000E-09,-5.2301253891E-03
-286.1000E-09,-3.1380752334E-03
-285.6000E-09,-5.2301253890E-03
-285.1000E-09,-3.1380752334E-03
-284.6000E-09,-11.5062758559E-03
-284.1000E-09,+13.5983260115E-03
-283.6000E-09,-16.7364012450E-03
-283.1000E-09,+0.0E+00
-282.6000E-09,-16.7364012450E-03
-282.1000E-09,-13.5983260115E-03
-281.6000E-09,-16.7364012450E-03
-281.1000E-09,-30.3347272565E-03
-280.6000E-09,+11.5062758560E-03
-280.1000E-09,-13.5983260115E-03
-279.6000E-09,+0.0E+00
-279.1000E-09,-13.5983260115E-03
-278.6000E-09,-5.2301253890E-03
-278.1000E-09,+0.0E+00
-277.6000E-09,-5.2301253890E-03
-277.1000E-09,-16.7364012450E-03
-276.6000E-09,+0.0E+00
-276.1000E-09,-3.1380752335E-03
-275.6000E-09,-11.5062758560E-03
-275.1000E-09,+13.5983260115E-03
-274.6000E-09,-16.7364012450E-03
-274.1000E-09,+3.1380752335E-03
-273.6000E-09,+0.0E+00
-273.1000E-09,+0.0E+00
-272.6000E-09,-11.5062758560E-03
-272.1000E-09,+0.0E+00
-271.6000E-09,-11.5062758560E-03
-271.1000E-09,-13.5983260115E-03
-270.6000E-09,-6.2761504670E-03
-270.1000E-09,+3.1380752335E-03
-269.6000E-09,+0.0E+00
-269.1000E-09,-3.1380752335E-03
-268.6000E-09,-16.7364012450E-03
-268.1000E-09,-19.8744764785E-03
-267.6000E-09,-11.5062758560E-03
-267.1000E-09,-16.7364012450E-03
-266.6000E-09,-16.7364012450E-03
-266.1000E-09,-19.8744764785E-03
-265.6000E-09,-11.5062758560E-03
-265.1000E-09,+0.0E+00
-264.6000E-09,-16.7364012450E-03
-264.1000E-09,-6.2761504670E-03
-263.6000E-09,+0.0E+00
-263.1000E-09,-13.5983260115E-03
-262.6000E-09,-5.2301253890E-03
-262.1000E-09,+0.0E+00
-261.6000E-09,+0.0E+00
-261.1000E-09,-3.1380752335E-03
-260.6000E-09,+0.0E+00
-260.1000E-09,+0.0E+00
-259.6000E-09,+0.0E+00
-259.1000E-09,+0.0E+00
-258.6000E-09,+5.2301253890E-03
-258.1000E-09,-16.7364012450E-03
-257.6000E-09,+5.2301253890E-03
-257.1000E-09,-13.5983260115E-03
-256.6000E-09,-16.7364012450E-03
-256.1000E-09,-13.5983260115E-03
-255.6000E-09,-16.7364012450E-03
-255.1000E-09,-3.1380752335E-03
-254.6000E-09,-16.7364012450E-03
-254.1000E-09,-3.1380752335E-03
-253.6000E-09,-16.7364012450E-03
-253.1000E-09,-16.7364012450E-03
-252.6000E-09,-16.7364012450E-03
-252.1000E-09,+0.0E+00
-251.6000E-09,-5.2301253890E-03
-251.1000E-09,+0.0E+00
-250.6000E-09,-5.2301253890E-03
-250.1000E-09,-13.5983260115E-03
-249.6000E-09,-11.5062758560E-03
-249.1000E-09,+0.0E+00
-248.6000E-09,+11.5062758560E-03
-248.1000E-09,+0.0E+00
-247.6000E-09,+16.7364012450E-03
-247.1000E-09,+3.1380752335E-03
-246.6000E-09,+0.0E+00
-246.1000E-09,+0.0E+00
-245.6000E-09,-5.2301253889E-03
-245.1000E-09,-16.7364012450E-03
-244.6000E-09,+0.0E+00
-244.1000E-09,+0.0E+00
-243.6000E-09,-11.5062758561E-03
-243.1000E-09,-3.1380752336E-03
-242.6000E-09,-16.7364012450E-03
-242.1000E-09,-13.5983260114E-03
-241.6000E-09,-16.7364012450E-03
-241.1000E-09,-3.1380752336E-03
-240.6000E-09,-16.7364012450E-03
-240.1000E-09,-3.1380752336E-03
-239.6000E-09,+0.0E+00
-239.1000E-09,-13.5983260114E-03
-238.6000E-09,-11.5062758561E-03
-238.1000E-09,+0.0E+00
-237.6000E-09,-11.5062758561E-03
-237.1000E-09,+0.0E+00
-236.6000E-09,+0.0E+00
-236.1000E-09,-3.1380752336E-03
-235.6000E-09,-5.2301253889E-03
-235.1000E-09,-16.7364012450E-03
-234.6000E-09,-16.7364012450E-03
-234.1000E-09,-3.1380752336E-03
-233.6000E-09,-11.5062758561E-03
-233.1000E-09,+0.0E+00
-232.6000E-09,-16.7364012450E-03
-232.1000E-09,-3.1380752336E-03
-231.6000E-09,-5.2301253889E-03
-231.1000E-09,-16.7364012450E-03
-230.6000E-09,-21.9665266339E-03
-230.1000E-09,-13.5983260114E-03
-229.6000E-09,-11.5062758561E-03
-229.1000E-09,-3.1380752335E-03
-228.6000E-09,-16.7364012450E-03
-228.1000E-09,-3.1380752336E-03
-227.6000E-09,-16.7364012450E-03
-227.1000E-09,-3.1380752335E-03
-226.6000E-09,+0.0E+00
-226.1000E-09,-16.7364012450E-03
-225.6000E-09,-11.5062758560E-03
-225.1000E-09,+0.0E+00
-224.6000E-09,+0.0E+00
-224.1000E-09,-13.5983260115E-03
-223.6000E-09,+0.0E+00
-223.1000E-09,+0.0E+00
-222.6000E-09,-16.7364012450E-03
-222.1000E-09,-16.7364012450E-03
-221.6000E-09,-21.9665266340E-03
-221.1000E-09,-16.7364012450E-03
-220.6000E-09,-11.5062758560E-03
-220.1000E-09,+0.0E+00
-219.6000E-09,-16.7364012450E-03
-219.1000E-09,+0.0E+00
-218.6000E-09,-16.7364012450E-03
-218.1000E-09,-19.8744764785E-03
-217.6000E-09,-11.5062758560E-03
-217.1000E-09,-16.7364012450E-03
-216.6000E-09,-5.2301253890E-03
-216.1000E-09,-13.5983260115E-03
-215.6000E-09,+0.0E+00
-215.1000E-09,-13.5983260115E-03
-214.6000E-09,-16.7364012450E-03
-214.1000E-09,-16.7364012450E-03
-213.6000E-09,-5.2301253890E-03
-213.1000E-09,-16.7364012450E-03
-212.6000E-09,+0.0E+00
-212.1000E-09,+0.0E+00
-211.6000E-09,+0.0E+00
-211.1000E-09,-3.1380752335E-03
-210.6000E-09,-11.5062758560E-03
-210.1000E-09,-13.5983260115E-03
-209.6000E-09,-5.2301253890E-03
-209.1000E-09,+0.0E+00
-208.6000E-09,-21.9665266340E-03
-208.1000E-09,-30.3347272565E-03
-207.6000E-09,-16.7364012450E-03
-207.1000E-09,-16.7364012450E-03
-206.6000E-09,-28.2426771010E-03
-206.1000E-09,-16.7364012450E-03
-205.6000E-09,-16.7364012450E-03
-205.1000E-09,-3.1380752335E-03
-204.6000E-09,-11.5062758560E-03
-204.1000E-09,-3.1380752335E-03
-203.6000E-09,+0.0E+00
-203.1000E-09,-13.5983260115E-03
-202.6000E-09,+5.2301253890E-03
-202.1000E-09,+0.0E+00
-201.6000E-09,+0.0E+00
-201.1000E-09,+0.0E+00
-200.6000E-09,-11.5062758560E-03
-200.1000E-09,-3.1380752335E-03
-199.6000E-09,-11.5062758560E-03
-199.1000E-09,-16.7364012450E-03
-198.6000E-09,-5.2301253890E-03
-198.1000E-09,+0.0E+00
-197.6000E-09,-11.5062758560E-03
-197.1000E-09,-3.1380752335E-03
-196.6000E-09,-11.5062758560E-03
-196.1000E-09,-3.1380752335E-03
-195.6000E-09,-11.5062758560E-03
-195.1000E-09,-16.7364012450E-03
-194.6000E-09,-11.5062758560E-03
-194.1000E-09,-16.7364012450E-03
-193.6000E-09,+0.0E+00
-193.1000E-09,+0.0E+00
-192.6000E-09,-16.7364012450E-03
-192.1000E-09,-27.1966520230E-03
-191.6000E-09,-5.2301253890E-03
-191.1000E-09,-3.1380752335E-03
-190.6000E-09,-5.2301253890E-03
-190.1000E-09,-3.1380752335E-03
-189.6000E-09,-11.5062758560E-03
-189.1000E-09,-16.7364012450E-03
-188.6000E-09,+0.0E+00
-188.1000E-09,-10.4602507780E-03
-187.6000E-09,-16.7364012450E-03
-187.1000E-09,+13.5983260115E-03
-186.6000E-09,+0.0E+00
-186.1000E-09,-3.1380752335E-03
-185.6000E-09,-11.5062758560E-03
-185.1000E-09,+0.0E+00
-184.6000E-09,+11.5062758560E-03
-184.1000E-09,-13.5983260115E-03
-183.6000E-09,+0.0E+00
-183.1000E-09,+0.0E+00
-182.6000E-09,-5.2301253890E-03
-182.1000E-09,+0.0E+00
-181.6000E-09,+0.0E+00
-181.1000E-09,-16.7364012450E-03
-180.6000E-09,+11.5062758560E-03
-180.1000E-09,+0.0E+00
-179.6000E-09,-11.5062758560E-03
-179.1000E-09,-19.8744764785E-03
-178.6000E-09,-16.7364012450E-03
-178.1000E-09,-16.7364012450E-03
-177.6000E-09,-16.7364012450E-03
-177.1000E-09,-13.5983260115E-03
-176.6000E-09,-11.5062758560E-03
-176.1000E-09,-3.1380752335E-03
-175.6000E-09,+16.7364012450E-03
-175.1000E-09,+3.1380752334E-03
-174.6000E-09,-11.5062758559E-03
-174.1000E-09,+0.0E+00
-173.6000E-09,-11.5062758559E-03
-173.1000E-09,+0.0E+00
-172.6000E-09,+11.5062758559E-03
-172.1000E-09,-13.5983260116E-03
-171.6000E-09,+0.0E+00
-171.1000E-09,-16.7364012450E-03
-170.6000E-09,-16.7364012450E-03
-170.1000E-09,-16.7364012450E-03
-169.6000E-09,+5.2301253891E-03
-169.1000E-09,+0.0E+00
-168.6000E-09,-11.5062758559E-03
-168.1000E-09,-3.1380752334E-03
-167.6000E-09,+0.0E+00
-167.1000E-09,-3.1380752334E-03
-166.6000E-09,-16.7364012450E-03
-166.1000E-09,+0.0E+00
-165.6000E-09,+11.5062758559E-03
-165.1000E-09,+0.0E+00
-164.6000E-09,-11.5062758559E-03
-164.1000E-09,+0.0E+00
-163.6000E-09,+0.0E+00
-163.1000E-09,+13.5983260116E-03
-162.6000E-09,+5.2301253891E-03
-162.1000E-09,-13.5983260116E-03
-161.6000E-09,-11.5062758559E-03
-161.1000E-09,+0.0E+00
-160.6000E-09,-16.7364012450E-03
-160.1000E-09,-16.7364012450E-03
-159.6000E-09,-16.7364012450E-03
-159.1000E-09,-3.1380752334E-03
-158.6000E-09,-16.7364012450E-03
-158.1000E-09,+0.0E+00
-157.6000E-09,-16.7364012450E-03
-157.1000E-09,-16.7364012450E-03
-156.6000E-09,-5.2301253891E-03
-156.1000E-09,+0.0E+00
-155.6000E-09,-33.4728024900E-03
-155.1000E-09,+0.0E+00
-154.6000E-09,-5.2301253891E-03
-154.1000E-09,-30.3347272566E-03
-153.6000E-09,-34.5188275677E-03
-153.1000E-09,-16.7364012450E-03
-152.6000E-09,+0.0E+00
-152.1000E-09,+13.5983260116E-03
-151.6000E-09,-5.2301253891E-03
-151.1000E-09,-16.7364012450E-03
-150.6000E-09,-16.7364012450E-03
-150.1000E-09,+0.0E+00
-149.6000E-09,-16.7364012450E-03
-149.1000E-09,-30.3347272566E-03
-148.6000E-09,+0.0E+00
-148.1000E-09,-13.5983260116E-03
-147.6000E-09,-28.2426771009E-03
-147.1000E-09,-3.1380752334E-03
-146.6000E-09,-11.5062758559E-03
-146.1000E-09,-13.5983260116E-03
-145.6000E-09,-5.2301253891E-03
-145.1000E-09,+0.0E+00
-144.6000E-09,+0.0E+00
-144.1000E-09,-3.1380752334E-03
-143.6000E-09,+16.7364012450E-03
-143.1000E-09,+3.1380752334E-03
-142.6000E-09,-11.5062758559E-03
-142.1000E-09,+3.1380752334E-03
-141.6000E-09,-16.7364012450E-03
-141.1000E-09,+0.0E+00
-140.6000E-09,-5.2301253891E-03
-140.1000E-09,-16.7364012450E-03
-139.6000E-09,-28.2426771009E-03
-139.1000E-09,-16.7364012450E-03
-138.6000E-09,+0.0E+00
-138.1000E-09,+0.0E+00
-137.6000E-09,-11.5062758559E-03
-137.1000E-09,-3.1380752334E-03
-136.6000E-09,-11.5062758559E-03
-136.1000E-09,-3.1380752334E-03
-135.6000E-09,-5.2301253891E-03
-135.1000E-09,+0.0E+00
-134.6000E-09,-5.2301253891E-03
-134.1000E-09,+0.0E+00
-133.6000E-09,-11.5062758559E-03
-133.1000E-09,-3.1380752334E-03
-132.6000E-09,-11.5062758559E-03
-132.1000E-09,-3.1380752334E-03
-131.6000E-09,-16.7364012450E-03
-131.1000E-09,-3.1380752334E-03
-130.6000E-09,-5.2301253891E-03
-130.1000E-09,-13.5983260116E-03
-129.6000E-09,+5.2301253891E-03
-129.1000E-09,+0.0E+00
-128.6000E-09,-5.2301253891E-03
-128.1000E-09,+0.0E+00
-127.6000E-09,+0.0E+00
-127.1000E-09,-3.1380752334E-03
-126.6000E-09,-11.5062758559E-03
-126.1000E-09,-3.1380752334E-03
-125.6000E-09,-5.2301253891E-03
-125.1000E-09,-16.7364012450E-03
-124.6000E-09,+0.0E+00
-124.1000E-09,+3.1380752334E-03
-123.6000E-09,-21.9665266341E-03
-123.1000E-09,+0.0E+00
-122.6000E-09,-5.2301253891E-03
-122.1000E-09,-16.7364012450E-03
-121.6000E-09,-11.5062758558E-03
-121.1000E-09,-16.7364012450E-03
-120.6000E-09,+0.0E+00
-120.1000E-09,+0.0E+00
-119.6000E-09,+0.0E+00
-119.1000E-09,-10.4602507783E-03
-118.6000E-09,+0.0E+00
-118.1000E-09,+0.0E+00
-117.6000E-09,-16.7364012450E-03
-117.1000E-09,-33.4728024900E-03
-116.6000E-09,+0.0E+00
-116.1000E-09,+0.0E+00
-115.6000E-09,+5.2301253892E-03
-115.1000E-09,+10.4602507783E-03
-114.6000E-09,+0.0E+00
-114.1000E-09,+16.7364012450E-03
-113.6000E-09,+0.0E+00
-113.1000E-09,+0.0E+00
-112.6000E-09,-5.2301253892E-03
-112.1000E-09,-16.7364012450E-03
-111.6000E-09,+5.2301253892E-03
-111.1000E-09,+0.0E+00
-110.6000E-09,-11.5062758558E-03
-110.1000E-09,+13.5983260117E-03
-109.6000E-09,-6.2761504667E-03
-109.1000E-09,+10.4602507783E-03
-108.6000E-09,+0.0E+00
-108.1000E-09,+0.0E+00
-107.6000E-09,+0.0E+00
-107.1000E-09,-3.1380752333E-03
-106.6000E-09,-16.7364012450E-03
-106.1000E-09,-30.3347272566E-03
-105.6000E-09,-16.7364012450E-03
-105.1000E-09,-13.5983260116E-03
-104.6000E-09,-21.9665266341E-03
-104.1000E-09,-3.1380752333E-03
-103.6000E-09,-11.5062758558E-03
-103.1000E-09,+13.5983260116E-03
-102.6000E-09,+1.0460250776E-03
-102.1000E-09,-13.5983260116E-03
-101.6000E-09,-11.5062758558E-03
-101.1000E-09,+0.0E+00
-100.6000E-09,-11.5062758558E-03
-100.1000E-09,-16.7364012450E-03
-99.6000E-09,-16.7364012450E-03
-99.1000E-09,+0.0E+00
-98.6000E-09,+0.0E+00
-98.1000E-09,-16.7364012450E-03
-97.6000E-09,+0.0E+00
-97.1000E-09,-10.4602507783E-03
-96.6000E-09,+0.0E+00
-96.1000E-09,-13.5983260116E-03
-95.6000E-09,-16.7364012450E-03
-95.1000E-09,-3.1380752334E-03
-94.6000E-09,-16.7364012450E-03
-94.1000E-09,-3.1380752334E-03
-93.6000E-09,-5.2301253891E-03
-93.1000E-09,+0.0E+00
-92.6000E-09,+11.5062758559E-03
-92.1000E-09,+0.0E+00
-91.6000E-09,-16.7364012450E-03
-91.1000E-09,+0.0E+00
-90.6000E-09,-5.2301253891E-03
-90.1000E-09,-13.5983260116E-03
-89.6000E-09,-11.5062758559E-03
-89.1000E-09,-16.7364012450E-03
-88.6000E-09,+0.0E+00
-88.1000E-09,-16.7364012450E-03
-87.6000E-09,+0.0E+00
-87.1000E-09,-16.7364012450E-03
-86.6000E-09,+0.0E+00
-86.1000E-09,+0.0E+00
-85.6000E-09,+6.2761504667E-03
-85.1000E-09,-16.7364012450E-03
-84.6000E-09,+0.0E+00
-84.1000E-09,+0.0E+00
-83.6000E-09,-11.5062758559E-03
-83.1000E-09,-3.1380752334E-03
-82.6000E-09,-16.7364012450E-03
-82.1000E-09,-13.5983260116E-03
-81.6000E-09,-16.7364012450E-03
-81.1000E-09,+0.0E+00
-80.6000E-09,-11.5062758559E-03
-80.1000E-09,+0.0E+00
-79.6000E-09,+0.0E+00
-79.1000E-09,-16.7364012450E-03
-78.6000E-09,-16.7364012450E-03
-78.1000E-09,+0.0E+00
-77.6000E-09,+0.0E+00
-77.1000E-09,-3.1380752334E-03
-76.6000E-09,+0.0E+00
-76.1000E-09,+0.0E+00
-75.6000E-09,-11.5062758559E-03
-75.1000E-09,+10.4602507783E-03
-74.6000E-09,+16.7364012450E-03
-74.1000E-09,+0.0E+00
-73.6000E-09,+5.2301253891E-03
-73.1000E-09,+0.0E+00
-72.6000E-09,-16.7364012450E-03
-72.1000E-09,-3.1380752334E-03
-71.6000E-09,+0.0E+00
-71.1000E-09,-3.1380752334E-03
-70.6000E-09,-5.2301253891E-03
-70.1000E-09,+0.0E+00
-69.6000E-09,+0.0E+00
-69.1000E-09,+0.0E+00
-68.6000E-09,+0.0E+00
-68.1000E-09,+0.0E+00
-67.6000E-09,+0.0E+00
-67.1000E-09,+13.5983260116E-03
-66.6000E-09,+16.7364012450E-03
-66.1000E-09,-3.1380752334E-03
-65.6000E-09,+0.0E+00
-65.1000E-09,-16.7364012450E-03
-64.6000E-09,-5.2301253891E-03
-64.1000E-09,-13.5983260116E-03
-63.6000E-09,-16.7364012450E-03
-63.1000E-09,-3.1380752334E-03
-62.6000E-09,-5.2301253891E-03
-62.1000E-09,-3.1380752334E-03
-61.6000E-09,-5.2301253891E-03
-61.1000E-09,-16.7364012450E-03
-60.6000E-09,+0.0E+00
-60.1000E-09,+0.0E+00
-59.6000E-09,-16.7364012450E-03
-59.1000E-09,+0.0E+00
-58.6000E-09,+0.0E+00
-58.1000E-09,+0.0E+00
-57.6000E-09,+5.2301253891E-03
-57.1000E-09,+0.0E+00
-56.6000E-09,-5.2301253891E-03
-56.1000E-09,+0.0E+00
-55.6000E-09,-5.2301253891E-03
-55.1000E-09,-13.5983260116E-03
-54.6000E-09,-5.2301253891E-03
-54.1000E-09,+0.0E+00
-53.6000E-09,-5.2301253891E-03
-53.1000E-09,-3.1380752334E-03
-52.6000E-09,+11.5062758559E-03
-52.1000E-09,+0.0E+00
-51.6000E-09,+0.0E+00
-51.1000E-09,-3.1380752334E-03
-50.6000E-09,-11.5062758559E-03
-50.1000E-09,-10.4602507783E-03
-49.6000E-09,-16.7364012450E-03
-49.1000E-09,+0.0E+00
-48.6000E-09,-11.5062758559E-03
-48.1000E-09,-13.5983260116E-03
-47.6000E-09,+0.0E+00
-47.1000E-09,-13.5983260116E-03
-46.6000E-09,-16.7364012450E-03
-46.1000E-09,+0.0E+00
-45.6000E-09,+0.0E+00
-45.1000E-09,+13.5983260116E-03
-44.6000E-09,+5.2301253891E-03
-44.1000E-09,-3.1380752334E-03
-43.6000E-09,+0.0E+00
-43.1000E-09,-3.1380752334E-03
-42.6000E-09,+0.0E+00
-42.1000E-09,-3.1380752334E-03
-41.6000E-09,+5.2301253891E-03
-41.1000E-09,+0.0E+00
-40.6000E-09,-5.2301253891E-03
-40.1000E-09,-3.1380752334E-03
-39.6000E-09,+0.0E+00
-39.1000E-09,+43.9330532682E-03
-38.6000E-09,+171.5481127615E-03
-38.1000E-09,+372.3849277015E-03
-37.6000E-09,+534.5188147623E-03
-37.1000E-09,+616.1087708315E-03
-36.6000E-09,+635.9832473099E-03
-36.1000E-09,+592.0501940417E-03
-35.6000E-09,+547.0711156958E-03
-35.1000E-09,+505.2301125833E-03
-34.6000E-09,+502.0920373499E-03
-34.1000E-09,+485.3556361049E-03
-33.6000E-09,+446.6527082258E-03
-33.1000E-09,+371.3389026233E-03
-32.6000E-09,+324.2677741217E-03
-32.1000E-09,+243.7238431301E-03
-31.6000E-09,+178.8702883059E-03
-31.1000E-09,+133.8912099600E-03
-30.6000E-09,+61.7154795909E-03
-30.1000E-09,+3.1380752334E-03
-29.6000E-09,-43.9330532682E-03
-29.1000E-09,-83.6820062250E-03
-28.6000E-09,-133.8912099600E-03
-28.1000E-09,-150.6276112050E-03
-27.6000E-09,-199.7907898623E-03
-27.1000E-09,-217.5732161850E-03
-26.6000E-09,-239.5397428191E-03
-26.1000E-09,-251.0460186750E-03
-25.6000E-09,-279.2886957758E-03
-25.1000E-09,-294.9790719432E-03
-24.6000E-09,-289.7489465541E-03
-24.1000E-09,-314.8535484216E-03
-23.6000E-09,-317.9916236550E-03
-23.1000E-09,-331.5899496666E-03
-22.6000E-09,-334.7280249000E-03
-22.1000E-09,-334.7280249000E-03
-21.6000E-09,-346.2343007558E-03
-21.1000E-09,-348.3263509116E-03
-20.6000E-09,-339.9581502891E-03
-20.1000E-09,-334.7280249000E-03
-19.6000E-09,-339.9581502891E-03
-19.1000E-09,-337.8661001333E-03
-18.6000E-09,-346.2343007558E-03
-18.1000E-09,-331.5899496666E-03
-17.6000E-09,-329.4978995108E-03
-17.1000E-09,-317.9916236550E-03
-16.6000E-09,-317.9916236550E-03
-16.1000E-09,-304.3932976433E-03
-15.6000E-09,-296.0250970208E-03
-15.1000E-09,-301.2552224100E-03
-14.6000E-09,-290.7949716317E-03
-14.1000E-09,-284.5188211650E-03
-13.6000E-09,-262.5522945308E-03
-13.1000E-09,-251.0460186750E-03
-12.6000E-09,-234.3096174300E-03
-12.1000E-09,-237.4476926633E-03
-11.6000E-09,-234.3096174300E-03
-11.1000E-09,-217.5732161850E-03
-10.6000E-09,-200.8368149400E-03
-10.1000E-09,-203.9748901733E-03
-9.6000E-09,-190.3765641617E-03
-9.1000E-09,-153.7656864384E-03
-8.6000E-09,-150.6276112050E-03
-8.1000E-09,-140.1673604267E-03
-7.6000E-09,-128.6610845709E-03
-7.1000E-09,-120.2928839484E-03
-6.6000E-09,-139.1213353491E-03
-6.1000E-09,-238.4937177415E-03
-5.6000E-09,-449.7907834597E-03
-5.1000E-09,-687.2384761231E-03
-4.6000E-09,-858.7865888840E-03
-4.1000E-09,-920.5020684749E-03
-3.6000E-09,-903.7656672299E-03
-3.1000E-09,-887.0292659849E-03
-2.6000E-09,-853.5564634949E-03
-2.1000E-09,-839.9581374833E-03
-1.6000E-09,-809.6234102266E-03
-1.1000E-09,-668.4100247218E-03
-600.0E-12,-305.4393227204E-03
-100.0E-12,+213.3891158745E-03
+400.0E-12,+661.0878491779E-03
+900.0E-12,+921.5480935530E-03
+1.4000E-09,+987.4476734549E-03
+1.9000E-09,+987.4476734549E-03
+2.4000E-09,+933.0543694084E-03
+2.9000E-09,+738.4937049351E-03
+3.4000E-09,+344.1422505996E-03
+3.9000E-09,-105.6485328596E-03
+4.4000E-09,-427.8242568256E-03
+4.9000E-09,-515.6903633616E-03
+5.4000E-09,-474.8953853267E-03
+5.9000E-09,-421.5481063583E-03
+6.4000E-09,-364.0167270785E-03
+6.9000E-09,-125.5230093370E-03
+7.4000E-09,+281.3807459321E-03
+7.9000E-09,+694.5606516679E-03
+8.4000E-09,+958.1589712764E-03
+8.9000E-09,+1.0512552032015E+00
+9.4000E-09,+1.0491631530458E+00
+9.9000E-09,+990.5857486883E-03
+10.4000E-09,+948.7447455758E-03
+10.9000E-09,+910.0418176966E-03
+11.4000E-09,+827.4058365493E-03
+11.9000E-09,+560.6694417069E-03
+12.4000E-09,+153.7656864379E-03
+12.9000E-09,-178.8702883063E-03
+13.4000E-09,-339.9581502891E-03
+13.9000E-09,-361.9246769232E-03
+14.4000E-09,-334.7280249000E-03
+14.9000E-09,-290.7949716317E-03
+15.4000E-09,-86.8200814579E-03
+15.9000E-09,+303.3472725662E-03
+16.4000E-09,+694.5606516679E-03
+16.9000E-09,+924.6861687864E-03
+17.4000E-09,+997.9079242331E-03
+17.9000E-09,+976.9874226766E-03
+18.4000E-09,+920.5020684749E-03
+18.9000E-09,+903.7656672299E-03
+19.4000E-09,+871.3388898175E-03
+19.9000E-09,+715.4811532234E-03
+20.4000E-09,+377.6150530896E-03
+20.9000E-09,-65.8995799029E-03
+21.4000E-09,-394.3514543356E-03
+21.9000E-09,-546.0250906182E-03
+22.4000E-09,-563.8075169408E-03
+22.9000E-09,-538.7029150733E-03
+23.4000E-09,-486.4016611826E-03
+23.9000E-09,-245.8158932853E-03
+24.4000E-09,+141.2133855054E-03
+24.9000E-09,+543.9330404630E-03
+25.4000E-09,+824.2677613164E-03
+25.9000E-09,+950.8367957315E-03
+26.4000E-09,+937.2384697199E-03
+26.9000E-09,+890.1673412183E-03
+27.4000E-09,+853.5564634949E-03
+27.9000E-09,+779.2886829700E-03
+28.4000E-09,+572.1757175628E-03
+28.9000E-09,+121.3389090254E-03
+29.4000E-09,-348.3263509121E-03
+29.9000E-09,-684.1004008897E-03
+30.4000E-09,-786.6108585149E-03
+30.9000E-09,-800.2091845265E-03
+31.4000E-09,-753.1380560249E-03
+31.9000E-09,-725.9414040017E-03
+32.4000E-09,-493.7238367269E-03
+32.9000E-09,-51.2552288121E-03
+33.4000E-09,+393.3054292579E-03
+33.9000E-09,+703.9748773681E-03
+34.4000E-09,+820.0836610049E-03
+34.9000E-09,+806.4853349933E-03
+35.4000E-09,+769.8744572699E-03
+35.9000E-09,+786.6108585149E-03
+36.4000E-09,+693.5146265893E-03
+36.9000E-09,+413.1799057353E-03
+37.4000E-09,-96.2343071595E-03
+37.9000E-09,-567.9916172528E-03
+38.4000E-09,-846.2342879505E-03
+38.9000E-09,-920.5020684749E-03
+39.4000E-09,-887.0292659849E-03
+39.9000E-09,-870.2928647399E-03
+40.4000E-09,-826.3598114717E-03
+40.9000E-09,-624.4769714536E-03
+41.4000E-09,-205.0209152505E-03
+41.9000E-09,+266.7363948428E-03
+42.4000E-09,+589.9581438864E-03
+42.9000E-09,+702.9288522899E-03
+43.4000E-09,+719.6652535349E-03
+43.9000E-09,+702.9288522899E-03
+44.4000E-09,+702.9288522899E-03
+44.9000E-09,+628.6610717651E-03
+45.4000E-09,+260.4602443746E-03
+45.9000E-09,-230.1255171195E-03
+46.4000E-09,-694.5606516679E-03
+46.9000E-09,-924.6861687864E-03
+47.4000E-09,-998.9539493108E-03
+47.9000E-09,-937.2384697199E-03
+48.4000E-09,-903.7656672299E-03
+48.9000E-09,-846.2342879500E-03
+49.4000E-09,-672.5941250328E-03
+49.9000E-09,-235.3556425071E-03
+50.4000E-09,+219.6652663412E-03
+50.9000E-09,+563.8075169413E-03
+51.4000E-09,+702.9288522899E-03
+51.9000E-09,+716.5271783015E-03
+52.4000E-09,+691.4225764340E-03
+52.9000E-09,+702.9288522899E-03
+53.4000E-09,+587.8660937302E-03
+53.9000E-09,+215.4811660288E-03
+54.4000E-09,-297.0711220994E-03
+54.9000E-09,-714.4351281463E-03
+55.4000E-09,-936.1924446422E-03
+55.9000E-09,-960.2510214316E-03
+56.4000E-09,-915.2719430858E-03
+56.9000E-09,-887.0292659849E-03
+57.4000E-09,-903.7656672299E-03
+57.9000E-09,-920.5020684749E-03
+58.4000E-09,-932.0083443308E-03
+58.9000E-09,-926.7782189417E-03
+59.4000E-09,-925.7321938640E-03
+59.9000E-09,-920.5020684749E-03
+60.4000E-09,-910.0418176967E-03
+60.9000E-09,-812.7614854601E-03
+61.4000E-09,-572.1757175629E-03
+61.9000E-09,-171.5481127606E-03
+62.4000E-09,+352.5104512235E-03
+62.9000E-09,+761.5062566478E-03
+63.4000E-09,+986.4016483772E-03
+63.9000E-09,+1.0407949524233E+00
+64.4000E-09,+1.0156903505558E+00
+64.9000E-09,+957.1129461983E-03
+65.4000E-09,+903.7656672299E-03
+65.9000E-09,+873.4309399733E-03
+66.4000E-09,+832.6359619384E-03
+66.9000E-09,+574.2677677186E-03
+67.4000E-09,+138.0753102706E-03
+67.9000E-09,-303.3472725661E-03
+68.4000E-09,-611.9246705205E-03
+68.9000E-09,-696.6527018231E-03
+69.4000E-09,-708.1589776790E-03
+69.9000E-09,-689.3305262783E-03
+70.4000E-09,-483.2635859488E-03
+70.9000E-09,-67.9916300572E-03
+71.4000E-09,+375.5230029352E-03
+71.9000E-09,+731.1715293912E-03
+72.4000E-09,+892.2593913740E-03
+72.9000E-09,+906.9037424633E-03
+73.4000E-09,+881.7991405958E-03
+73.9000E-09,+839.9581374833E-03
+74.4000E-09,+770.9204823476E-03
+74.9000E-09,+499.9999871938E-03
+75.4000E-09,+49.1631786566E-03
+75.9000E-09,-467.5732097827E-03
+76.4000E-09,-829.4978867055E-03
+76.9000E-09,-937.2384697199E-03
+77.4000E-09,-932.0083443308E-03
+77.9000E-09,-900.6275919965E-03
+78.4000E-09,-865.0627393508E-03
+78.9000E-09,-705.0209024453E-03
+79.4000E-09,-360.8786518448E-03
+79.9000E-09,+102.5104576261E-03
+80.4000E-09,+488.4937113387E-03
+80.9000E-09,+676.7782253447E-03
+81.4000E-09,+691.4225764340E-03
+81.9000E-09,+689.3305262783E-03
+82.4000E-09,+713.3891030681E-03
+82.9000E-09,+780.3347080481E-03
+83.4000E-09,+858.7865888840E-03
+83.9000E-09,+867.1547895065E-03
+84.4000E-09,+853.5564634949E-03
+84.9000E-09,+823.2217362383E-03
+85.4000E-09,+754.1840811026E-03
+85.9000E-09,+642.2593977767E-03
+86.4000E-09,+481.1715357935E-03
+86.9000E-09,+239.5397428187E-03
+87.4000E-09,-157.9497867502E-03
+87.9000E-09,-574.2677677194E-03
+88.4000E-09,-913.1798929304E-03
+88.9000E-09,-1.0481171279681E+00
+89.4000E-09,-1.0878660809249E+00
+89.9000E-09,-1.0407949524233E+00
+90.4000E-09,-970.7112722099E-03
+90.9000E-09,-940.3765449533E-03
+91.4000E-09,-937.2384697199E-03
+91.9000E-09,-893.3054164517E-03
+92.4000E-09,-711.2970529120E-03
+92.9000E-09,-329.4978995105E-03
+93.4000E-09,+92.0502068479E-03
+93.9000E-09,+369.2468524680E-03
+94.4000E-09,+512.5522881281E-03
+94.9000E-09,+546.0250906181E-03
+95.4000E-09,+497.9079370385E-03
+95.9000E-09,+225.9414168071E-03
+96.4000E-09,-202.9288650960E-03
+96.9000E-09,-610.8786454428E-03
+97.4000E-09,-891.2133662963E-03
+97.9000E-09,-1.0146443254781E+00
+98.4000E-09,-998.9539493108E-03
+98.9000E-09,-960.2510214317E-03
+99.4000E-09,-915.2719430858E-03
+99.9000E-09,-799.1631594485E-03
+100.4000E-09,-577.4058429521E-03
+100.9000E-09,-91.0041817692E-03
+101.4000E-09,+370.2928775460E-03
+101.9000E-09,+673.6401501113E-03
+102.4000E-09,+797.0711092931E-03
+102.9000E-09,+789.7489337483E-03
+103.4000E-09,+814.8535356158E-03
+103.9000E-09,+776.1506077367E-03
+104.4000E-09,+577.4058429521E-03
+104.9000E-09,+154.8117115158E-03
+105.4000E-09,-336.8200750560E-03
+105.9000E-09,-684.1004008895E-03
+106.4000E-09,-808.5773851490E-03
+106.9000E-09,-823.2217362383E-03
+107.4000E-09,-758.3681814140E-03
+107.9000E-09,-783.4727832815E-03
+108.4000E-09,-825.3137863940E-03
+108.9000E-09,-870.2928647399E-03
+109.4000E-09,-892.2593913740E-03
+109.9000E-09,-887.0292659849E-03
+110.4000E-09,-870.2928647399E-03
+110.9000E-09,-823.2217362383E-03
+111.4000E-09,-715.4811532235E-03
+111.9000E-09,-504.1840875053E-03
+112.4000E-09,-198.7447647840E-03
+112.9000E-09,+233.2635923526E-03
+113.4000E-09,+638.0752974659E-03
+113.9000E-09,+938.2844947979E-03
+114.4000E-09,+1.0543932784349E+00
+114.9000E-09,+1.0543932784349E+00
+115.4000E-09,+993.7238239217E-03
+115.9000E-09,+940.3765449533E-03
+116.4000E-09,+920.5020684749E-03
+116.9000E-09,+920.5020684749E-03
+117.4000E-09,+925.7321938640E-03
+117.9000E-09,+917.3639932415E-03
+118.4000E-09,+920.5020684749E-03
+118.9000E-09,+906.9037424633E-03
+119.4000E-09,+903.7656672299E-03
+119.9000E-09,+900.6275919965E-03
+120.4000E-09,+876.5690152067E-03
+120.9000E-09,+752.0920309469E-03
+121.4000E-09,+400.6276048016E-03
+121.9000E-09,-140.1673604274E-03
+122.4000E-09,-666.3179745668E-03
+122.9000E-09,-971.7572972879E-03
+123.4000E-09,-1.0711296796799E+00
+123.9000E-09,-1.0407949524233E+00
+124.4000E-09,-993.7238239217E-03
+124.9000E-09,-937.2384697199E-03
+125.4000E-09,-903.7656672299E-03
+125.9000E-09,-923.6401437083E-03
+126.4000E-09,-908.9957926190E-03
+126.9000E-09,-906.9037424633E-03
+127.4000E-09,-908.9957926190E-03
+127.9000E-09,-906.9037424633E-03
+128.4000E-09,-887.0292659849E-03
+128.9000E-09,-812.7614854601E-03
+129.4000E-09,-583.6819934188E-03
+129.9000E-09,-107.7405830140E-03
+130.4000E-09,+430.9623320593E-03
+130.9000E-09,+861.9246641178E-03
+131.4000E-09,+1.0481171279681E+00
+131.9000E-09,+1.0711296796799E+00
+132.4000E-09,+993.7238239216E-03
+132.9000E-09,+984.3095982215E-03
+133.4000E-09,+932.0083443308E-03
+133.9000E-09,+879.7070904400E-03
+134.4000E-09,+683.0543758111E-03
+134.9000E-09,+271.9665202305E-03
+135.4000E-09,-202.9288650962E-03
+135.9000E-09,-550.2091909297E-03
+136.4000E-09,-679.9163005782E-03
+136.9000E-09,-699.7907770565E-03
+137.4000E-09,-669.4560497999E-03
+137.9000E-09,-567.9916172518E-03
+138.4000E-09,-243.7238431295E-03
+138.9000E-09,+199.7907898629E-03
+139.4000E-09,+622.3849212989E-03
+139.9000E-09,+857.7405638065E-03
+140.4000E-09,+942.4685951090E-03
+140.9000E-09,+937.2384697199E-03
+141.4000E-09,+887.0292659849E-03
+141.9000E-09,+859.8326139616E-03
+142.4000E-09,+705.0209024451E-03
+142.9000E-09,+319.0376487319E-03
+143.4000E-09,-191.4225892405E-03
+143.9000E-09,-624.4769714547E-03
+144.4000E-09,-819.0376359273E-03
+144.9000E-09,-880.7531155182E-03
+145.4000E-09,-848.3263381058E-03
+145.9000E-09,-806.4853349933E-03
+146.4000E-09,-738.4937049350E-03
+146.9000E-09,-460.2510342368E-03
+147.4000E-09,+7.3221755457E-03
+147.9000E-09,+437.2384825265E-03
+148.4000E-09,+707.1129526015E-03
+148.9000E-09,+783.4727832816E-03
+149.4000E-09,+769.8744572699E-03
+149.9000E-09,+766.7363820366E-03
+150.4000E-09,+797.0711092932E-03
+150.9000E-09,+864.0167142732E-03
+151.4000E-09,+898.5355418407E-03
+151.9000E-09,+900.6275919966E-03
+152.4000E-09,+887.0292659849E-03
+152.9000E-09,+873.4309399732E-03
+153.4000E-09,+787.6568835924E-03
+153.9000E-09,+654.8116987100E-03
+154.4000E-09,+453.9748837700E-03
+154.9000E-09,+101.4644325467E-03
+155.4000E-09,-342.0502004458E-03
+155.9000E-09,-741.6317801699E-03
+156.4000E-09,-991.6317737666E-03
+156.9000E-09,-1.0543932784349E+00
+157.4000E-09,-1.0324267518007E+00
+157.9000E-09,-993.7238239215E-03
+158.4000E-09,-948.7447455757E-03
+158.9000E-09,-940.3765449532E-03
+159.4000E-09,-925.7321938641E-03
+159.9000E-09,-934.1003944866E-03
+160.4000E-09,-925.7321938641E-03
+160.9000E-09,-906.9037424632E-03
+161.4000E-09,-887.0292659849E-03
+161.9000E-09,-890.1673412182E-03
+162.4000E-09,-887.0292659849E-03
+162.9000E-09,-843.0962127165E-03
+163.4000E-09,-622.3849212973E-03
+163.9000E-09,-157.9497867481E-03
+164.4000E-09,+408.9958054260E-03
+164.9000E-09,+842.0501876401E-03
+165.4000E-09,+1.0313807267232E+00
+165.9000E-09,+1.0575313536682E+00
+166.4000E-09,+1.0041840746999E+00
+166.9000E-09,+943.5146201865E-03
+167.4000E-09,+932.0083443307E-03
+167.9000E-09,+906.9037424632E-03
+168.4000E-09,+920.5020684749E-03
+168.9000E-09,+906.9037424632E-03
+169.4000E-09,+915.2719430857E-03
+169.9000E-09,+920.5020684749E-03
+170.4000E-09,+903.7656672299E-03
+170.9000E-09,+862.9706891948E-03
+171.4000E-09,+822.1757111597E-03
+171.9000E-09,+530.3347144496E-03
+172.4000E-09,+15.6903761654E-03
+172.9000E-09,-520.9204887519E-03
+173.4000E-09,-913.1798929309E-03
+173.9000E-09,-1.0648535292133E+00
+174.4000E-09,-1.0774058301465E+00
+174.9000E-09,-1.0209204759449E+00
+175.4000E-09,-965.4811468207E-03
+175.9000E-09,-906.9037424632E-03
+176.4000E-09,-827.4058365489E-03
+176.9000E-09,-543.9330404613E-03
+177.4000E-09,-116.1087836353E-03
+177.9000E-09,+353.5564763020E-03
+178.4000E-09,+606.6945451318E-03
+178.9000E-09,+699.7907770566E-03
+179.4000E-09,+719.6652535349E-03
+179.9000E-09,+689.3305262782E-03
+180.4000E-09,+543.9330404612E-03
+180.9000E-09,+134.9372350361E-03
+181.4000E-09,-342.0502004463E-03
+181.9000E-09,-731.1715293919E-03
+182.4000E-09,-930.9623192533E-03
+182.9000E-09,-970.7112722099E-03
+183.4000E-09,-920.5020684749E-03
+183.9000E-09,-879.7070904398E-03
+184.4000E-09,-887.0292659849E-03
+184.9000E-09,-887.0292659849E-03
+185.4000E-09,-892.2593913741E-03
+185.9000E-09,-890.1673412182E-03
+186.4000E-09,-893.3054164514E-03
+186.9000E-09,-876.5690152064E-03
+187.4000E-09,-843.0962127165E-03
+187.9000E-09,-698.7447519780E-03
+188.4000E-09,-426.7782317461E-03
+188.9000E-09,-17.7824263210E-03
+189.4000E-09,+475.9414104065E-03
+189.9000E-09,+848.3263381070E-03
+190.4000E-09,+1.0481171279683E+00
+190.9000E-09,+1.0543932784349E+00
+191.4000E-09,+1.0271966264114E+00
+191.9000E-09,+973.8493474432E-03
+192.4000E-09,+932.0083443307E-03
+192.9000E-09,+934.1003944866E-03
+193.4000E-09,+915.2719430857E-03
+193.9000E-09,+934.1003944866E-03
+194.4000E-09,+932.0083443307E-03
+194.9000E-09,+906.9037424632E-03
+195.4000E-09,+915.2719430857E-03
+195.9000E-09,+903.7656672299E-03
+196.4000E-09,+881.7991405957E-03
+196.9000E-09,+829.4978867047E-03
+197.4000E-09,+550.2091909275E-03
+197.9000E-09,+43.9330532656E-03
+198.4000E-09,-509.4142128966E-03
+198.9000E-09,-898.5355418421E-03
+199.4000E-09,-1.0648535292134E+00
+199.9000E-09,-1.0575313536681E+00
+200.4000E-09,-1.0104602251664E+00
+200.9000E-09,-953.9748709649E-03
+201.4000E-09,-915.2719430856E-03
+201.9000E-09,-917.3639932416E-03
+202.4000E-09,-903.7656672299E-03
+202.9000E-09,-920.5020684749E-03
+203.4000E-09,-920.5020684749E-03
+203.9000E-09,-906.9037424631E-03
+204.4000E-09,-903.7656672299E-03
+204.9000E-09,-862.9706891946E-03
+205.4000E-09,-699.7907770551E-03
+205.9000E-09,-285.5648462406E-03
+206.4000E-09,+268.8284450004E-03
+206.9000E-09,+741.6317801708E-03
+207.4000E-09,+1.0031380496227E+00
+207.9000E-09,+1.0742677549131E+00
+208.4000E-09,+1.0324267518006E+00
+208.9000E-09,+976.9874226763E-03
+209.4000E-09,+925.7321938642E-03
+209.9000E-09,+923.6401437081E-03
+210.4000E-09,+920.5020684749E-03
+210.9000E-09,+920.5020684749E-03
+211.4000E-09,+920.5020684749E-03
+211.9000E-09,+903.7656672299E-03
+212.4000E-09,+892.2593913742E-03
+212.9000E-09,+887.0292659849E-03
+213.4000E-09,+859.8326139613E-03
+213.9000E-09,+701.8828272110E-03
+214.4000E-09,+283.4727960844E-03
+214.9000E-09,-260.4602443781E-03
+215.4000E-09,-749.9999807934E-03
+215.9000E-09,-1.0251045762570E+00
+216.4000E-09,-1.0711296796799E+00
+216.9000E-09,-1.0271966264113E+00
+217.4000E-09,-965.4811468206E-03
+217.9000E-09,-937.2384697199E-03
+218.4000E-09,-932.0083443306E-03
+218.9000E-09,-923.6401437081E-03
+219.4000E-09,-920.5020684749E-03
+219.9000E-09,-920.5020684749E-03
+220.4000E-09,-903.7656672299E-03
+220.9000E-09,-903.7656672299E-03
+221.4000E-09,-892.2593913742E-03
+221.9000E-09,-859.8326139613E-03
+222.4000E-09,-699.7907770549E-03
+222.9000E-09,-319.0376487303E-03
+223.4000E-09,+246.8619183665E-03
+223.9000E-09,+708.1589776810E-03
+224.4000E-09,+997.9079242335E-03
+224.9000E-09,+1.0847280056917E+00
+225.4000E-09,+1.0387029022670E+00
+225.9000E-09,+976.9874226763E-03
+226.4000E-09,+932.0083443306E-03
+226.9000E-09,+920.5020684749E-03
+227.4000E-09,+920.5020684749E-03
+227.9000E-09,+923.6401437081E-03
+228.4000E-09,+910.0418176963E-03
+228.9000E-09,+906.9037424631E-03
+229.4000E-09,+903.7656672299E-03
+229.9000E-09,+873.4309399731E-03
+230.4000E-09,+848.3263381056E-03
+230.9000E-09,+654.8116987091E-03
+231.4000E-09,+216.5271911040E-03
+231.9000E-09,-341.0041753702E-03
+232.4000E-09,-789.7489337500E-03
+232.9000E-09,-1.0418409775021E+00
+233.4000E-09,-1.0941422313912E+00
+233.9000E-09,-1.0303347016444E+00
+234.4000E-09,-965.4811468206E-03
+234.9000E-09,-940.3765449531E-03
+235.4000E-09,-893.3054164513E-03
+235.9000E-09,-752.0920309458E-03
+236.4000E-09,-405.8577301882E-03
+236.9000E-09,+62.7615046718E-03
+237.4000E-09,+421.5481063602E-03
+237.9000E-09,+609.8326203654E-03
+238.4000E-09,+652.7196485549E-03
+238.9000E-09,+652.7196485549E-03
+239.4000E-09,+586.8200686520E-03
+239.9000E-09,+299.1631722518E-03
+240.4000E-09,-157.9497867524E-03
+240.9000E-09,-604.6024949781E-03
+241.4000E-09,-902.7196421528E-03
+241.9000E-09,-984.3095982217E-03
+242.4000E-09,-976.9874226763E-03
+242.9000E-09,-923.6401437081E-03
+243.4000E-09,-881.7991405956E-03
+243.9000E-09,-782.4267582027E-03
+244.4000E-09,-466.5271847019E-03
+244.9000E-09,+12.5523009367E-03
+245.4000E-09,+460.2510342394E-03
+245.9000E-09,+737.4476798589E-03
+246.4000E-09,+814.8535356156E-03
+246.9000E-09,+820.0836610049E-03
+247.4000E-09,+814.8535356156E-03
+247.9000E-09,+773.0125325031E-03
+248.4000E-09,+544.9790655377E-03
+248.9000E-09,+74.2677805217E-03
+249.4000E-09,-420.5020812829E-03
+249.9000E-09,-717.5732033807E-03
+250.4000E-09,-820.0836610049E-03
+250.9000E-09,-806.4853349931E-03
+251.4000E-09,-769.8744572699E-03
+251.9000E-09,-742.6778052463E-03
+252.4000E-09,-604.6024949742E-03
+252.9000E-09,-232.2175672721E-03
+253.4000E-09,+258.3681942221E-03
+253.9000E-09,+661.0878491792E-03
+254.4000E-09,+847.2803130285E-03
+254.9000E-09,+887.0292659849E-03
+255.4000E-09,+865.0627393506E-03
+255.9000E-09,+836.8200622499E-03
+256.4000E-09,+799.1631594478E-03
+256.9000E-09,+560.6694417057E-03
+257.4000E-09,+99.3723823894E-03
+257.9000E-09,-397.4895295713E-03
+258.4000E-09,-707.1129526020E-03
+258.9000E-09,-816.9455857717E-03
+259.4000E-09,-781.3807331256E-03
+259.9000E-09,-739.5397300131E-03
+260.4000E-09,-780.3347080484E-03
+260.9000E-09,-847.2803130284E-03
+261.4000E-09,-887.0292659849E-03
+261.9000E-09,-900.6275919967E-03
+262.4000E-09,-898.5355418406E-03
+262.9000E-09,-883.8911907517E-03
+263.4000E-09,-809.6234102264E-03
+263.9000E-09,-682.0083507329E-03
+264.4000E-09,-465.4811596252E-03
+264.9000E-09,-145.3974858142E-03
+265.4000E-09,+308.5773979567E-03
+265.9000E-09,+724.8953789257E-03
+266.4000E-09,+986.4016483776E-03
+266.9000E-09,+1.0575313536681E+00
+267.4000E-09,+1.0606694289014E+00
+267.9000E-09,+1.0073221499331E+00
+268.4000E-09,+948.7447455756E-03
+268.9000E-09,+937.2384697199E-03
+269.4000E-09,+893.3054164514E-03
+269.9000E-09,+782.4267582029E-03
+270.4000E-09,+449.7907834576E-03
+270.9000E-09,+14.6443510876E-03
+271.4000E-09,-366.1087772354E-03
+271.9000E-09,-529.2886893734E-03
+272.4000E-09,-580.5439181857E-03
+272.9000E-09,-572.1757175632E-03
+273.4000E-09,-432.0083571353E-03
+273.9000E-09,-95.1882820794E-03
+274.4000E-09,+336.8200750573E-03
+274.9000E-09,+697.6987269020E-03
+275.4000E-09,+930.9623192533E-03
+275.9000E-09,+967.5731969766E-03
+276.4000E-09,+948.7447455757E-03
+276.9000E-09,+890.1673412182E-03
+277.4000E-09,+865.0627393507E-03
+277.9000E-09,+705.0209024446E-03
+278.4000E-09,+338.9121252093E-03
+278.9000E-09,-179.9163133856E-03
+279.4000E-09,-627.6150466886E-03
+279.9000E-09,-830.5439117833E-03
+280.4000E-09,-881.7991405957E-03
+280.9000E-09,-839.9581374832E-03
+281.4000E-09,-820.0836610049E-03
+281.9000E-09,-729.0794792348E-03
+282.4000E-09,-427.8242568237E-03
+282.9000E-09,+29.2887021805E-03
+283.4000E-09,+460.2510342386E-03
+283.9000E-09,+690.3765513567E-03
+284.4000E-09,+764.6443318807E-03
+284.9000E-09,+736.4016547799E-03
+285.4000E-09,+753.1380560249E-03
+285.9000E-09,+797.0711092933E-03
+286.4000E-09,+858.7865888841E-03
+286.9000E-09,+903.7656672299E-03
+287.4000E-09,+898.5355418407E-03
+287.9000E-09,+873.4309399732E-03
+288.4000E-09,+826.3598114715E-03
+288.9000E-09,+745.8158804798E-03
+289.4000E-09,+598.3263445082E-03
+289.9000E-09,+383.8912035565E-03
+290.4000E-09,+26.1506269440E-03
+290.9000E-09,-417.3640060485E-03
+291.4000E-09,-789.7489337492E-03
+291.9000E-09,-991.6317737666E-03
+292.4000E-09,-1.0878660809249E+00
+292.9000E-09,-1.0439330276565E+00
+293.4000E-09,-993.7238239215E-03
+293.9000E-09,-953.9748709649E-03
+294.4000E-09,-932.0083443307E-03
+294.9000E-09,-906.9037424632E-03
+295.4000E-09,-771.9665074248E-03
+295.9000E-09,-449.7907834582E-03
+296.4000E-09,-3.1380752325E-03
+296.9000E-09,+315.8995735000E-03
+297.4000E-09,+484.3096110274E-03
+297.9000E-09,+565.8995670966E-03
+298.4000E-09,+558.5773915516E-03
+298.9000E-09,+359.8326267666E-03
+299.4000E-09,-7.3221755459E-03
+299.9000E-09,-467.5732097832E-03
+300.4000E-09,-817.9916108499E-03
+300.9000E-09,-981.1715229882E-03
+301.4000E-09,-1.0156903505557E+00
+301.9000E-09,-973.8493474432E-03
+302.4000E-09,-926.7782189416E-03
+302.9000E-09,-859.8326139616E-03
+303.4000E-09,-666.3179745658E-03
+303.9000E-09,-268.8284449968E-03
+304.4000E-09,+230.1255171198E-03
+304.9000E-09,+617.1547959098E-03
+305.4000E-09,+785.5648334374E-03
+305.9000E-09,+820.0836610049E-03
+306.4000E-09,+820.0836610049E-03
+306.9000E-09,+803.3472597599E-03
+307.4000E-09,+688.2845012000E-03
+307.9000E-09,+332.6359747435E-03
+308.4000E-09,-157.9497867505E-03
+308.9000E-09,-574.2677677197E-03
+309.4000E-09,-780.3347080482E-03
+309.9000E-09,-803.3472597599E-03
+310.4000E-09,-758.3681814140E-03
+310.9000E-09,-739.5397300133E-03
+311.4000E-09,-676.7782253442E-03
+311.9000E-09,-399.5815797236E-03
+312.4000E-09,+62.7615046696E-03
+312.9000E-09,+520.9204887512E-03
+313.4000E-09,+819.0376359273E-03
+313.9000E-09,+920.5020684749E-03
+314.4000E-09,+920.5020684749E-03
+314.9000E-09,+887.0292659849E-03
+315.4000E-09,+870.2928647399E-03
+315.9000E-09,+752.0920309468E-03
+316.4000E-09,+394.3514543346E-03
+316.9000E-09,-96.2343071595E-03
+317.4000E-09,-505.2301125838E-03
+317.9000E-09,-726.9874290798E-03
+318.4000E-09,-747.9079306358E-03
+318.9000E-09,-722.8033287683E-03
+319.4000E-09,-724.8953789240E-03
+319.9000E-09,-797.0711092931E-03
+320.4000E-09,-847.2803130281E-03
+320.9000E-09,-873.4309399733E-03
+321.4000E-09,-892.2593913740E-03
+321.9000E-09,-873.4309399733E-03
+322.4000E-09,-814.8535356158E-03
+322.9000E-09,-712.3430779901E-03
+323.4000E-09,-548.1171407735E-03
+323.9000E-09,-289.7489465538E-03
+324.4000E-09,+85.7740563810E-03
+324.9000E-09,+537.6568899959E-03
+325.4000E-09,+851.4644133395E-03
+325.9000E-09,+1.0177824007115E+00
+326.4000E-09,+1.0711296796799E+00
+326.9000E-09,+1.0104602251667E+00
+327.4000E-09,+976.9874226767E-03
+327.9000E-09,+926.7782189417E-03
+328.4000E-09,+915.2719430858E-03
+328.9000E-09,+849.3723631835E-03
+329.4000E-09,+655.8577237881E-03
+329.9000E-09,+265.6903697641E-03
+330.4000E-09,-147.4895359718E-03
+330.9000E-09,-452.9288586929E-03
+331.4000E-09,-557.5313664740E-03
+331.9000E-09,-582.6359683415E-03
+332.4000E-09,-531.3807395286E-03
+332.9000E-09,-292.8870217873E-03
+333.4000E-09,+119.2468588708E-03
+333.9000E-09,+540.7949652291E-03
+334.4000E-09,+824.2677613162E-03
+334.9000E-09,+964.4351217430E-03
+335.4000E-09,+948.7447455758E-03
+335.9000E-09,+923.6401437083E-03
+336.4000E-09,+881.7991405958E-03
+336.9000E-09,+799.1631594486E-03
+337.4000E-09,+555.4393163183E-03
+337.9000E-09,+91.0041817697E-03
+338.4000E-09,-398.5355546465E-03
+338.9000E-09,-737.4476798577E-03
+339.4000E-09,-870.2928647399E-03
+339.9000E-09,-856.6945387283E-03
+340.4000E-09,-836.8200622499E-03
+340.9000E-09,-803.3472597599E-03
+341.4000E-09,-610.8786454425E-03
+341.9000E-09,-232.2175672744E-03
+342.4000E-09,+247.9079434415E-03
+342.9000E-09,+597.2803194308E-03
+343.4000E-09,+741.6317801690E-03
+343.9000E-09,+753.1380560249E-03
+344.4000E-09,+736.4016547799E-03
+344.9000E-09,+719.6652535349E-03
+345.4000E-09,+632.8451720766E-03
+345.9000E-09,+285.5648462429E-03
+346.4000E-09,-202.9288650954E-03
+346.9000E-09,-651.6736234769E-03
+347.4000E-09,-902.7196421520E-03
+347.9000E-09,-967.5731969764E-03
+348.4000E-09,-943.5146201868E-03
+348.9000E-09,-890.1673412184E-03
+349.4000E-09,-843.0962127168E-03
+349.9000E-09,-674.6861751892E-03
+350.4000E-09,-271.9665202316E-03
+350.9000E-09,+183.0543886168E-03
+351.4000E-09,+544.9790655401E-03
+351.9000E-09,+699.7907770564E-03
+352.4000E-09,+714.4351281459E-03
+352.9000E-09,+719.6652535349E-03
+353.4000E-09,+714.4351281459E-03
+353.9000E-09,+601.4644197423E-03
+354.4000E-09,+221.7573164967E-03
+354.9000E-09,-280.3347208533E-03
+355.4000E-09,-677.8242504221E-03
+355.9000E-09,-894.3514415294E-03
+356.4000E-09,-953.9748709649E-03
+356.9000E-09,-890.1673412184E-03
+357.4000E-09,-881.7991405959E-03
+357.9000E-09,-839.9581374834E-03
+358.4000E-09,-644.3514479328E-03
+358.9000E-09,-221.7573164968E-03
+359.4000E-09,+264.6443446861E-03
+359.9000E-09,+583.6819934190E-03
+360.4000E-09,+730.1255043129E-03
+360.9000E-09,+739.5397300134E-03
+361.4000E-09,+753.1380560249E-03
+361.9000E-09,+753.1380560249E-03
+362.4000E-09,+632.8451720769E-03
+362.9000E-09,+238.4937177420E-03
+363.4000E-09,-230.1255171180E-03
+363.9000E-09,-657.9497739434E-03
+364.4000E-09,-864.0167142729E-03
+364.9000E-09,-906.9037424634E-03
+365.4000E-09,-876.5690152069E-03
+365.9000E-09,-833.6819870164E-03
+366.4000E-09,-804.3932848379E-03
+366.9000E-09,-560.6694417080E-03
+367.4000E-09,-138.0753102721E-03
+367.9000E-09,+350.4184010663E-03
+368.4000E-09,+678.8702754999E-03
+368.9000E-09,+800.2091845264E-03
+369.4000E-09,+791.8409839039E-03
+369.9000E-09,+806.4853349934E-03
+370.4000E-09,+786.6108585149E-03
+370.9000E-09,+668.4100247225E-03
+371.4000E-09,+293.9330468662E-03
+371.9000E-09,-199.7907898612E-03
+372.4000E-09,-617.1547959088E-03
+372.9000E-09,-827.4058365493E-03
+373.4000E-09,-848.3263381059E-03
+373.9000E-09,-836.8200622499E-03
+374.4000E-09,-803.3472597599E-03
+374.9000E-09,-732.2175544690E-03
+375.4000E-09,-488.4937113392E-03
+375.9000E-09,-40.7949780359E-03
+376.4000E-09,+408.9958054236E-03
+376.9000E-09,+717.5732033787E-03
+377.4000E-09,+820.0836610049E-03
+377.9000E-09,+836.8200622499E-03
+378.4000E-09,+820.0836610049E-03
+378.9000E-09,+823.2217362384E-03
+379.4000E-09,+676.7782253451E-03
+379.9000E-09,+305.4393227225E-03
+380.4000E-09,-196.6527146274E-03
+380.9000E-09,-610.8786454416E-03
+381.4000E-09,-797.0711092928E-03
+381.9000E-09,-820.0836610049E-03
+382.4000E-09,-781.3807331260E-03
+382.9000E-09,-769.8744572699E-03
+383.4000E-09,-710.2510278352E-03
+383.9000E-09,-443.5146329934E-03
+384.4000E-09,+29.2887021774E-03
+384.9000E-09,+473.8493602480E-03
+385.4000E-09,+752.0920309467E-03
+385.9000E-09,+850.4183882613E-03
+386.4000E-09,+848.3263381060E-03
+386.9000E-09,+833.6819870163E-03
+387.4000E-09,+814.8535356160E-03
+387.9000E-09,+685.1464259677E-03
+388.4000E-09,+278.2426706998E-03
+388.9000E-09,-213.3891158722E-03
+389.4000E-09,-622.3849212975E-03
+389.9000E-09,-807.5313600706E-03
+390.4000E-09,-831.5899368610E-03
+390.9000E-09,-803.3472597599E-03
+391.4000E-09,-786.6108585149E-03
+391.9000E-09,-709.2050027571E-03
+392.4000E-09,-405.8577301928E-03
+392.9000E-09,+52.3012538892E-03
+393.4000E-09,+510.4602379713E-03
+393.9000E-09,+777.1966328142E-03
+394.4000E-09,+853.5564634949E-03
+394.9000E-09,+823.2217362385E-03
+395.4000E-09,+836.8200622499E-03
+395.9000E-09,+820.0836610049E-03
+396.4000E-09,+649.5815733225E-03
+396.9000E-09,+252.0920437544E-03
+397.4000E-09,-258.3681942180E-03
+397.9000E-09,-644.3514479312E-03
+398.4000E-09,-813.8075105377E-03
+398.9000E-09,-826.3598114721E-03
+399.4000E-09,-798.1171343710E-03
+399.9000E-09,-786.6108585149E-03
+400.4000E-09,-676.7782253454E-03
+400.9000E-09,-376.5690280137E-03
+401.4000E-09,+84.7280313007E-03
+401.9000E-09,+524.0585639826E-03
+402.4000E-09,+768.8284321916E-03
+402.9000E-09,+833.6819870163E-03
+403.4000E-09,+831.5899368610E-03
+403.9000E-09,+833.6819870163E-03
+404.4000E-09,+809.6234102271E-03
+404.9000E-09,+641.2133727002E-03
+405.4000E-09,+205.0209152532E-03
+405.9000E-09,-313.8075233417E-03
+406.4000E-09,-689.3305262772E-03
+406.9000E-09,-833.6819870163E-03
+407.4000E-09,-853.5564634949E-03
+407.9000E-09,-809.6234102271E-03
+408.4000E-09,-781.3807331260E-03
+408.9000E-09,-671.5480999566E-03
+409.4000E-09,-366.1087772362E-03
+409.9000E-09,+132.8451848802E-03
+410.4000E-09,+543.9330404610E-03
+410.9000E-09,+774.0585575804E-03
+411.4000E-09,+836.8200622499E-03
+411.9000E-09,+806.4853349935E-03
+412.4000E-09,+820.0836610049E-03
+412.9000E-09,+850.4183882613E-03
+413.4000E-09,+875.5229901288E-03
+413.9000E-09,+900.6275919963E-03
+414.4000E-09,+915.2719430860E-03
+414.9000E-09,+903.7656672299E-03
+415.4000E-09,+881.7991405960E-03
+415.9000E-09,+839.9581374835E-03
+416.4000E-09,+732.2175544695E-03
+416.9000E-09,+507.3221627404E-03
+417.4000E-09,+126.5690344175E-03
+417.9000E-09,-367.1548023100E-03
+418.4000E-09,-773.0125325020E-03
+418.9000E-09,-1.0219665010217E+00
+419.4000E-09,-1.0993723567810E+00
+419.9000E-09,-1.0543932784349E+00
+420.4000E-09,-998.9539493110E-03
+420.9000E-09,-953.9748709649E-03
+421.4000E-09,-937.2384697199E-03
+421.9000E-09,-890.1673412185E-03
+422.4000E-09,-700.8368021364E-03
+422.9000E-09,-302.3012474901E-03
+423.4000E-09,+147.4895359696E-03
+423.9000E-09,+466.5271847030E-03
+424.4000E-09,+607.7405702088E-03
+424.9000E-09,+635.9832473099E-03
+425.4000E-09,+658.9957990222E-03
+425.9000E-09,+453.9748837719E-03
+426.4000E-09,+59.6234294378E-03
+426.9000E-09,-430.9623320560E-03
+427.4000E-09,-773.0125325017E-03
+427.9000E-09,-961.2970465089E-03
+428.4000E-09,-982.2175480660E-03
+428.9000E-09,-957.1129461986E-03
+429.4000E-09,-915.2719430861E-03
+429.9000E-09,-900.6275919962E-03
+430.4000E-09,-903.7656672299E-03
+430.9000E-09,-903.7656672299E-03
+431.4000E-09,-903.7656672299E-03
+431.9000E-09,-903.7656672299E-03
+432.4000E-09,-865.0627393511E-03
+432.9000E-09,-823.2217362386E-03
+433.4000E-09,-688.2845012020E-03
+433.9000E-09,-437.2384825270E-03
+434.4000E-09,-4.1841003142E-03
+434.9000E-09,+481.1715357908E-03
+435.4000E-09,+851.4644133378E-03
+435.9000E-09,+1.0282426514888E+00
+436.4000E-09,+1.0658995542911E+00
+436.9000E-09,+1.0104602251673E+00
+437.4000E-09,+970.7112722099E-03
+437.9000E-09,+937.2384697199E-03
+438.4000E-09,+932.0083443311E-03
+438.9000E-09,+937.2384697199E-03
+439.4000E-09,+937.2384697199E-03
+439.9000E-09,+930.9623192525E-03
+440.4000E-09,+908.9957926187E-03
+440.9000E-09,+893.3054164523E-03
+441.4000E-09,+898.5355418411E-03
+441.9000E-09,+890.1673412186E-03
+442.4000E-09,+832.6359619397E-03
+442.9000E-09,+580.5439181883E-03
+443.4000E-09,+82.6359811506E-03
+443.9000E-09,-478.0334605568E-03
+444.4000E-09,-878.6610653602E-03
+444.9000E-09,-1.0648535292125E+00
+445.4000E-09,-1.0491631530461E+00
+445.9000E-09,-1.0104602251673E+00
+446.4000E-09,-948.7447455761E-03
+446.9000E-09,-906.9037424636E-03
+447.4000E-09,-777.1966328160E-03
+447.9000E-09,-460.2510342396E-03
+448.4000E-09,+40.7949780317E-03
+448.9000E-09,+440.3765577565E-03
+449.4000E-09,+641.2133726987E-03
+449.9000E-09,+699.7907770562E-03
+450.4000E-09,+697.6987269011E-03
+450.9000E-09,+689.3305262786E-03
+451.4000E-09,+471.7573100960E-03
+451.9000E-09,+34.5188275710E-03
+452.4000E-09,-464.4351345452E-03
+452.9000E-09,-801.2552096025E-03
+453.4000E-09,-959.2049963537E-03
+453.9000E-09,-984.3095982212E-03
+454.4000E-09,-938.2844947986E-03
+454.9000E-09,-890.1673412186E-03
+455.4000E-09,-804.3932848386E-03
+455.9000E-09,-560.6694417099E-03
+456.4000E-09,-126.5690344186E-03
+456.9000E-09,+367.1548023088E-03
+457.4000E-09,+690.3765513549E-03
+457.9000E-09,+797.0711092924E-03
+458.4000E-09,+803.3472597599E-03
+458.9000E-09,+773.0125325036E-03
+459.4000E-09,+776.1506077374E-03
+459.9000E-09,+604.6024949774E-03
+460.4000E-09,+171.5481127650E-03
+460.9000E-09,-300.2091973287E-03
+461.4000E-09,-684.1004008874E-03
+461.9000E-09,-844.1422377936E-03
+462.4000E-09,-848.3263381062E-03
+462.9000E-09,-806.4853349937E-03
+463.4000E-09,-820.0836610049E-03
+463.9000E-09,-836.8200622499E-03
+464.4000E-09,-887.0292659849E-03
+464.9000E-09,-900.6275919961E-03
+465.4000E-09,-915.2719430861E-03
+465.9000E-09,-903.7656672299E-03
+466.4000E-09,-865.0627393512E-03
+466.9000E-09,-782.4267582050E-03
+467.4000E-09,-609.8326203663E-03
+467.9000E-09,-299.1631722577E-03
+468.4000E-09,+134.9372350334E-03
+468.9000E-09,+587.8660937272E-03
+469.4000E-09,+913.1798929285E-03
+469.9000E-09,+1.0481171279673E+00
+470.4000E-09,+1.0658995542911E+00
+470.9000E-09,+1.0271966264124E+00
+471.4000E-09,+976.9874226774E-03
+471.9000E-09,+934.1003944861E-03
+472.4000E-09,+903.7656672299E-03
+472.9000E-09,+846.2342879512E-03
+473.4000E-09,+572.1757175665E-03
+473.9000E-09,+168.4100375316E-03
+474.4000E-09,-259.4142192947E-03
+474.9000E-09,-506.2761376598E-03
+475.4000E-09,-585.7740435749E-03
+475.9000E-09,-585.7740435749E-03
+476.4000E-09,-509.4142128964E-03
+476.9000E-09,-242.6778180553E-03
+477.4000E-09,+186.1924638471E-03
+477.9000E-09,+591.0041689609E-03
+478.4000E-09,+862.9706891935E-03
+478.9000E-09,+964.4351217423E-03
+479.4000E-09,+965.4811468212E-03
+479.9000E-09,+913.1798929312E-03
+480.4000E-09,+893.3054164524E-03
+480.9000E-09,+809.6234102274E-03
+481.4000E-09,+499.9999871975E-03
+481.9000E-09,+20.9205015601E-03
+482.4000E-09,-470.7112850124E-03
+482.9000E-09,-770.9204823462E-03
+483.4000E-09,-853.5564634949E-03
+483.9000E-09,-823.2217362386E-03
+484.4000E-09,-814.8535356161E-03
+484.9000E-09,-759.4142064924E-03
+485.4000E-09,-538.7029150760E-03
+485.9000E-09,-118.2008337960E-03
+486.4000E-09,+336.8200750527E-03
+486.9000E-09,+653.7656736313E-03
+487.4000E-09,+775.1045826587E-03
+487.9000E-09,+769.8744572699E-03
+488.4000E-09,+753.1380560249E-03
+488.9000E-09,+769.8744572699E-03
+489.4000E-09,+847.2803130275E-03
+489.9000E-09,+883.8911907512E-03
+490.4000E-09,+892.2593913737E-03
+490.9000E-09,+859.8326139623E-03
+491.4000E-09,+859.8326139623E-03
+491.9000E-09,+792.8870089823E-03
+492.4000E-09,+665.2719494897E-03
+492.9000E-09,+511.5062630510E-03
+493.4000E-09,+335.7740499785E-03
+493.9000E-09,+210.2510406410E-03
+494.4000E-09,+67.9916300585E-03
+494.9000E-09,-27.1966520226E-03
+495.4000E-09,-122.3849341038E-03
+495.9000E-09,-180.9623384613E-03
+496.4000E-09,-228.0334669626E-03
+496.9000E-09,-294.9790719426E-03
+497.4000E-09,-312.7614982661E-03
+497.9000E-09,-331.5899496663E-03
+498.4000E-09,-351.4644261450E-03
+498.9000E-09,-384.9372286350E-03
+499.4000E-09,-401.6736298800E-03
+499.9000E-09,-418.4100311249E-03
+500.4000E-09,-457.1129590038E-03
+500.9000E-09,-529.2886893727E-03
+501.4000E-09,-629.7070968427E-03
+501.9000E-09,-716.5271783013E-03
+502.4000E-09,-758.3681814138E-03
+502.9000E-09,-769.8744572699E-03
+503.4000E-09,-786.6108585149E-03
+503.9000E-09,-773.0125325035E-03
+504.4000E-09,-764.6443318810E-03
+504.9000E-09,-736.4016547799E-03
+505.4000E-09,-702.9288522899E-03
+505.9000E-09,-672.5941250335E-03
+506.4000E-09,-630.7531219210E-03
+506.9000E-09,-605.6485200535E-03
+507.4000E-09,-563.8075169410E-03
+507.9000E-09,-538.7029150735E-03
+508.4000E-09,-513.5983132060E-03
+508.9000E-09,-485.3556361049E-03
+509.4000E-09,-446.6527082260E-03
+509.9000E-09,-435.1464323699E-03
+510.4000E-09,-396.4435044910E-03
+510.9000E-09,-371.3389026235E-03
+511.4000E-09,-339.9581502889E-03
+511.9000E-09,-317.9916236550E-03
+512.4000E-09,-284.5188211650E-03
+512.9000E-09,-254.1840939085E-03
+513.4000E-09,-229.0794920410E-03
+513.9000E-09,-187.2384889285E-03
+514.4000E-09,-178.8702883060E-03
+514.9000E-09,-123.4309591821E-03
+515.4000E-09,-111.9246833260E-03
+515.9000E-09,-83.6820062250E-03
+516.4000E-09,-72.1757303690E-03
+516.9000E-09,-50.2092037350E-03
+517.4000E-09,-50.2092037350E-03
+517.9000E-09,-36.6108777235E-03
+518.4000E-09,-28.2426771010E-03
+518.9000E-09,-13.5983260115E-03
+519.4000E-09,+11.5062758560E-03
+519.9000E-09,+13.5983260115E-03
+520.4000E-09,+16.7364012450E-03
+520.9000E-09,+33.4728024900E-03
+521.4000E-09,+50.2092037350E-03
+521.9000E-09,+63.8075297465E-03
+522.4000E-09,+78.4518808360E-03
+522.9000E-09,+70.0836802135E-03
+523.4000E-09,+100.4184074700E-03
+523.9000E-09,+86.8200814585E-03
+524.4000E-09,+100.4184074700E-03
+524.9000E-09,+100.4184074700E-03
+525.4000E-09,+117.1548087150E-03
+525.9000E-09,+117.1548087150E-03
+526.4000E-09,+117.1548087150E-03
+526.9000E-09,+117.1548087150E-03
+527.4000E-09,+117.1548087150E-03
+527.9000E-09,+117.1548087150E-03
+528.4000E-09,+117.1548087150E-03
+528.9000E-09,+106.6945579369E-03
+529.4000E-09,+105.6485328590E-03
+529.9000E-09,+117.1548087150E-03
+530.4000E-09,+133.8912099600E-03
+530.9000E-09,+117.1548087150E-03
+531.4000E-09,+128.6610845709E-03
+531.9000E-09,+130.7531347265E-03
+532.4000E-09,+133.8912099600E-03
+532.9000E-09,+133.8912099600E-03
+533.4000E-09,+145.3974858159E-03
+533.9000E-09,+133.8912099600E-03
+534.4000E-09,+133.8912099600E-03
+534.9000E-09,+133.8912099600E-03
+535.4000E-09,+117.1548087150E-03
+535.9000E-09,+130.7531347266E-03
+536.4000E-09,+117.1548087150E-03
+536.9000E-09,+117.1548087150E-03
+537.4000E-09,+117.1548087150E-03
+537.9000E-09,+120.2928839484E-03
+538.4000E-09,+122.3849341041E-03
+538.9000E-09,+117.1548087150E-03
+539.4000E-09,+128.6610845709E-03
+539.9000E-09,+117.1548087150E-03
+540.4000E-09,+100.4184074700E-03
+540.9000E-09,+100.4184074700E-03
+541.4000E-09,+111.9246833259E-03
+541.9000E-09,+100.4184074700E-03
+542.4000E-09,+117.1548087150E-03
+542.9000E-09,+100.4184074700E-03
+543.4000E-09,+100.4184074700E-03
+543.9000E-09,+100.4184074700E-03
+544.4000E-09,+83.6820062250E-03
+544.9000E-09,+86.8200814584E-03
+545.4000E-09,+83.6820062250E-03
+545.9000E-09,+83.6820062250E-03
+546.4000E-09,+83.6820062250E-03
+546.9000E-09,+83.6820062250E-03
+547.4000E-09,+83.6820062250E-03
+547.9000E-09,+97.2803322366E-03
+548.4000E-09,+78.4518808358E-03
+548.9000E-09,+83.6820062250E-03
+549.4000E-09,+83.6820062250E-03
+549.9000E-09,+70.0836802133E-03
+550.4000E-09,+83.6820062250E-03
+550.9000E-09,+83.6820062250E-03
+551.4000E-09,+78.4518808358E-03
+551.9000E-09,+66.9456049800E-03
+552.4000E-09,+78.4518808358E-03
+552.9000E-09,+83.6820062250E-03
+553.4000E-09,+66.9456049800E-03
+553.9000E-09,+66.9456049800E-03
+554.4000E-09,+61.7154795908E-03
+554.9000E-09,+50.2092037350E-03
+555.4000E-09,+61.7154795908E-03
+555.9000E-09,+47.0711285017E-03
+556.4000E-09,+38.7029278792E-03
+556.9000E-09,+60.6694545134E-03
+557.4000E-09,+50.2092037350E-03
+557.9000E-09,+56.4853542016E-03
+558.4000E-09,+50.2092037350E-03
+558.9000E-09,+53.3472789683E-03
+559.4000E-09,+33.4728024900E-03
+559.9000E-09,+47.0711285017E-03
+560.4000E-09,+50.2092037350E-03
+560.9000E-09,+53.3472789682E-03
+561.4000E-09,+38.7029278792E-03
+561.9000E-09,+50.2092037350E-03
+562.4000E-09,+50.2092037350E-03
+562.9000E-09,+33.4728024900E-03
+563.4000E-09,+44.9790783457E-03
+563.9000E-09,+47.0711285018E-03
+564.4000E-09,+38.7029278793E-03
+564.9000E-09,+50.2092037350E-03
+565.4000E-09,+50.2092037350E-03
+565.9000E-09,+47.0711285018E-03
+566.4000E-09,+55.4393291243E-03
+566.9000E-09,+50.2092037350E-03
+567.4000E-09,+44.9790783457E-03
+567.9000E-09,+43.9330532686E-03
+568.4000E-09,+44.9790783457E-03
+568.9000E-09,+47.0711285018E-03
+569.4000E-09,+33.4728024900E-03
+569.9000E-09,+33.4728024900E-03
+570.4000E-09,+33.4728024900E-03
+570.9000E-09,+33.4728024900E-03
+571.4000E-09,+33.4728024900E-03
+571.9000E-09,+33.4728024900E-03
+572.4000E-09,+33.4728024900E-03
+572.9000E-09,+33.4728024900E-03
+573.4000E-09,+33.4728024900E-03
+573.9000E-09,+33.4728024900E-03
+574.4000E-09,+21.9665266343E-03
+574.9000E-09,+19.8744764782E-03
+575.4000E-09,+33.4728024900E-03
+575.9000E-09,+19.8744764782E-03
+576.4000E-09,+21.9665266343E-03
+576.9000E-09,+33.4728024900E-03
+577.4000E-09,+11.5062758556E-03
+577.9000E-09,+16.7364012450E-03
+578.4000E-09,+16.7364012450E-03
+578.9000E-09,+30.3347272568E-03
+579.4000E-09,+33.4728024900E-03
+579.9000E-09,+33.4728024900E-03
+580.4000E-09,+16.7364012450E-03
+580.9000E-09,+30.3347272569E-03
+581.4000E-09,+33.4728024900E-03
+581.9000E-09,+16.7364012450E-03
+582.4000E-09,+21.9665266344E-03
+582.9000E-09,+3.1380752331E-03
+583.4000E-09,+28.2426771006E-03
+583.9000E-09,+16.7364012450E-03
+584.4000E-09,+11.5062758556E-03
+584.9000E-09,+16.7364012450E-03
+585.4000E-09,+11.5062758556E-03
+585.9000E-09,+16.7364012450E-03
+586.4000E-09,+16.7364012450E-03
+586.9000E-09,+0.0E+00
+587.4000E-09,+16.7364012450E-03
+587.9000E-09,+0.0E+00
+588.4000E-09,+5.2301253894E-03
+588.9000E-09,-3.1380752331E-03
+589.4000E-09,+5.2301253894E-03
+589.9000E-09,+13.5983260119E-03
+590.4000E-09,+0.0E+00
+590.9000E-09,+16.7364012450E-03
+591.4000E-09,+0.0E+00
+591.9000E-09,+0.0E+00
+592.4000E-09,+16.7364012450E-03
+592.9000E-09,+16.7364012450E-03
+593.4000E-09,+5.2301253894E-03
+593.9000E-09,+3.1380752330E-03
+594.4000E-09,+0.0E+00
+594.9000E-09,+13.5983260120E-03
+595.4000E-09,+0.0E+00
+595.9000E-09,+0.0E+00
+596.4000E-09,+11.5062758555E-03
+596.9000E-09,+0.0E+00
+597.4000E-09,-11.5062758555E-03
+597.9000E-09,+0.0E+00
+598.4000E-09,+0.0E+00
+598.9000E-09,+0.0E+00
+599.4000E-09,+0.0E+00
+599.9000E-09,+13.5983260120E-03
+600.4000E-09,-11.5062758555E-03
+600.9000E-09,-3.1380752330E-03
+601.4000E-09,-5.2301253895E-03
+601.9000E-09,+3.1380752330E-03
+602.4000E-09,+5.2301253895E-03
+602.9000E-09,+0.0E+00
+603.4000E-09,+0.0E+00
+603.9000E-09,+0.0E+00
+604.4000E-09,+0.0E+00
+604.9000E-09,-3.1380752330E-03
+605.4000E-09,+5.2301253895E-03
+605.9000E-09,+0.0E+00
+606.4000E-09,+0.0E+00
+606.9000E-09,+0.0E+00
+607.4000E-09,+0.0E+00
+607.9000E-09,-10.4602507791E-03
+608.4000E-09,+0.0E+00
+608.9000E-09,+13.5983260120E-03
+609.4000E-09,+11.5062758554E-03
+609.9000E-09,+0.0E+00
+610.4000E-09,+11.5062758554E-03
+610.9000E-09,+0.0E+00
+611.4000E-09,+0.0E+00
+611.9000E-09,+0.0E+00
+612.4000E-09,-5.2301253896E-03
+612.9000E-09,+3.1380752329E-03
+613.4000E-09,-11.5062758554E-03
+613.9000E-09,-3.1380752329E-03
+614.4000E-09,-11.5062758554E-03
+614.9000E-09,-3.1380752329E-03
+615.4000E-09,+0.0E+00
+615.9000E-09,-16.7364012450E-03
+616.4000E-09,+0.0E+00
+616.9000E-09,-13.5983260121E-03
+617.4000E-09,-11.5062758554E-03
+617.9000E-09,-3.1380752329E-03
+618.4000E-09,-5.2301253896E-03
+618.9000E-09,+0.0E+00
+619.4000E-09,+0.0E+00
+619.9000E-09,-13.5983260121E-03
+620.4000E-09,-23.0125517108E-03
+620.9000E-09,-19.8744764779E-03
+621.4000E-09,-11.5062758554E-03
+621.9000E-09,-13.5983260121E-03
+622.4000E-09,-16.7364012450E-03
+622.9000E-09,+0.0E+00
+623.4000E-09,+0.0E+00
+623.9000E-09,+0.0E+00
+624.4000E-09,+0.0E+00
+624.9000E-09,-13.5983260121E-03
+625.4000E-09,-23.0125517107E-03
+625.9000E-09,+0.0E+00
+626.4000E-09,-11.5062758553E-03
+626.9000E-09,-16.7364012450E-03
+627.4000E-09,-5.2301253897E-03
+627.9000E-09,-6.2761504657E-03
+628.4000E-09,-16.7364012450E-03
+628.9000E-09,-16.7364012450E-03
+629.4000E-09,-16.7364012450E-03
+629.9000E-09,-16.7364012450E-03
+630.4000E-09,-16.7364012450E-03
+630.9000E-09,-13.5983260122E-03
+631.4000E-09,-16.7364012450E-03
+631.9000E-09,-16.7364012450E-03
+632.4000E-09,-5.2301253897E-03
+632.9000E-09,-30.3347272572E-03
+633.4000E-09,-16.7364012450E-03
+633.9000E-09,-16.7364012450E-03
+634.4000E-09,-11.5062758553E-03
+634.9000E-09,+0.0E+00
+635.4000E-09,-11.5062758553E-03
+635.9000E-09,-16.7364012450E-03
+636.4000E-09,-16.7364012450E-03
+636.9000E-09,-16.7364012450E-03
+637.4000E-09,-11.5062758553E-03
+637.9000E-09,-30.3347272572E-03
+638.4000E-09,-11.5062758553E-03
+638.9000E-09,-16.7364012450E-03
+639.4000E-09,-28.2426771003E-03
+639.9000E-09,-27.1966520245E-03
+640.4000E-09,-21.9665266347E-03
+640.9000E-09,-16.7364012450E-03
+641.4000E-09,-16.7364012450E-03
+641.9000E-09,-16.7364012450E-03
+642.4000E-09,-16.7364012450E-03
+642.9000E-09,-16.7364012450E-03
+643.4000E-09,-5.2301253898E-03
+643.9000E-09,+0.0E+00
+644.4000E-09,-21.9665266348E-03
+644.9000E-09,-16.7364012450E-03
+645.4000E-09,-28.2426771002E-03
+645.9000E-09,-33.4728024900E-03
+646.4000E-09,-28.2426771002E-03
+646.9000E-09,-30.3347272573E-03
+647.4000E-09,-5.2301253898E-03
+647.9000E-09,-30.3347272573E-03
+648.4000E-09,-16.7364012450E-03
+648.9000E-09,-16.7364012450E-03
+649.4000E-09,-16.7364012450E-03
+649.9000E-09,-16.7364012450E-03
+650.4000E-09,-16.7364012450E-03
+650.9000E-09,-30.3347272573E-03
+651.4000E-09,+0.0E+00
+651.9000E-09,-16.7364012450E-03
+652.4000E-09,-11.5062758552E-03
+652.9000E-09,-3.1380752327E-03
+653.4000E-09,-16.7364012450E-03
+653.9000E-09,-13.5983260123E-03
+654.4000E-09,-16.7364012450E-03
+654.9000E-09,-3.1380752327E-03
+655.4000E-09,-11.5062758552E-03
+655.9000E-09,-16.7364012450E-03
+656.4000E-09,+0.0E+00
+656.9000E-09,-13.5983260124E-03
+657.4000E-09,-23.0125517103E-03
+657.9000E-09,+0.0E+00
+658.4000E-09,-16.7364012450E-03
+658.9000E-09,-3.1380752326E-03
+659.4000E-09,-5.2301253899E-03
+659.9000E-09,-16.7364012450E-03
+660.4000E-09,-16.7364012450E-03
+660.9000E-09,-16.7364012450E-03
+661.4000E-09,-16.7364012450E-03
+661.9000E-09,-16.7364012450E-03
+662.4000E-09,+0.0E+00
+662.9000E-09,+13.5983260124E-03
+663.4000E-09,-16.7364012450E-03
+663.9000E-09,-16.7364012450E-03
+664.4000E-09,-5.2301253899E-03
+664.9000E-09,+0.0E+00
+665.4000E-09,-10.4602507798E-03
+665.9000E-09,-13.5983260124E-03
+666.4000E-09,-16.7364012450E-03
+666.9000E-09,-3.1380752326E-03
+667.4000E-09,-11.5062758551E-03
+667.9000E-09,-16.7364012450E-03
+668.4000E-09,-28.2426771001E-03
+668.9000E-09,-3.1380752326E-03
+669.4000E-09,+0.0E+00
+669.9000E-09,-16.7364012450E-03
+670.4000E-09,-11.5062758551E-03
+670.9000E-09,-30.3347272574E-03
+671.4000E-09,-21.9665266349E-03
+671.9000E-09,-30.3347272574E-03
+672.4000E-09,-16.7364012450E-03
+672.9000E-09,+0.0E+00
+673.4000E-09,-5.2301253899E-03
+673.9000E-09,-3.1380752326E-03
+674.4000E-09,-5.2301253900E-03
+674.9000E-09,-13.5983260125E-03
+675.4000E-09,+0.0E+00
+675.9000E-09,-13.5983260125E-03
+676.4000E-09,-21.9665266350E-03
+676.9000E-09,-16.7364012450E-03
+677.4000E-09,-28.2426771000E-03
+677.9000E-09,-16.7364012450E-03
+678.4000E-09,-23.0125517100E-03
+678.9000E-09,-16.7364012450E-03
+679.4000E-09,-5.2301253900E-03
+679.9000E-09,-30.3347272575E-03
+680.4000E-09,-16.7364012450E-03
+680.9000E-09,-30.3347272575E-03
+681.4000E-09,-16.7364012450E-03
+681.9000E-09,-16.7364012450E-03
+682.4000E-09,-16.7364012450E-03
+682.9000E-09,-16.7364012450E-03
+683.4000E-09,+0.0E+00
+683.9000E-09,-3.1380752325E-03
+684.4000E-09,-16.7364012450E-03
+684.9000E-09,-19.8744764775E-03
+685.4000E-09,-16.7364012450E-03
+685.9000E-09,-13.5983260125E-03
+686.4000E-09,-16.7364012450E-03
+686.9000E-09,+0.0E+00
+687.4000E-09,-21.9665266350E-03
+687.9000E-09,-19.8744764775E-03
+688.4000E-09,-11.5062758550E-03
+688.9000E-09,-16.7364012450E-03
+689.4000E-09,-23.0125517099E-03
+689.9000E-09,-13.5983260126E-03
+690.4000E-09,-16.7364012450E-03
+690.9000E-09,-16.7364012450E-03
+691.4000E-09,-16.7364012450E-03
+691.9000E-09,-16.7364012450E-03
+692.4000E-09,-11.5062758549E-03
+692.9000E-09,-16.7364012450E-03
+693.4000E-09,-16.7364012450E-03
+693.9000E-09,-16.7364012450E-03
+694.4000E-09,-11.5062758549E-03
+694.9000E-09,+0.0E+00
+695.4000E-09,-16.7364012450E-03
+695.9000E-09,-3.1380752324E-03
+696.4000E-09,-11.5062758549E-03
+696.9000E-09,-16.7364012450E-03
+697.4000E-09,-16.7364012450E-03
+697.9000E-09,-13.5983260126E-03
+698.4000E-09,-16.7364012450E-03
+698.9000E-09,-33.4728024900E-03
+699.4000E-09,-44.9790783449E-03
+699.9000E-09,-23.0125517098E-03
+700.4000E-09,-28.2426770999E-03
+700.9000E-09,-6.2761504647E-03
+701.4000E-09,-5.2301253901E-03
+701.9000E-09,-16.7364012450E-03
+702.4000E-09,+0.0E+00
+702.9000E-09,-30.3347272576E-03
+703.4000E-09,-16.7364012450E-03
+703.9000E-09,-16.7364012450E-03
+704.4000E-09,-5.2301253901E-03
+704.9000E-09,-13.5983260126E-03
+705.4000E-09,-11.5062758548E-03
+705.9000E-09,-16.7364012450E-03
+706.4000E-09,-5.2301253902E-03
+706.9000E-09,+0.0E+00
+707.4000E-09,+0.0E+00
+707.9000E-09,+0.0E+00
+708.4000E-09,-21.9665266352E-03
+708.9000E-09,-13.5983260127E-03
+709.4000E-09,-28.2426770998E-03
+709.9000E-09,-16.7364012450E-03
+710.4000E-09,-23.0125517096E-03
+710.9000E-09,
