x-axis,1
second,Volt
-274.0000E-09,
-273.5000E-09,+0.0E+00
-273.0000E-09,-3.1380752334E-03
-272.5000E-09,-11.5062758559E-03
-272.0000E-09,-16.7364012450E-03
-271.5000E-09,-16.7364012450E-03
-271.0000E-09,-13.5983260116E-03
-270.5000E-09,-5.2301253891E-03
-270.0000E-09,-13.5983260116E-03
-269.5000E-09,-16.7364012450E-03
-269.0000E-09,-19.8744764784E-03
-268.5000E-09,-11.5062758559E-03
-268.0000E-09,-3.1380752334E-03
-267.5000E-09,+0.0E+00
-267.0000E-09,+13.5983260116E-03
-266.5000E-09,+0.0E+00
-266.0000E-09,+0.0E+00
-265.5000E-09,+0.0E+00
-265.0000E-09,-16.7364012450E-03
-264.5000E-09,+0.0E+00
-264.0000E-09,+3.1380752334E-03
-263.5000E-09,+6.2761504668E-03
-263.0000E-09,+16.7364012450E-03
-262.5000E-09,+0.0E+00
-262.0000E-09,-3.1380752334E-03
-261.5000E-09,-11.5062758559E-03
-261.0000E-09,-3.1380752334E-03
-260.5000E-09,+0.0E+00
-260.0000E-09,+0.0E+00
-259.5000E-09,+0.0E+00
-259.0000E-09,-3.1380752334E-03
-258.5000E-09,-11.5062758559E-03
-258.0000E-09,+0.0E+00
-257.5000E-09,+0.0E+00
-257.0000E-09,-16.7364012450E-03
-256.5000E-09,+0.0E+00
-256.0000E-09,-16.7364012450E-03
-255.5000E-09,-16.7364012450E-03
-255.0000E-09,-13.5983260116E-03
-254.5000E-09,-11.5062758559E-03
-254.0000E-09,+0.0E+00
-253.5000E-09,-5.2301253891E-03
-253.0000E-09,+0.0E+00
-252.5000E-09,-5.2301253891E-03
-252.0000E-09,-3.1380752334E-03
-251.5000E-09,+0.0E+00
-251.0000E-09,+10.4602507782E-03
-250.5000E-09,-11.5062758559E-03
-250.0000E-09,+0.0E+00
-249.5000E-09,+11.5062758559E-03
-249.0000E-09,-3.1380752334E-03
-248.5000E-09,-5.2301253891E-03
-248.0000E-09,+0.0E+00
-247.5000E-09,+0.0E+00
-247.0000E-09,-30.3347272566E-03
-246.5000E-09,-16.7364012450E-03
-246.0000E-09,+0.0E+00
-245.5000E-09,-16.7364012450E-03
-245.0000E-09,+0.0E+00
-244.5000E-09,+5.2301253891E-03
-244.0000E-09,+0.0E+00
-243.5000E-09,+0.0E+00
-243.0000E-09,-16.7364012450E-03
-242.5000E-09,-16.7364012450E-03
-242.0000E-09,-16.7364012450E-03
-241.5000E-09,-16.7364012450E-03
-241.0000E-09,-16.7364012450E-03
-240.5000E-09,-16.7364012450E-03
-240.0000E-09,+0.0E+00
-239.5000E-09,-5.2301253892E-03
-239.0000E-09,+3.1380752333E-03
-238.5000E-09,-5.2301253892E-03
-238.0000E-09,-10.4602507783E-03
-237.5000E-09,+11.5062758558E-03
-237.0000E-09,+0.0E+00
-236.5000E-09,-11.5062758558E-03
-236.0000E-09,-16.7364012450E-03
-235.5000E-09,+0.0E+00
-235.0000E-09,+0.0E+00
-234.5000E-09,-16.7364012450E-03
-234.0000E-09,-16.7364012450E-03
-233.5000E-09,-16.7364012450E-03
-233.0000E-09,-16.7364012450E-03
-232.5000E-09,-5.2301253891E-03
-232.0000E-09,+0.0E+00
-231.5000E-09,+0.0E+00
-231.0000E-09,+16.7364012450E-03
-230.5000E-09,+0.0E+00
-230.0000E-09,-3.1380752334E-03
-229.5000E-09,-16.7364012450E-03
-229.0000E-09,+10.4602507783E-03
-228.5000E-09,+11.5062758559E-03
-228.0000E-09,-3.1380752334E-03
-227.5000E-09,+0.0E+00
-227.0000E-09,-3.1380752334E-03
-226.5000E-09,-11.5062758559E-03
-226.0000E-09,+0.0E+00
-225.5000E-09,+0.0E+00
-225.0000E-09,-19.8744764784E-03
-224.5000E-09,-5.2301253891E-03
-224.0000E-09,-16.7364012450E-03
-223.5000E-09,-21.9665266341E-03
-223.0000E-09,-13.5983260116E-03
-222.5000E-09,-28.2426771009E-03
-222.0000E-09,-3.1380752334E-03
-221.5000E-09,-5.2301253891E-03
-221.0000E-09,-3.1380752334E-03
-220.5000E-09,-11.5062758559E-03
-220.0000E-09,-16.7364012450E-03
-219.5000E-09,-11.5062758559E-03
-219.0000E-09,-3.1380752334E-03
-218.5000E-09,-16.7364012450E-03
-218.0000E-09,-3.1380752334E-03
-217.5000E-09,-11.5062758559E-03
-217.0000E-09,-16.7364012450E-03
-216.5000E-09,-21.9665266341E-03
-216.0000E-09,-33.4728024900E-03
-215.5000E-09,-16.7364012450E-03
-215.0000E-09,-16.7364012450E-03
-214.5000E-09,+0.0E+00
-214.0000E-09,-33.4728024900E-03
-213.5000E-09,-28.2426771009E-03
-213.0000E-09,+0.0E+00
-212.5000E-09,-11.5062758559E-03
-212.0000E-09,-13.5983260116E-03
-211.5000E-09,+0.0E+00
-211.0000E-09,-16.7364012450E-03
-210.5000E-09,-5.2301253891E-03
-210.0000E-09,-3.1380752334E-03
-209.5000E-09,-16.7364012450E-03
-209.0000E-09,-3.1380752334E-03
-208.5000E-09,-28.2426771009E-03
-208.0000E-09,-16.7364012450E-03
-207.5000E-09,-16.7364012450E-03
-207.0000E-09,-13.5983260116E-03
-206.5000E-09,+11.5062758559E-03
-206.0000E-09,+13.5983260116E-03
-205.5000E-09,-5.2301253891E-03
-205.0000E-09,-3.1380752334E-03
-204.5000E-09,+0.0E+00
-204.0000E-09,-6.2761504668E-03
-203.5000E-09,+5.2301253891E-03
-203.0000E-09,+0.0E+00
-202.5000E-09,-5.2301253891E-03
-202.0000E-09,-16.7364012450E-03
-201.5000E-09,+0.0E+00
-201.0000E-09,-16.7364012450E-03
-200.5000E-09,-5.2301253891E-03
-200.0000E-09,-3.1380752334E-03
-199.5000E-09,+0.0E+00
-199.0000E-09,+0.0E+00
-198.5000E-09,+11.5062758559E-03
-198.0000E-09,-16.7364012450E-03
-197.5000E-09,-11.5062758559E-03
-197.0000E-09,+0.0E+00
-196.5000E-09,-5.2301253891E-03
-196.0000E-09,+0.0E+00
-195.5000E-09,+0.0E+00
-195.0000E-09,+0.0E+00
-194.5000E-09,-5.2301253891E-03
-194.0000E-09,+0.0E+00
-193.5000E-09,+0.0E+00
-193.0000E-09,-3.1380752334E-03
-192.5000E-09,+11.5062758559E-03
-192.0000E-09,+0.0E+00
-191.5000E-09,-16.7364012450E-03
-191.0000E-09,-27.1966520231E-03
-190.5000E-09,-16.7364012450E-03
-190.0000E-09,-16.7364012450E-03
-189.5000E-09,-16.7364012450E-03
-189.0000E-09,-3.1380752334E-03
-188.5000E-09,-16.7364012450E-03
-188.0000E-09,-19.8744764784E-03
-187.5000E-09,-11.5062758559E-03
-187.0000E-09,-16.7364012450E-03
-186.5000E-09,-16.7364012450E-03
-186.0000E-09,+0.0E+00
-185.5000E-09,-16.7364012450E-03
-185.0000E-09,-16.7364012450E-03
-184.5000E-09,-16.7364012450E-03
-184.0000E-09,-33.4728024900E-03
-183.5000E-09,-16.7364012450E-03
-183.0000E-09,-16.7364012450E-03
-182.5000E-09,-16.7364012450E-03
-182.0000E-09,-27.1966520231E-03
-181.5000E-09,-16.7364012450E-03
-181.0000E-09,+0.0E+00
-180.5000E-09,-11.5062758560E-03
-180.0000E-09,-13.5983260115E-03
-179.5000E-09,-11.5062758560E-03
-179.0000E-09,-13.5983260115E-03
-178.5000E-09,-5.2301253890E-03
-178.0000E-09,-3.1380752335E-03
-177.5000E-09,-16.7364012450E-03
-177.0000E-09,-13.5983260115E-03
-176.5000E-09,-16.7364012450E-03
-176.0000E-09,+0.0E+00
-175.5000E-09,+0.0E+00
-175.0000E-09,-13.5983260115E-03
-174.5000E-09,-5.2301253890E-03
-174.0000E-09,-16.7364012450E-03
-173.5000E-09,-5.2301253890E-03
-173.0000E-09,-16.7364012450E-03
-172.5000E-09,-5.2301253890E-03
-172.0000E-09,-16.7364012450E-03
-171.5000E-09,-11.5062758560E-03
-171.0000E-09,-16.7364012450E-03
-170.5000E-09,-16.7364012450E-03
-170.0000E-09,+0.0E+00
-169.5000E-09,-5.2301253890E-03
-169.0000E-09,-13.5983260115E-03
-168.5000E-09,-5.2301253890E-03
-168.0000E-09,+0.0E+00
-167.5000E-09,+0.0E+00
-167.0000E-09,+0.0E+00
-166.5000E-09,-16.7364012450E-03
-166.0000E-09,-3.1380752335E-03
-165.5000E-09,-28.2426771010E-03
-165.0000E-09,-16.7364012450E-03
-164.5000E-09,+0.0E+00
-164.0000E-09,-16.7364012450E-03
-163.5000E-09,+0.0E+00
-163.0000E-09,-3.1380752335E-03
-162.5000E-09,-16.7364012450E-03
-162.0000E-09,+0.0E+00
-161.5000E-09,+0.0E+00
-161.0000E-09,-16.7364012450E-03
-160.5000E-09,+11.5062758560E-03
-160.0000E-09,+0.0E+00
-159.5000E-09,-16.7364012450E-03
-159.0000E-09,-30.3347272565E-03
-158.5000E-09,-16.7364012450E-03
-158.0000E-09,-3.1380752335E-03
-157.5000E-09,-16.7364012450E-03
-157.0000E-09,-3.1380752335E-03
-156.5000E-09,-16.7364012450E-03
-156.0000E-09,-16.7364012450E-03
-155.5000E-09,-11.5062758560E-03
-155.0000E-09,-3.1380752335E-03
-154.5000E-09,-16.7364012450E-03
-154.0000E-09,+0.0E+00
-153.5000E-09,-5.2301253890E-03
-153.0000E-09,-13.5983260115E-03
-152.5000E-09,+6.2761504670E-03
-152.0000E-09,-16.7364012450E-03
-151.5000E-09,+0.0E+00
-151.0000E-09,+0.0E+00
-150.5000E-09,+0.0E+00
-150.0000E-09,-16.7364012450E-03
-149.5000E-09,-16.7364012450E-03
-149.0000E-09,-13.5983260115E-03
-148.5000E-09,-16.7364012450E-03
-148.0000E-09,-30.3347272565E-03
-147.5000E-09,-11.5062758560E-03
-147.0000E-09,-16.7364012450E-03
-146.5000E-09,-16.7364012450E-03
-146.0000E-09,-3.1380752335E-03
-145.5000E-09,+0.0E+00
-145.0000E-09,+0.0E+00
-144.5000E-09,-11.5062758560E-03
-144.0000E-09,-3.1380752335E-03
-143.5000E-09,-11.5062758560E-03
-143.0000E-09,-10.4602507779E-03
-142.5000E-09,+0.0E+00
-142.0000E-09,-16.7364012450E-03
-141.5000E-09,-5.2301253890E-03
-141.0000E-09,-3.1380752335E-03
-140.5000E-09,-28.2426771010E-03
-140.0000E-09,-19.8744764785E-03
-139.5000E-09,-11.5062758560E-03
-139.0000E-09,+0.0E+00
-138.5000E-09,-11.5062758560E-03
-138.0000E-09,-13.5983260115E-03
-137.5000E-09,-16.7364012450E-03
-137.0000E-09,-16.7364012450E-03
-136.5000E-09,-5.2301253890E-03
-136.0000E-09,-16.7364012450E-03
-135.5000E-09,+0.0E+00
-135.0000E-09,-13.5983260115E-03
-134.5000E-09,-23.0125517121E-03
-134.0000E-09,-16.7364012450E-03
-133.5000E-09,-28.2426771010E-03
-133.0000E-09,-13.5983260115E-03
-132.5000E-09,-16.7364012450E-03
-132.0000E-09,-30.3347272565E-03
-131.5000E-09,-16.7364012450E-03
-131.0000E-09,-30.3347272565E-03
-130.5000E-09,-16.7364012450E-03
-130.0000E-09,+0.0E+00
-129.5000E-09,+0.0E+00
-129.0000E-09,-16.7364012450E-03
-128.5000E-09,+0.0E+00
-128.0000E-09,+0.0E+00
-127.5000E-09,-16.7364012450E-03
-127.0000E-09,-13.5983260114E-03
-126.5000E-09,-11.5062758561E-03
-126.0000E-09,-16.7364012450E-03
-125.5000E-09,-16.7364012450E-03
-125.0000E-09,-16.7364012450E-03
-124.5000E-09,-11.5062758561E-03
-124.0000E-09,-3.1380752336E-03
-123.5000E-09,-16.7364012450E-03
-123.0000E-09,-16.7364012450E-03
-122.5000E-09,-16.7364012450E-03
-122.0000E-09,-3.1380752336E-03
-121.5000E-09,-16.7364012450E-03
-121.0000E-09,-16.7364012450E-03
-120.5000E-09,+6.2761504671E-03
-120.0000E-09,-10.4602507779E-03
-119.5000E-09,-11.5062758561E-03
-119.0000E-09,+0.0E+00
-118.5000E-09,+0.0E+00
-118.0000E-09,-16.7364012450E-03
-117.5000E-09,-5.2301253889E-03
-117.0000E-09,+0.0E+00
-116.5000E-09,-5.2301253889E-03
-116.0000E-09,-13.5983260114E-03
-115.5000E-09,+5.2301253889E-03
-115.0000E-09,-13.5983260114E-03
-114.5000E-09,-5.2301253889E-03
-114.0000E-09,+0.0E+00
-113.5000E-09,-5.2301253889E-03
-113.0000E-09,-3.1380752336E-03
-112.5000E-09,-16.7364012450E-03
-112.0000E-09,-16.7364012450E-03
-111.5000E-09,-16.7364012450E-03
-111.0000E-09,-16.7364012450E-03
-110.5000E-09,+0.0E+00
-110.0000E-09,-16.7364012450E-03
-109.5000E-09,-5.2301253889E-03
-109.0000E-09,-3.1380752336E-03
-108.5000E-09,-16.7364012450E-03
-108.0000E-09,-16.7364012450E-03
-107.5000E-09,-16.7364012450E-03
-107.0000E-09,-13.5983260114E-03
-106.5000E-09,-11.5062758561E-03
-106.0000E-09,-13.5983260114E-03
-105.5000E-09,-16.7364012450E-03
-105.0000E-09,-3.1380752336E-03
-104.5000E-09,-5.2301253889E-03
-104.0000E-09,-3.1380752336E-03
-103.5000E-09,-5.2301253889E-03
-103.0000E-09,+3.1380752336E-03
-102.5000E-09,-5.2301253889E-03
-102.0000E-09,-16.7364012450E-03
-101.5000E-09,-11.5062758561E-03
-101.0000E-09,-16.7364012450E-03
-100.5000E-09,-16.7364012450E-03
-100.0000E-09,-30.3347272564E-03
-99.5000E-09,-16.7364012450E-03
-99.0000E-09,-3.1380752336E-03
-98.5000E-09,-11.5062758561E-03
-98.0000E-09,-3.1380752336E-03
-97.5000E-09,+0.0E+00
-97.0000E-09,-19.8744764786E-03
-96.5000E-09,-16.7364012450E-03
-96.0000E-09,-30.3347272564E-03
-95.5000E-09,-11.5062758561E-03
-95.0000E-09,-10.4602507779E-03
-94.5000E-09,-16.7364012450E-03
-94.0000E-09,-3.1380752336E-03
-93.5000E-09,-5.2301253889E-03
-93.0000E-09,-3.1380752336E-03
-92.5000E-09,-28.2426771011E-03
-92.0000E-09,-3.1380752336E-03
-91.5000E-09,-11.5062758561E-03
-91.0000E-09,-13.5983260114E-03
-90.5000E-09,-11.5062758561E-03
-90.0000E-09,-13.5983260114E-03
-89.5000E-09,-16.7364012450E-03
-89.0000E-09,-16.7364012450E-03
-88.5000E-09,-16.7364012450E-03
-88.0000E-09,-16.7364012450E-03
-87.5000E-09,-16.7364012450E-03
-87.0000E-09,-16.7364012450E-03
-86.5000E-09,-5.2301253889E-03
-86.0000E-09,+0.0E+00
-85.5000E-09,-11.5062758561E-03
-85.0000E-09,+3.1380752336E-03
-84.5000E-09,+0.0E+00
-84.0000E-09,-10.4602507779E-03
-83.5000E-09,-11.5062758561E-03
-83.0000E-09,-13.5983260114E-03
-82.5000E-09,-5.2301253889E-03
-82.0000E-09,+0.0E+00
-81.5000E-09,-16.7364012450E-03
-81.0000E-09,-3.1380752336E-03
-80.5000E-09,-16.7364012450E-03
-80.0000E-09,-3.1380752336E-03
-79.5000E-09,-21.9665266339E-03
-79.0000E-09,-13.5983260114E-03
-78.5000E-09,-16.7364012450E-03
-78.0000E-09,-16.7364012450E-03
-77.5000E-09,-5.2301253889E-03
-77.0000E-09,-13.5983260114E-03
-76.5000E-09,+0.0E+00
-76.0000E-09,-3.1380752336E-03
-75.5000E-09,+0.0E+00
-75.0000E-09,+0.0E+00
-74.5000E-09,+0.0E+00
-74.0000E-09,+0.0E+00
-73.5000E-09,+0.0E+00
-73.0000E-09,+0.0E+00
-72.5000E-09,+11.5062758561E-03
-72.0000E-09,+0.0E+00
-71.5000E-09,-5.2301253889E-03
-71.0000E-09,+13.5983260114E-03
-70.5000E-09,-11.5062758561E-03
-70.0000E-09,-16.7364012450E-03
-69.5000E-09,-11.5062758560E-03
-69.0000E-09,-16.7364012450E-03
-68.5000E-09,-5.2301253890E-03
-68.0000E-09,+0.0E+00
-67.5000E-09,+0.0E+00
-67.0000E-09,-3.1380752336E-03
-66.5000E-09,-5.2301253890E-03
-66.0000E-09,+0.0E+00
-65.5000E-09,+5.2301253890E-03
-65.0000E-09,-16.7364012450E-03
-64.5000E-09,+0.0E+00
-64.0000E-09,+0.0E+00
-63.5000E-09,+0.0E+00
-63.0000E-09,-13.5983260115E-03
-62.5000E-09,-16.7364012450E-03
-62.0000E-09,+0.0E+00
-61.5000E-09,-16.7364012450E-03
-61.0000E-09,+0.0E+00
-60.5000E-09,-11.5062758560E-03
-60.0000E-09,-16.7364012450E-03
-59.5000E-09,+0.0E+00
-59.0000E-09,+0.0E+00
-58.5000E-09,-16.7364012450E-03
-58.0000E-09,+10.4602507779E-03
-57.5000E-09,+0.0E+00
-57.0000E-09,+0.0E+00
-56.5000E-09,-5.2301253890E-03
-56.0000E-09,-16.7364012450E-03
-55.5000E-09,-11.5062758560E-03
-55.0000E-09,-16.7364012450E-03
-54.5000E-09,+0.0E+00
-54.0000E-09,-3.1380752335E-03
-53.5000E-09,-5.2301253890E-03
-53.0000E-09,-13.5983260115E-03
-52.5000E-09,-11.5062758560E-03
-52.0000E-09,-13.5983260115E-03
-51.5000E-09,-11.5062758560E-03
-51.0000E-09,-16.7364012450E-03
-50.5000E-09,+0.0E+00
-50.0000E-09,-3.1380752335E-03
-49.5000E-09,+0.0E+00
-49.0000E-09,+0.0E+00
-48.5000E-09,+0.0E+00
-48.0000E-09,-13.5983260115E-03
-47.5000E-09,-5.2301253890E-03
-47.0000E-09,+0.0E+00
-46.5000E-09,+11.5062758560E-03
-46.0000E-09,+0.0E+00
-45.5000E-09,+0.0E+00
-45.0000E-09,+0.0E+00
-44.5000E-09,-11.5062758560E-03
-44.0000E-09,-3.1380752335E-03
-43.5000E-09,-11.5062758560E-03
-43.0000E-09,+0.0E+00
-42.5000E-09,-5.2301253890E-03
-42.0000E-09,-13.5983260115E-03
-41.5000E-09,-5.2301253890E-03
-41.0000E-09,-13.5983260115E-03
-40.5000E-09,-5.2301253890E-03
-40.0000E-09,+0.0E+00
-39.5000E-09,+0.0E+00
-39.0000E-09,+13.5983260115E-03
-38.5000E-09,+0.0E+00
-38.0000E-09,+0.0E+00
-37.5000E-09,+16.7364012450E-03
-37.0000E-09,+129.7071096491E-03
-36.5000E-09,+325.3137992001E-03
-36.0000E-09,+481.1715357941E-03
-35.5000E-09,+603.5564698980E-03
-35.0000E-09,+649.5815733214E-03
-34.5000E-09,+607.7405702089E-03
-34.0000E-09,+559.6234166293E-03
-33.5000E-09,+524.0585639839E-03
-33.0000E-09,+482.2175608714E-03
-32.5000E-09,+480.1255107160E-03
-32.0000E-09,+435.1464323699E-03
-31.5000E-09,+395.3974794129E-03
-31.0000E-09,+331.5899496664E-03
-30.5000E-09,+266.7363948419E-03
-30.0000E-09,+208.1589904844E-03
-29.5000E-09,+144.3514607379E-03
-29.0000E-09,+77.4058557579E-03
-28.5000E-09,+27.1966520229E-03
-28.0000E-09,-23.0125517121E-03
-27.5000E-09,-61.7154795910E-03
-27.0000E-09,-106.6945579371E-03
-26.5000E-09,-156.9037616721E-03
-26.0000E-09,-187.2384889285E-03
-25.5000E-09,-207.1129654070E-03
-25.0000E-09,-234.3096174300E-03
-24.5000E-09,-251.0460186750E-03
-24.0000E-09,-270.9204951535E-03
-23.5000E-09,-290.7949716320E-03
-23.0000E-09,-287.6568963985E-03
-22.5000E-09,-312.7614982660E-03
-22.0000E-09,-334.7280249000E-03
-21.5000E-09,-323.2217490439E-03
-21.0000E-09,-334.7280249000E-03
-20.5000E-09,-346.2343007560E-03
-20.0000E-09,-348.3263509114E-03
-19.5000E-09,-334.7280249000E-03
-19.0000E-09,-334.7280249000E-03
-18.5000E-09,-339.9581502889E-03
-18.0000E-09,-337.8661001335E-03
-17.5000E-09,-351.4644261450E-03
-17.0000E-09,-348.3263509114E-03
-16.5000E-09,-334.7280249000E-03
-16.0000E-09,-334.7280249000E-03
-15.5000E-09,-339.9581502889E-03
-15.0000E-09,-317.9916236550E-03
-14.5000E-09,-306.4853477989E-03
-14.0000E-09,-301.2552224100E-03
-13.5000E-09,-289.7489465539E-03
-13.0000E-09,-284.5188211650E-03
-12.5000E-09,-273.0125453089E-03
-12.0000E-09,-267.7824199200E-03
-11.5000E-09,-262.5522945310E-03
-11.0000E-09,-251.0460186750E-03
-10.5000E-09,-239.5397428189E-03
-10.0000E-09,-220.7112914185E-03
-9.5000E-09,-222.8033415739E-03
-9.0000E-09,-197.6987397064E-03
-8.5000E-09,-189.3305390839E-03
-8.0000E-09,-167.3640124500E-03
-7.5000E-09,-155.8577365939E-03
-7.0000E-09,-150.6276112050E-03
-6.5000E-09,-178.8702883060E-03
-6.0000E-09,-300.2091973326E-03
-5.5000E-09,-520.9204887512E-03
-5.0000E-09,-735.3556297026E-03
-4.5000E-09,-876.5690152070E-03
-4.0000E-09,-923.6401437084E-03
-3.5000E-09,-908.9957926189E-03
-3.0000E-09,-887.0292659849E-03
-2.5000E-09,-858.7865888839E-03
-2.0000E-09,-850.4183882614E-03
-1.5000E-09,-797.0711092928E-03
-1.0000E-09,-644.3514479316E-03
-500.0E-12,-241.6317929735E-03
+0.0E+00,+268.8284449989E-03
+500.0E-12,+677.8242504232E-03
+1.0000E-09,+882.8451656740E-03
+1.5000E-09,+965.4811468209E-03
+2.0000E-09,+967.5731969763E-03
+2.5000E-09,+907.9497675407E-03
+3.0000E-09,+674.6861751881E-03
+3.5000E-09,+230.1255171175E-03
+4.0000E-09,-192.4686143183E-03
+4.5000E-09,-459.2050091601E-03
+5.0000E-09,-518.8284385949E-03
+5.5000E-09,-479.0794856379E-03
+6.0000E-09,-435.1464323699E-03
+6.5000E-09,-338.9121252108E-03
+7.0000E-09,-85.7740563796E-03
+7.5000E-09,+344.1422506014E-03
+8.0000E-09,+728.0334541582E-03
+8.5000E-09,+983.2635731440E-03
+9.0000E-09,+1.0711296796799E+00
+9.5000E-09,+1.0481171279678E+00
+10.0000E-09,+984.3095982213E-03
+10.5000E-09,+942.4685951089E-03
+11.0000E-09,+914.2259180078E-03
+11.5000E-09,+796.0250842147E-03
+12.0000E-09,+463.3891094702E-03
+12.5000E-09,+97.2803322357E-03
+13.0000E-09,-216.5271911077E-03
+13.5000E-09,-341.0041753670E-03
+14.0000E-09,-334.7280249000E-03
+14.5000E-09,-339.9581502889E-03
+15.0000E-09,-271.9665202308E-03
+15.5000E-09,-25.1046018667E-03
+16.0000E-09,+379.7071032468E-03
+16.5000E-09,+733.2635795472E-03
+17.0000E-09,+946.6526954205E-03
+17.5000E-09,+998.9539493109E-03
+18.0000E-09,+984.3095982213E-03
+18.5000E-09,+920.5020684749E-03
+19.0000E-09,+887.0292659849E-03
+19.5000E-09,+835.7740371718E-03
+20.0000E-09,+680.9623256551E-03
+20.5000E-09,+303.3472725646E-03
+21.0000E-09,-125.5230093383E-03
+21.5000E-09,-425.7322066701E-03
+22.0000E-09,-552.3012410849E-03
+22.5000E-09,-557.5313664739E-03
+23.0000E-09,-549.1631658514E-03
+23.5000E-09,-467.5732097818E-03
+24.0000E-09,-189.3305390831E-03
+24.5000E-09,+215.4811660303E-03
+25.0000E-09,+627.6150466882E-03
+25.5000E-09,+866.1087644290E-03
+26.0000E-09,+953.9748709649E-03
+26.5000E-09,+925.7321938638E-03
+27.0000E-09,+883.8911907514E-03
+27.5000E-09,+842.0501876389E-03
+28.0000E-09,+757.3221563357E-03
+28.5000E-09,+510.4602379716E-03
+29.0000E-09,+42.8870281890E-03
+29.5000E-09,-416.3179809704E-03
+30.0000E-09,-712.3430779905E-03
+30.5000E-09,-781.3807331259E-03
+31.0000E-09,-783.4727832814E-03
+31.5000E-09,-753.1380560249E-03
+32.0000E-09,-703.9748773672E-03
+32.5000E-09,-432.0083571356E-03
+33.0000E-09,+20.9205015574E-03
+33.5000E-09,+455.0209088493E-03
+34.0000E-09,+745.8158804805E-03
+34.5000E-09,+831.5899368609E-03
+35.0000E-09,+813.8075105378E-03
+35.5000E-09,+758.3681814139E-03
+36.0000E-09,+769.8744572699E-03
+36.5000E-09,+662.1338742547E-03
+37.0000E-09,+330.5439245875E-03
+37.5000E-09,-199.7907898635E-03
+38.0000E-09,-630.7531219218E-03
+38.5000E-09,-871.3388898180E-03
+39.0000E-09,-934.1003944864E-03
+39.5000E-09,-892.2593913739E-03
+40.0000E-09,-870.2928647399E-03
+40.5000E-09,-802.3012346818E-03
+41.0000E-09,-557.5313664731E-03
+41.5000E-09,-112.9707084025E-03
+42.0000E-09,+329.4978995118E-03
+42.5000E-09,+631.7991469991E-03
+43.0000E-09,+722.8033287684E-03
+43.5000E-09,+724.8953789239E-03
+44.0000E-09,+706.0669275235E-03
+44.5000E-09,+719.6652535349E-03
+45.0000E-09,+580.5439181852E-03
+45.5000E-09,+202.9288650946E-03
+46.0000E-09,-319.0376487339E-03
+46.5000E-09,-744.7698554032E-03
+47.0000E-09,-960.2510214320E-03
+47.5000E-09,-987.4476734549E-03
+48.0000E-09,-950.8367957313E-03
+48.5000E-09,-920.5020684749E-03
+49.0000E-09,-857.7405638058E-03
+49.5000E-09,-582.6359683406E-03
+50.0000E-09,-152.7196613597E-03
+50.5000E-09,+305.4393227224E-03
+51.0000E-09,+601.4644197426E-03
+51.5000E-09,+697.6987269010E-03
+52.0000E-09,+696.6527018229E-03
+52.5000E-09,+702.9288522899E-03
+53.0000E-09,+696.6527018229E-03
+53.5000E-09,+527.1966392167E-03
+54.0000E-09,+126.5690344141E-03
+54.5000E-09,-389.1213289473E-03
+55.0000E-09,-802.3012346825E-03
+55.5000E-09,-960.2510214319E-03
+56.0000E-09,-964.4351217428E-03
+56.5000E-09,-937.2384697199E-03
+57.0000E-09,-903.7656672299E-03
+57.5000E-09,-915.2719430859E-03
+58.0000E-09,-940.3765449534E-03
+58.5000E-09,-953.9748709649E-03
+59.0000E-09,-937.2384697199E-03
+59.5000E-09,-937.2384697199E-03
+60.0000E-09,-937.2384697199E-03
+60.5000E-09,-903.7656672299E-03
+61.0000E-09,-807.5313600708E-03
+61.5000E-09,-543.9330404617E-03
+62.0000E-09,-76.3598306791E-03
+62.5000E-09,+444.5606580713E-03
+63.0000E-09,+835.7740371725E-03
+63.5000E-09,+1.0271966264119E+00
+64.0000E-09,+1.0345188019564E+00
+64.5000E-09,+992.6777988439E-03
+65.0000E-09,+923.6401437084E-03
+65.5000E-09,+897.4895167628E-03
+66.0000E-09,+883.8911907514E-03
+66.5000E-09,+790.7949588258E-03
+67.0000E-09,+504.1840875047E-03
+67.5000E-09,+51.2552288116E-03
+68.0000E-09,-379.7071032467E-03
+68.5000E-09,-631.7991469990E-03
+69.0000E-09,-709.2050027570E-03
+69.5000E-09,-747.9079306359E-03
+70.0000E-09,-679.9163005779E-03
+70.5000E-09,-432.0083571357E-03
+71.0000E-09,-12.5523009327E-03
+71.5000E-09,+444.5606580713E-03
+72.0000E-09,+752.0920309475E-03
+72.5000E-09,+898.5355418409E-03
+73.0000E-09,+900.6275919964E-03
+73.5000E-09,+865.0627393509E-03
+74.0000E-09,+816.9455857714E-03
+74.5000E-09,+752.0920309468E-03
+75.0000E-09,+437.2384825247E-03
+75.5000E-09,-49.1631786583E-03
+76.0000E-09,-560.6694417081E-03
+76.5000E-09,-860.8786390400E-03
+77.0000E-09,-953.9748709649E-03
+77.5000E-09,-925.7321938639E-03
+78.0000E-09,-900.6275919964E-03
+78.5000E-09,-864.0167142729E-03
+79.0000E-09,-680.9623256553E-03
+79.5000E-09,-275.1045954637E-03
+80.0000E-09,+182.0083635402E-03
+80.5000E-09,+532.4267646071E-03
+81.0000E-09,+689.3305262784E-03
+81.5000E-09,+702.9288522899E-03
+82.0000E-09,+686.1924510449E-03
+82.5000E-09,+720.7112786130E-03
+83.0000E-09,+792.8870089819E-03
+83.5000E-09,+848.3263381059E-03
+84.0000E-09,+883.8911907514E-03
+84.5000E-09,+870.2928647399E-03
+85.0000E-09,+830.5439117829E-03
+85.5000E-09,+746.8619055579E-03
+86.0000E-09,+626.5690216094E-03
+86.5000E-09,+449.7907834588E-03
+87.0000E-09,+172.5941378383E-03
+87.5000E-09,-232.2175672752E-03
+88.0000E-09,-647.4895231666E-03
+88.5000E-09,-956.0669211210E-03
+89.0000E-09,-1.0742677549134E+00
+89.5000E-09,-1.0815899304578E+00
+90.0000E-09,-1.0209204759449E+00
+90.5000E-09,-987.4476734549E-03
+91.0000E-09,-953.9748709649E-03
+91.5000E-09,-942.4685951089E-03
+92.0000E-09,-874.4769650508E-03
+92.5000E-09,-644.3514479318E-03
+93.0000E-09,-253.1380688298E-03
+93.5000E-09,+142.2594105832E-03
+94.0000E-09,+411.0878555805E-03
+94.5000E-09,+536.6108649180E-03
+95.0000E-09,+546.0250906179E-03
+95.5000E-09,+478.0334605598E-03
+96.0000E-09,+169.4560626048E-03
+96.5000E-09,-277.1966456211E-03
+97.0000E-09,-691.4225764345E-03
+97.5000E-09,-933.0543694090E-03
+98.0000E-09,-1.0240585511784E+00
+98.5000E-09,-1.0094142000889E+00
+99.0000E-09,-950.8367957314E-03
+99.5000E-09,-908.9957926189E-03
+100.0000E-09,-787.6568835923E-03
+100.5000E-09,-487.4476862598E-03
+101.0000E-09,-2.0920501549E-03
+101.5000E-09,+433.0543822151E-03
+102.0000E-09,+729.0794792355E-03
+102.5000E-09,+798.1171343709E-03
+103.0000E-09,+789.7489337484E-03
+103.5000E-09,+814.8535356159E-03
+104.0000E-09,+743.7238303244E-03
+104.5000E-09,+515.6903633608E-03
+105.0000E-09,+49.1631786563E-03
+105.5000E-09,-427.8242568261E-03
+106.0000E-09,-745.8158804805E-03
+106.5000E-09,-825.3137863939E-03
+107.0000E-09,-797.0711092929E-03
+107.5000E-09,-753.1380560249E-03
+108.0000E-09,-769.8744572699E-03
+108.5000E-09,-821.1296860829E-03
+109.0000E-09,-873.4309399734E-03
+109.5000E-09,-898.5355418409E-03
+110.0000E-09,-887.0292659849E-03
+110.5000E-09,-875.5229901289E-03
+111.0000E-09,-813.8075105379E-03
+111.5000E-09,-678.8702754999E-03
+112.0000E-09,-463.3891094703E-03
+112.5000E-09,-141.2133855038E-03
+113.0000E-09,+319.0376487336E-03
+113.5000E-09,+722.8033287690E-03
+114.0000E-09,+966.5271718989E-03
+114.5000E-09,+1.0721757047579E+00
+115.0000E-09,+1.0376568771899E+00
+115.5000E-09,+1.0094142000889E+00
+116.0000E-09,+964.4351217429E-03
+116.5000E-09,+942.4685951089E-03
+117.0000E-09,+937.2384697199E-03
+117.5000E-09,+925.7321938639E-03
+118.0000E-09,+920.5020684749E-03
+118.5000E-09,+920.5020684749E-03
+119.0000E-09,+903.7656672299E-03
+119.5000E-09,+887.0292659849E-03
+120.0000E-09,+887.0292659849E-03
+120.5000E-09,+875.5229901289E-03
+121.0000E-09,+731.1715293903E-03
+121.5000E-09,+335.7740499768E-03
+122.0000E-09,-228.0334669642E-03
+122.5000E-09,-734.3096046250E-03
+123.0000E-09,-1.0135983004004E+00
+123.5000E-09,-1.0596234038239E+00
+124.0000E-09,-1.0345188019564E+00
+124.5000E-09,-975.9413975989E-03
+125.0000E-09,-934.1003944864E-03
+125.5000E-09,-920.5020684749E-03
+126.0000E-09,-906.9037424634E-03
+126.5000E-09,-903.7656672299E-03
+127.0000E-09,-920.5020684749E-03
+127.5000E-09,-892.2593913739E-03
+128.0000E-09,-903.7656672299E-03
+128.5000E-09,-875.5229901289E-03
+129.0000E-09,-804.3932848373E-03
+129.5000E-09,-510.4602379717E-03
+130.0000E-09,+7.3221755459E-03
+130.5000E-09,+534.5188147633E-03
+131.0000E-09,+919.4560433976E-03
+131.5000E-09,+1.0491631530459E+00
+132.0000E-09,+1.0648535292128E+00
+132.5000E-09,+997.9079242328E-03
+133.0000E-09,+950.8367957313E-03
+133.5000E-09,+908.9957926189E-03
+134.0000E-09,+857.7405638058E-03
+134.5000E-09,+639.1213225427E-03
+135.0000E-09,+213.3891158725E-03
+135.5000E-09,-265.6903697654E-03
+136.0000E-09,-567.9916172526E-03
+136.5000E-09,-680.9623256560E-03
+137.0000E-09,-686.1924510449E-03
+137.5000E-09,-657.9497739439E-03
+138.0000E-09,-530.3347144501E-03
+138.5000E-09,-157.9497867485E-03
+139.0000E-09,+302.3012474889E-03
+139.5000E-09,+683.0543758122E-03
+140.0000E-09,+896.4434916855E-03
+140.5000E-09,+965.4811468209E-03
+141.0000E-09,+934.1003944863E-03
+141.5000E-09,+892.2593913738E-03
+142.0000E-09,+847.2803130278E-03
+142.5000E-09,+655.8577237876E-03
+143.0000E-09,+246.8619183624E-03
+143.5000E-09,-260.4602443765E-03
+144.0000E-09,-668.4100247227E-03
+144.5000E-09,-848.3263381060E-03
+145.0000E-09,-883.8911907513E-03
+145.5000E-09,-847.2803130278E-03
+146.0000E-09,-833.6819870163E-03
+146.5000E-09,-717.5732033786E-03
+147.0000E-09,-400.6276048008E-03
+147.5000E-09,+87.8661065377E-03
+148.0000E-09,+493.7238367284E-03
+148.5000E-09,+737.4476798581E-03
+149.0000E-09,+786.6108585149E-03
+149.5000E-09,+769.8744572699E-03
+150.0000E-09,+773.0125325035E-03
+150.5000E-09,+831.5899368610E-03
+151.0000E-09,+859.8326139620E-03
+151.5000E-09,+892.2593913738E-03
+152.0000E-09,+900.6275919963E-03
+152.5000E-09,+887.0292659849E-03
+153.0000E-09,+867.1547895063E-03
+153.5000E-09,+780.3347080478E-03
+154.0000E-09,+623.4309463756E-03
+154.5000E-09,+388.0753038674E-03
+155.0000E-09,+15.6903761657E-03
+155.5000E-09,-433.0543822157E-03
+156.0000E-09,-825.3137863949E-03
+156.5000E-09,-1.0219665010231E+00
+157.0000E-09,-1.0742677549135E+00
+157.5000E-09,-1.0428870025788E+00
+158.0000E-09,-997.9079242327E-03
+158.5000E-09,-942.4685951088E-03
+159.0000E-09,-937.2384697199E-03
+159.5000E-09,-937.2384697199E-03
+160.0000E-09,-940.3765449535E-03
+160.5000E-09,-937.2384697199E-03
+161.0000E-09,-930.9623192527E-03
+161.5000E-09,-915.2719430860E-03
+162.0000E-09,-903.7656672299E-03
+162.5000E-09,-908.9957926188E-03
+163.0000E-09,-841.0041625605E-03
+163.5000E-09,-582.6359683401E-03
+164.0000E-09,-62.7615046669E-03
+164.5000E-09,+484.3096110291E-03
+165.0000E-09,+885.9832409079E-03
+165.5000E-09,+1.0439330276571E+00
+166.0000E-09,+1.0648535292127E+00
+166.5000E-09,+997.9079242327E-03
+167.0000E-09,+950.8367957313E-03
+167.5000E-09,+920.5020684749E-03
+168.0000E-09,+906.9037424635E-03
+168.5000E-09,+908.9957926188E-03
+169.0000E-09,+903.7656672299E-03
+169.5000E-09,+892.2593913738E-03
+170.0000E-09,+870.2928647399E-03
+170.5000E-09,+875.5229901288E-03
+171.0000E-09,+853.5564634949E-03
+171.5000E-09,+762.5522817244E-03
+172.0000E-09,+423.6401565125E-03
+172.5000E-09,-77.4058557605E-03
+173.0000E-09,-614.0167206774E-03
+173.5000E-09,-967.5731969777E-03
+174.0000E-09,-1.0878660809249E+00
+174.5000E-09,-1.0763598050688E+00
+175.0000E-09,-1.0177824007113E+00
+175.5000E-09,-975.9413975988E-03
+176.0000E-09,-930.9623192527E-03
+176.5000E-09,-812.7614854593E-03
+177.0000E-09,-497.9079370365E-03
+177.5000E-09,-12.5523009316E-03
+178.0000E-09,+406.9037552703E-03
+178.5000E-09,+631.7991469994E-03
+179.0000E-09,+702.9288522899E-03
+179.5000E-09,+702.9288522899E-03
+180.0000E-09,+673.6401501104E-03
+180.5000E-09,+476.9874354810E-03
+181.0000E-09,+46.0251034215E-03
+181.5000E-09,-433.0543822162E-03
+182.0000E-09,-771.9665074267E-03
+182.5000E-09,-965.4811468210E-03
+183.0000E-09,-987.4476734549E-03
+183.5000E-09,-930.9623192526E-03
+184.0000E-09,-900.6275919963E-03
+184.5000E-09,-898.5355418410E-03
+185.0000E-09,-890.1673412185E-03
+185.5000E-09,-903.7656672299E-03
+186.0000E-09,-903.7656672299E-03
+186.5000E-09,-915.2719430860E-03
+187.0000E-09,-900.6275919963E-03
+187.5000E-09,-819.0376359265E-03
+188.0000E-09,-670.5020748767E-03
+188.5000E-09,-365.0627521547E-03
+189.0000E-09,+67.9916300601E-03
+189.5000E-09,+544.9790655425E-03
+190.0000E-09,+885.9832409081E-03
+190.5000E-09,+1.0554393035133E+00
+191.0000E-09,+1.0648535292126E+00
+191.5000E-09,+1.0313807267226E+00
+192.0000E-09,+964.4351217426E-03
+192.5000E-09,+937.2384697199E-03
+193.0000E-09,+910.0418176972E-03
+193.5000E-09,+920.5020684749E-03
+194.0000E-09,+937.2384697199E-03
+194.5000E-09,+937.2384697199E-03
+195.0000E-09,+920.5020684749E-03
+195.5000E-09,+908.9957926187E-03
+196.0000E-09,+903.7656672299E-03
+196.5000E-09,+898.5355418410E-03
+197.0000E-09,+787.6568835917E-03
+197.5000E-09,+475.9414104022E-03
+198.0000E-09,-30.3347272599E-03
+198.5000E-09,-589.9581438888E-03
+199.0000E-09,-936.1924446432E-03
+199.5000E-09,-1.0826359555360E+00
+200.0000E-09,-1.0512552032012E+00
+200.5000E-09,-997.9079242326E-03
+201.0000E-09,-934.1003944862E-03
+201.5000E-09,-920.5020684749E-03
+202.0000E-09,-920.5020684749E-03
+202.5000E-09,-908.9957926187E-03
+203.0000E-09,-903.7656672299E-03
+203.5000E-09,-903.7656672299E-03
+204.0000E-09,-903.7656672299E-03
+204.5000E-09,-887.0292659849E-03
+205.0000E-09,-844.1422377939E-03
+205.5000E-09,-627.6150466855E-03
+206.0000E-09,-193.5146393922E-03
+206.5000E-09,+350.4184010702E-03
+207.0000E-09,+794.9790591393E-03
+207.5000E-09,+1.0334727768796E+00
+208.0000E-09,+1.0679916044462E+00
+208.5000E-09,+1.0146443254775E+00
+209.0000E-09,+950.8367957312E-03
+209.5000E-09,+932.0083443311E-03
+210.0000E-09,+903.7656672299E-03
+210.5000E-09,+926.7782189423E-03
+211.0000E-09,+906.9037424636E-03
+211.5000E-09,+920.5020684749E-03
+212.0000E-09,+903.7656672299E-03
+212.5000E-09,+892.2593913737E-03
+213.0000E-09,+883.8911907512E-03
+213.5000E-09,+830.5439117825E-03
+214.0000E-09,+630.7531219191E-03
+214.5000E-09,+201.8828400145E-03
+215.0000E-09,-355.6485264592E-03
+215.5000E-09,-811.7154603844E-03
+216.0000E-09,-1.0439330276573E+00
+216.5000E-09,-1.0930962063137E+00
+217.0000E-09,-1.0345188019562E+00
+217.5000E-09,-992.6777988437E-03
+218.0000E-09,-937.2384697199E-03
+218.5000E-09,-937.2384697199E-03
+219.0000E-09,-937.2384697199E-03
+219.5000E-09,-914.2259180075E-03
+220.0000E-09,-923.6401437086E-03
+220.5000E-09,-903.7656672299E-03
+221.0000E-09,-890.1673412186E-03
+221.5000E-09,-903.7656672299E-03
+222.0000E-09,-844.1422377938E-03
+222.5000E-09,-639.1213225415E-03
+223.0000E-09,-243.7238431268E-03
+223.5000E-09,+345.1882756818E-03
+224.0000E-09,+791.8409839058E-03
+224.5000E-09,+1.0219665010235E+00
+225.0000E-09,+1.0575313536686E+00
+225.5000E-09,+1.0198744508662E+00
+226.0000E-09,+964.4351217425E-03
+226.5000E-09,+925.7321938637E-03
+227.0000E-09,+920.5020684749E-03
+227.5000E-09,+908.9957926187E-03
+228.0000E-09,+920.5020684749E-03
+228.5000E-09,+908.9957926187E-03
+229.0000E-09,+903.7656672299E-03
+229.5000E-09,+875.5229901287E-03
+230.0000E-09,+883.8911907512E-03
+230.5000E-09,+819.0376359262E-03
+231.0000E-09,+594.1422441952E-03
+231.5000E-09,+141.2133855016E-03
+232.0000E-09,-422.5941314396E-03
+232.5000E-09,-839.9581374859E-03
+233.0000E-09,-1.0439330276573E+00
+233.5000E-09,-1.0763598050687E+00
+234.0000E-09,-1.0282426514887E+00
+234.5000E-09,-964.4351217424E-03
+235.0000E-09,-930.9623192524E-03
+235.5000E-09,-880.7531155174E-03
+236.0000E-09,-711.2970529101E-03
+236.5000E-09,-325.3137991965E-03
+237.0000E-09,+145.3974858185E-03
+237.5000E-09,+482.2175608735E-03
+238.0000E-09,+639.1213225437E-03
+238.5000E-09,+652.7196485549E-03
+239.0000E-09,+669.4560497999E-03
+239.5000E-09,+573.2217426400E-03
+240.0000E-09,+236.4016675827E-03
+240.5000E-09,-238.4937177447E-03
+241.0000E-09,-661.0878491797E-03
+241.5000E-09,-899.5815669198E-03
+242.0000E-09,-987.4476734549E-03
+242.5000E-09,-947.6987204974E-03
+243.0000E-09,-900.6275919962E-03
+243.5000E-09,-858.7865888837E-03
+244.0000E-09,-720.7112786113E-03
+244.5000E-09,-370.2928775428E-03
+245.0000E-09,+107.7405830182E-03
+245.5000E-09,+543.9330404646E-03
+246.0000E-09,+776.1506077373E-03
+246.5000E-09,+831.5899368611E-03
+247.0000E-09,+820.0836610049E-03
+247.5000E-09,+820.0836610049E-03
+248.0000E-09,+757.3221563351E-03
+248.5000E-09,+470.7112850129E-03
+249.0000E-09,-4.1841003144E-03
+249.5000E-09,-483.2635859520E-03
+250.0000E-09,-765.6903569597E-03
+250.5000E-09,-853.5564634949E-03
+251.0000E-09,-816.9455857712E-03
+251.5000E-09,-775.1045826587E-03
+252.0000E-09,-743.7238303238E-03
+252.5000E-09,-555.4393163166E-03
+253.0000E-09,-146.4435108906E-03
+253.5000E-09,+355.6485264592E-03
+254.0000E-09,+718.6192284584E-03
+254.5000E-09,+876.5690152073E-03
+255.0000E-09,+883.8911907512E-03
+255.5000E-09,+870.2928647399E-03
+256.0000E-09,+853.5564634949E-03
+256.5000E-09,+785.5648334364E-03
+257.0000E-09,+490.5857614918E-03
+257.5000E-09,+6.2761504635E-03
+258.0000E-09,-446.6527082281E-03
+258.5000E-09,-732.2175544696E-03
+259.0000E-09,-803.3472597599E-03
+259.5000E-09,-769.8744572699E-03
+260.0000E-09,-739.5397300136E-03
+260.5000E-09,-781.3807331261E-03
+261.0000E-09,-839.9581374836E-03
+261.5000E-09,-881.7991405961E-03
+262.0000E-09,-887.0292659849E-03
+262.5000E-09,-892.2593913737E-03
+263.0000E-09,-867.1547895062E-03
+263.5000E-09,-807.5313600702E-03
+264.0000E-09,-656.9037488653E-03
+264.5000E-09,-449.7907834580E-03
+265.0000E-09,-65.8995798998E-03
+265.5000E-09,+394.3514543377E-03
+266.0000E-09,+775.1045826605E-03
+266.5000E-09,+1.0052300997784E+00
+267.0000E-09,+1.0711296796799E+00
+267.5000E-09,+1.0428870025787E+00
+268.0000E-09,+970.7112722099E-03
+268.5000E-09,+942.4685951087E-03
+269.0000E-09,+920.5020684749E-03
+269.5000E-09,+937.2384697199E-03
+270.0000E-09,+937.2384697199E-03
+270.5000E-09,+920.5020684749E-03
+271.0000E-09,+920.5020684749E-03
+271.5000E-09,+903.7656672299E-03
+272.0000E-09,+903.7656672299E-03
+272.5000E-09,+903.7656672299E-03
+273.0000E-09,+844.1422377940E-03
+273.5000E-09,+610.8786454408E-03
+274.0000E-09,+140.1673604241E-03
+274.5000E-09,-411.0878555824E-03
+275.0000E-09,-842.0501876403E-03
+275.5000E-09,-1.0439330276571E+00
+276.0000E-09,-1.0679916044462E+00
+276.5000E-09,-997.9079242326E-03
+277.0000E-09,-947.6987204976E-03
+277.5000E-09,-925.7321938638E-03
+278.0000E-09,-854.6024885718E-03
+278.5000E-09,-594.1422441959E-03
+279.0000E-09,-149.5815861251E-03
+279.5000E-09,+270.9204951551E-03
+280.0000E-09,+548.1171407744E-03
+280.5000E-09,+625.5229965322E-03
+281.0000E-09,+669.4560497999E-03
+281.5000E-09,+624.4769714538E-03
+282.0000E-09,+426.7782317460E-03
+282.5000E-09,+12.5523009316E-03
+283.0000E-09,-449.7907834611E-03
+283.5000E-09,-793.9330340605E-03
+284.0000E-09,-960.2510214321E-03
+284.5000E-09,-998.9539493110E-03
+285.0000E-09,-950.8367957313E-03
+285.5000E-09,-908.9957926188E-03
+286.0000E-09,-847.2803130277E-03
+286.5000E-09,-650.6275983983E-03
+287.0000E-09,-249.9999935953E-03
+287.5000E-09,+238.4937177432E-03
+288.0000E-09,+587.8660937316E-03
+288.5000E-09,+737.4476798582E-03
+289.0000E-09,+759.4142064921E-03
+289.5000E-09,+786.6108585149E-03
+290.0000E-09,+780.3347080477E-03
+290.5000E-09,+633.8911971533E-03
+291.0000E-09,+243.7238431282E-03
+291.5000E-09,-271.9665202330E-03
+292.0000E-09,-657.9497739450E-03
+292.5000E-09,-843.0962127171E-03
+293.0000E-09,-850.4183882613E-03
+293.5000E-09,-825.3137863938E-03
+294.0000E-09,-789.7489337485E-03
+294.5000E-09,-826.3598114721E-03
+295.0000E-09,-870.2928647399E-03
+295.5000E-09,-892.2593913738E-03
+296.0000E-09,-887.0292659849E-03
+296.5000E-09,-881.7991405960E-03
+297.0000E-09,-867.1547895063E-03
+297.5000E-09,-813.8075105378E-03
+298.0000E-09,-670.5020748770E-03
+298.5000E-09,-393.3054292564E-03
+299.0000E-09,+40.7949780365E-03
+299.5000E-09,+516.7363884407E-03
+300.0000E-09,+875.5229901299E-03
+300.5000E-09,+1.0658995542910E+00
+301.0000E-09,+1.1014644069363E+00
+301.5000E-09,+1.0481171279677E+00
+302.0000E-09,+1.0146443254777E+00
+302.5000E-09,+970.7112722099E-03
+303.0000E-09,+940.3765449535E-03
+303.5000E-09,+942.4685951088E-03
+304.0000E-09,+953.9748709649E-03
+304.5000E-09,+937.2384697199E-03
+305.0000E-09,+920.5020684749E-03
+305.5000E-09,+920.5020684749E-03
+306.0000E-09,+906.9037424635E-03
+306.5000E-09,+915.2719430859E-03
+307.0000E-09,+821.1296860821E-03
+307.5000E-09,+520.9204887494E-03
+308.0000E-09,+3.1380752317E-03
+308.5000E-09,-539.7489401526E-03
+309.0000E-09,-902.7196421526E-03
+309.5000E-09,-1.0376568771899E+00
+310.0000E-09,-1.0209204759449E+00
+310.5000E-09,-964.4351217428E-03
+311.0000E-09,-920.5020684749E-03
+311.5000E-09,-875.5229901289E-03
+312.0000E-09,-754.1840811022E-03
+312.5000E-09,-453.9748837695E-03
+313.0000E-09,+4.1841003124E-03
+313.5000E-09,+398.5355546472E-03
+314.0000E-09,+595.1882692755E-03
+314.5000E-09,+664.2259244110E-03
+315.0000E-09,+669.4560497999E-03
+315.5000E-09,+646.4434980879E-03
+316.0000E-09,+383.8912035561E-03
+316.5000E-09,-71.1297052923E-03
+317.0000E-09,-533.4727896852E-03
+317.5000E-09,-844.1422377950E-03
+318.0000E-09,-957.1129461984E-03
+318.5000E-09,-953.9748709649E-03
+319.0000E-09,-917.3639932414E-03
+319.5000E-09,-875.5229901289E-03
+320.0000E-09,-870.2928647399E-03
+320.5000E-09,-881.7991405959E-03
+321.0000E-09,-883.8911907514E-03
+321.5000E-09,-858.7865888839E-03
+322.0000E-09,-839.9581374834E-03
+322.5000E-09,-853.5564634949E-03
+323.0000E-09,-816.9455857714E-03
+323.5000E-09,-701.8828272119E-03
+324.0000E-09,-403.7656800348E-03
+324.5000E-09,+87.8661065371E-03
+325.0000E-09,+600.4183946650E-03
+325.5000E-09,+927.8242440199E-03
+326.0000E-09,+1.1046024821699E+00
+326.5000E-09,+1.1046024821699E+00
+327.0000E-09,+1.0481171279679E+00
+327.5000E-09,+1.0041840746999E+00
+328.0000E-09,+967.5731969764E-03
+328.5000E-09,+942.4685951089E-03
+329.0000E-09,+854.6024885724E-03
+329.5000E-09,+565.8995670959E-03
+330.0000E-09,+116.1087836365E-03
+330.5000E-09,-292.8870217880E-03
+331.0000E-09,-521.9665138284E-03
+331.5000E-09,-575.3137927969E-03
+332.0000E-09,-599.3723695864E-03
+332.5000E-09,-501.0460122720E-03
+333.0000E-09,-219.6652663401E-03
+333.5000E-09,+198.7447647848E-03
+334.0000E-09,+627.6150466878E-03
+334.5000E-09,+894.3514415298E-03
+335.0000E-09,+1.0041840746999E+00
+335.5000E-09,+1.0041840746999E+00
+336.0000E-09,+953.9748709649E-03
+336.5000E-09,+908.9957926189E-03
+337.0000E-09,+824.2677613160E-03
+337.5000E-09,+532.4267646062E-03
+338.0000E-09,+42.8870281898E-03
+338.5000E-09,-443.5146329928E-03
+339.0000E-09,-745.8158804803E-03
+339.5000E-09,-814.8535356159E-03
+340.0000E-09,-816.9455857714E-03
+340.5000E-09,-775.1045826589E-03
+341.0000E-09,-723.8493538460E-03
+341.5000E-09,-505.2301125832E-03
+342.0000E-09,-65.8995799018E-03
+342.5000E-09,+371.3389026236E-03
+343.0000E-09,+701.8828272122E-03
+343.5000E-09,+814.8535356159E-03
+344.0000E-09,+816.9455857714E-03
+344.5000E-09,+798.1171343709E-03
+345.0000E-09,+800.2091845265E-03
+345.5000E-09,+678.8702755002E-03
+346.0000E-09,+310.6694481101E-03
+346.5000E-09,-211.2970657183E-03
+347.0000E-09,-644.3514479325E-03
+347.5000E-09,-843.0962127168E-03
+348.0000E-09,-903.7656672299E-03
+348.5000E-09,-875.5229901289E-03
+349.0000E-09,-833.6819870165E-03
+349.5000E-09,-768.8284321921E-03
+350.0000E-09,-557.5313664739E-03
+350.5000E-09,-112.9707084036E-03
+351.0000E-09,+326.3598242775E-03
+351.5000E-09,+654.8116987105E-03
+352.0000E-09,+756.2761312583E-03
+352.5000E-09,+769.8744572699E-03
+353.0000E-09,+759.4142064918E-03
+353.5000E-09,+803.3472597599E-03
+354.0000E-09,+873.4309399733E-03
+354.5000E-09,+903.7656672299E-03
+355.0000E-09,+934.1003944865E-03
+355.5000E-09,+908.9957926190E-03
+356.0000E-09,+883.8911907515E-03
+356.5000E-09,+830.5439117831E-03
+357.0000E-09,+723.8493538462E-03
+357.5000E-09,+516.7363884394E-03
+358.0000E-09,+216.5271911073E-03
+358.5000E-09,-243.7238431301E-03
+359.0000E-09,-661.0878491773E-03
+359.5000E-09,-933.0543694086E-03
+360.0000E-09,-1.0543932784349E+00
+360.5000E-09,-1.0261506013340E+00
+361.0000E-09,-981.1715229881E-03
+361.5000E-09,-937.2384697199E-03
+362.0000E-09,-917.3639932415E-03
+362.5000E-09,-897.4895167631E-03
+363.0000E-09,-787.6568835929E-03
+363.5000E-09,-482.2175608718E-03
+364.0000E-09,-49.1631786575E-03
+364.5000E-09,+336.8200750554E-03
+365.0000E-09,+544.9790655402E-03
+365.5000E-09,+625.5229965317E-03
+366.0000E-09,+649.5815733215E-03
+366.5000E-09,+511.5062630504E-03
+367.0000E-09,+169.4560626060E-03
+367.5000E-09,-293.9330468649E-03
+368.0000E-09,-691.4225764337E-03
+368.5000E-09,-921.5480935526E-03
+369.0000E-09,-970.7112722099E-03
+369.5000E-09,-930.9623192531E-03
+370.0000E-09,-870.2928647399E-03
+370.5000E-09,-847.2803130281E-03
+371.0000E-09,-700.8368021346E-03
+371.5000E-09,-342.0502004451E-03
+372.0000E-09,+151.6736362823E-03
+372.5000E-09,+594.1422441970E-03
+373.0000E-09,+826.3598114717E-03
+373.5000E-09,+870.2928647399E-03
+374.0000E-09,+856.6945387283E-03
+374.5000E-09,+865.0627393508E-03
+375.0000E-09,+804.3932848380E-03
+375.5000E-09,+515.6903633620E-03
+376.0000E-09,+46.0251034245E-03
+376.5000E-09,-416.3179809687E-03
+377.0000E-09,-698.7447519784E-03
+377.5000E-09,-786.6108585149E-03
+378.0000E-09,-749.9999807915E-03
+378.5000E-09,-724.8953789240E-03
+379.0000E-09,-759.4142064916E-03
+379.5000E-09,-820.0836610049E-03
+380.0000E-09,-856.6945387283E-03
+380.5000E-09,-870.2928647399E-03
+381.0000E-09,-870.2928647399E-03
+381.5000E-09,-825.3137863940E-03
+382.0000E-09,-726.9874290798E-03
+382.5000E-09,-578.4518680306E-03
+383.0000E-09,-355.6485264565E-03
+383.5000E-09,-2.0920501564E-03
+384.0000E-09,+416.3179809685E-03
+384.5000E-09,+800.2091845259E-03
+385.0000E-09,+1.0135983003999E+00
+385.5000E-09,+1.0826359555357E+00
+386.0000E-09,+1.0815899304582E+00
+386.5000E-09,+1.0094142000890E+00
+387.0000E-09,+970.7112722099E-03
+387.5000E-09,+947.6987204982E-03
+388.0000E-09,+953.9748709649E-03
+388.5000E-09,+953.9748709649E-03
+389.0000E-09,+950.8367957315E-03
+389.5000E-09,+942.4685951090E-03
+390.0000E-09,+930.9623192532E-03
+390.5000E-09,+925.7321938641E-03
+391.0000E-09,+917.3639932416E-03
+391.5000E-09,+870.2928647399E-03
+392.0000E-09,+691.4225764349E-03
+392.5000E-09,+246.8619183650E-03
+393.0000E-09,-308.5773979533E-03
+393.5000E-09,-773.0125325024E-03
+394.0000E-09,-1.0104602251665E+00
+394.5000E-09,-1.0543932784349E+00
+395.0000E-09,-997.9079242332E-03
+395.5000E-09,-942.4685951091E-03
+396.0000E-09,-917.3639932416E-03
+396.5000E-09,-903.7656672299E-03
+397.0000E-09,-903.7656672299E-03
+397.5000E-09,-903.7656672299E-03
+398.0000E-09,-900.6275919966E-03
+398.5000E-09,-887.0292659849E-03
+399.0000E-09,-887.0292659849E-03
+399.5000E-09,-858.7865888841E-03
+400.0000E-09,-734.3096046250E-03
+400.5000E-09,-408.9958054260E-03
+401.0000E-09,+117.1548087130E-03
+401.5000E-09,+662.1338742539E-03
+402.0000E-09,+956.0669211197E-03
+402.5000E-09,+1.0774058301465E+00
+403.0000E-09,+1.0648535292133E+00
+403.5000E-09,+992.6777988441E-03
+404.0000E-09,+937.2384697199E-03
+404.5000E-09,+925.7321938641E-03
+405.0000E-09,+837.8660873284E-03
+405.5000E-09,+549.1631658527E-03
+406.0000E-09,+96.2343071604E-03
+406.5000E-09,-349.3723759880E-03
+407.0000E-09,-625.5229965315E-03
+407.5000E-09,-686.1924510449E-03
+408.0000E-09,-669.4560497999E-03
+408.5000E-09,-657.9497739441E-03
+409.0000E-09,-460.2510342386E-03
+409.5000E-09,-74.2677805263E-03
+410.0000E-09,+399.5815797228E-03
+410.5000E-09,+743.7238303238E-03
+411.0000E-09,+929.9162941747E-03
+411.5000E-09,+975.9413975991E-03
+412.0000E-09,+934.1003944866E-03
+412.5000E-09,+897.4895167633E-03
+413.0000E-09,+841.0041625618E-03
+413.5000E-09,+594.1422441986E-03
+414.0000E-09,+143.3054356624E-03
+414.5000E-09,-344.1422505985E-03
+415.0000E-09,-721.7573036896E-03
+415.5000E-09,-848.3263381057E-03
+416.0000E-09,-867.1547895066E-03
+416.5000E-09,-836.8200622499E-03
+417.0000E-09,-797.0711092934E-03
+417.5000E-09,-662.1338742561E-03
+418.0000E-09,-300.2091973340E-03
+418.5000E-09,+176.7782381484E-03
+419.0000E-09,+571.1296924846E-03
+419.5000E-09,+747.9079306357E-03
+420.0000E-09,+786.6108585149E-03
+420.5000E-09,+769.8744572699E-03
+421.0000E-09,+769.8744572699E-03
+421.5000E-09,+718.6192284576E-03
+422.0000E-09,+464.4351345509E-03
+422.5000E-09,-37.6569027991E-03
+423.0000E-09,-499.9999871925E-03
+423.5000E-09,-815.8995606929E-03
+424.0000E-09,-920.5020684749E-03
+424.5000E-09,-887.0292659849E-03
+425.0000E-09,-864.0167142734E-03
+425.5000E-09,-825.3137863942E-03
+426.0000E-09,-680.9623256572E-03
+426.5000E-09,-308.5773979567E-03
+427.0000E-09,+151.6736362807E-03
+427.5000E-09,+532.4267646052E-03
+428.0000E-09,+729.0794792346E-03
+428.5000E-09,+786.6108585149E-03
+429.0000E-09,+783.4727832817E-03
+429.5000E-09,+786.6108585149E-03
+430.0000E-09,+707.1129526020E-03
+430.5000E-09,+398.5355546483E-03
+431.0000E-09,-84.7280313006E-03
+431.5000E-09,-550.2091909273E-03
+432.0000E-09,-832.6359619378E-03
+432.5000E-09,-903.7656672299E-03
+433.0000E-09,-880.7531155184E-03
+433.5000E-09,-825.3137863942E-03
+434.0000E-09,-816.9455857717E-03
+434.5000E-09,-650.6275984006E-03
+435.0000E-09,-280.3347208563E-03
+435.5000E-09,+216.5271911044E-03
+436.0000E-09,+598.3263445078E-03
+436.5000E-09,+776.1506077364E-03
+437.0000E-09,+803.3472597599E-03
+437.5000E-09,+786.6108585149E-03
+438.0000E-09,+800.2091845267E-03
+438.5000E-09,+723.8493538470E-03
+439.0000E-09,+414.2259308163E-03
+439.5000E-09,-71.1297052885E-03
+440.0000E-09,-527.1966392156E-03
+440.5000E-09,-810.6694353034E-03
+441.0000E-09,-870.2928647399E-03
+441.5000E-09,-842.0501876392E-03
+442.0000E-09,-803.3472597599E-03
+442.5000E-09,-791.8409839042E-03
+443.0000E-09,-594.1422441993E-03
+443.5000E-09,-179.9163133865E-03
+444.0000E-09,+296.0250970188E-03
+444.5000E-09,+654.8116987091E-03
+445.0000E-09,+803.3472597599E-03
+445.5000E-09,+825.3137863942E-03
+446.0000E-09,+820.0836610049E-03
+446.5000E-09,+820.0836610049E-03
+447.0000E-09,+747.9079306376E-03
+447.5000E-09,+437.2384825280E-03
+448.0000E-09,-71.1297052883E-03
+448.5000E-09,-521.9665138262E-03
+449.0000E-09,-792.8870089813E-03
+449.5000E-09,-853.5564634949E-03
+450.0000E-09,-820.0836610049E-03
+450.5000E-09,-803.3472597599E-03
+451.0000E-09,-763.5983068035E-03
+451.5000E-09,-555.4393163202E-03
+452.0000E-09,-112.9707084068E-03
+452.5000E-09,+366.1087772317E-03
+453.0000E-09,+701.8828272108E-03
+453.5000E-09,+831.5899368606E-03
+454.0000E-09,+836.8200622499E-03
+454.5000E-09,+825.3137863942E-03
+455.0000E-09,+820.0836610049E-03
+455.5000E-09,+746.8619055586E-03
+456.0000E-09,+414.2259308169E-03
+456.5000E-09,-71.1297052880E-03
+457.0000E-09,-543.9330404602E-03
+457.5000E-09,-799.1631594476E-03
+458.0000E-09,-867.1547895067E-03
+458.5000E-09,-825.3137863942E-03
+459.0000E-09,-786.6108585149E-03
+459.5000E-09,-746.8619055586E-03
+460.0000E-09,-520.9204887533E-03
+460.5000E-09,-79.4979059170E-03
+461.0000E-09,+382.8451784766E-03
+461.5000E-09,+726.9874290782E-03
+462.0000E-09,+853.5564634949E-03
+462.5000E-09,+836.8200622499E-03
+463.0000E-09,+820.0836610049E-03
+463.5000E-09,+825.3137863943E-03
+464.0000E-09,+720.7112786142E-03
+464.5000E-09,+370.2928775485E-03
+465.0000E-09,-121.3389090228E-03
+465.5000E-09,-555.4393163158E-03
+466.0000E-09,-796.0250842143E-03
+466.5000E-09,-853.5564634949E-03
+467.0000E-09,-803.3472597599E-03
+467.5000E-09,-775.1045826593E-03
+468.0000E-09,-743.7238303255E-03
+468.5000E-09,-493.7238367298E-03
+469.0000E-09,-46.0251034274E-03
+469.5000E-09,+433.0543822114E-03
+470.0000E-09,+748.9539557124E-03
+470.5000E-09,+848.3263381055E-03
+471.0000E-09,+836.8200622499E-03
+471.5000E-09,+820.0836610049E-03
+472.0000E-09,+833.6819870168E-03
+472.5000E-09,+707.1129526024E-03
+473.0000E-09,+364.0167270825E-03
+473.5000E-09,-154.8117115126E-03
+474.0000E-09,-580.5439181830E-03
+474.5000E-09,-821.1296860818E-03
+475.0000E-09,-850.4183882618E-03
+475.5000E-09,-808.5773851493E-03
+476.0000E-09,-786.6108585149E-03
+476.5000E-09,-730.1255043137E-03
+477.0000E-09,-473.8493602519E-03
+477.5000E-09,-7.3221755482E-03
+478.0000E-09,+446.6527082230E-03
+478.5000E-09,+743.7238303230E-03
+479.0000E-09,+836.8200622499E-03
+479.5000E-09,+853.5564634949E-03
+480.0000E-09,+823.2217362380E-03
+480.5000E-09,+820.0836610049E-03
+481.0000E-09,+684.1004008911E-03
+481.5000E-09,+313.8075233472E-03
+482.0000E-09,-201.8828400146E-03
+482.5000E-09,-616.1087708295E-03
+483.0000E-09,-823.2217362380E-03
+483.5000E-09,-853.5564634949E-03
+484.0000E-09,-816.9455857717E-03
+484.5000E-09,-791.8409839042E-03
+485.0000E-09,-723.8493538473E-03
+485.5000E-09,-448.7447583840E-03
+486.0000E-09,+17.7824263199E-03
+486.5000E-09,+483.2635859467E-03
+487.0000E-09,+765.6903569576E-03
+487.5000E-09,+859.8326139613E-03
+488.0000E-09,+809.6234102263E-03
+488.5000E-09,+820.0836610049E-03
+489.0000E-09,+826.3598114713E-03
+489.5000E-09,+881.7991405956E-03
+490.0000E-09,+890.1673412181E-03
+490.5000E-09,+898.5355418406E-03
+491.0000E-09,+893.3054164513E-03
+491.5000E-09,+903.7656672299E-03
+492.0000E-09,+856.6945387281E-03
+492.5000E-09,+774.0585575821E-03
+493.0000E-09,+623.4309463771E-03
+493.5000E-09,+456.0669339270E-03
+494.0000E-09,+288.7029214771E-03
+494.5000E-09,+149.5815861278E-03
+495.0000E-09,+47.0711285018E-03
+495.5000E-09,-28.2426771007E-03
+496.0000E-09,-89.9581566915E-03
+496.5000E-09,-173.6401629165E-03
+497.0000E-09,-184.1004136950E-03
+497.5000E-09,-212.3430907957E-03
+498.0000E-09,-234.3096174300E-03
+498.5000E-09,-256.2761440642E-03
+499.0000E-09,-284.5188211650E-03
+499.5000E-09,-296.0250970207E-03
+500.0000E-09,-307.5313728765E-03
+500.5000E-09,-341.0041753665E-03
+501.0000E-09,-368.2008273900E-03
+501.5000E-09,-396.4435044907E-03
+502.0000E-09,-438.2845076032E-03
+502.5000E-09,-463.3891094707E-03
+503.0000E-09,-521.9665138282E-03
+503.5000E-09,-580.5439181857E-03
+504.0000E-09,-639.1213225432E-03
+504.5000E-09,-680.9623256557E-03
+505.0000E-09,-669.4560497999E-03
+505.5000E-09,-669.4560497999E-03
+506.0000E-09,-652.7196485549E-03
+506.5000E-09,-647.4895231657E-03
+507.0000E-09,-602.5104448199E-03
+507.5000E-09,-596.2342943533E-03
+508.0000E-09,-565.8995670966E-03
+508.5000E-09,-540.7949652291E-03
+509.0000E-09,-505.2301125833E-03
+509.5000E-09,-473.8493602491E-03
+510.0000E-09,-465.4811596266E-03
+510.5000E-09,-423.6401565141E-03
+511.0000E-09,-401.6736298800E-03
+511.5000E-09,-368.2008273900E-03
+512.0000E-09,-348.3263509116E-03
+512.5000E-09,-329.4978995108E-03
+513.0000E-09,-328.4518744333E-03
+513.5000E-09,-284.5188211650E-03
+514.0000E-09,-251.0460186750E-03
+514.5000E-09,-222.8033415741E-03
+515.0000E-09,-197.6987397066E-03
+515.5000E-09,-184.1004136950E-03
+516.0000E-09,-161.0878619833E-03
+516.5000E-09,-139.1213353491E-03
+517.0000E-09,-117.1548087150E-03
+517.5000E-09,-105.6485328591E-03
+518.0000E-09,-70.0836802134E-03
+518.5000E-09,-61.7154795909E-03
+519.0000E-09,-33.4728024900E-03
+519.5000E-09,-15.6903761673E-03
+520.0000E-09,+0.0E+00
+520.5000E-09,+11.5062758559E-03
+521.0000E-09,+16.7364012450E-03
+521.5000E-09,+16.7364012450E-03
+522.0000E-09,+19.8744764784E-03
+522.5000E-09,+39.7489529568E-03
+523.0000E-09,+50.2092037350E-03
+523.5000E-09,+55.4393291241E-03
+524.0000E-09,+70.0836802134E-03
+524.5000E-09,+83.6820062250E-03
+525.0000E-09,+83.6820062250E-03
+525.5000E-09,+95.1882820809E-03
+526.0000E-09,+97.2803322366E-03
+526.5000E-09,+83.6820062250E-03
+527.0000E-09,+97.2803322366E-03
+527.5000E-09,+95.1882820809E-03
+528.0000E-09,+83.6820062250E-03
+528.5000E-09,+83.6820062250E-03
+529.0000E-09,+97.2803322366E-03
+529.5000E-09,+111.9246833259E-03
+530.0000E-09,+100.4184074700E-03
+530.5000E-09,+111.9246833259E-03
+531.0000E-09,+117.1548087150E-03
+531.5000E-09,+117.1548087150E-03
+532.0000E-09,+114.0167334815E-03
+532.5000E-09,+117.1548087150E-03
+533.0000E-09,+114.0167334815E-03
+533.5000E-09,+105.6485328590E-03
+534.0000E-09,+117.1548087150E-03
+534.5000E-09,+117.1548087150E-03
+535.0000E-09,+114.0167334815E-03
+535.5000E-09,+100.4184074700E-03
+536.0000E-09,+117.1548087150E-03
+536.5000E-09,+111.9246833260E-03
+537.0000E-09,+117.1548087150E-03
+537.5000E-09,+111.9246833260E-03
+538.0000E-09,+100.4184074700E-03
+538.5000E-09,+88.9121316140E-03
+539.0000E-09,+114.0167334815E-03
+539.5000E-09,+111.9246833260E-03
+540.0000E-09,+100.4184074700E-03
+540.5000E-09,+100.4184074700E-03
+541.0000E-09,+97.2803322365E-03
+541.5000E-09,+100.4184074700E-03
+542.0000E-09,+100.4184074700E-03
+542.5000E-09,+100.4184074700E-03
+543.0000E-09,+100.4184074700E-03
+543.5000E-09,+100.4184074700E-03
+544.0000E-09,+97.2803322365E-03
+544.5000E-09,+83.6820062250E-03
+545.0000E-09,+70.0836802135E-03
+545.5000E-09,+78.4518808360E-03
+546.0000E-09,+80.5439309914E-03
+546.5000E-09,+66.9456049800E-03
+547.0000E-09,+66.9456049800E-03
+547.5000E-09,+55.4393291239E-03
+548.0000E-09,+66.9456049800E-03
+548.5000E-09,+83.6820062250E-03
+549.0000E-09,+83.6820062250E-03
+549.5000E-09,+83.6820062250E-03
+550.0000E-09,+80.5439309914E-03
+550.5000E-09,+66.9456049800E-03
+551.0000E-09,+53.3472789686E-03
+551.5000E-09,+67.9916300583E-03
+552.0000E-09,+80.5439309914E-03
+552.5000E-09,+60.6694545128E-03
+553.0000E-09,+53.3472789686E-03
+553.5000E-09,+66.9456049800E-03
+554.0000E-09,+53.3472789686E-03
+554.5000E-09,+50.2092037350E-03
+555.0000E-09,+50.2092037350E-03
+555.5000E-09,+50.2092037350E-03
+556.0000E-09,+53.3472789686E-03
+556.5000E-09,+55.4393291239E-03
+557.0000E-09,+50.2092037350E-03
+557.5000E-09,+44.9790783461E-03
+558.0000E-09,+47.0711285014E-03
+558.5000E-09,+33.4728024900E-03
+559.0000E-09,+33.4728024900E-03
+559.5000E-09,+33.4728024900E-03
+560.0000E-09,+36.6108777236E-03
+560.5000E-09,+44.9790783461E-03
+561.0000E-09,+36.6108777236E-03
+561.5000E-09,+50.2092037350E-03
+562.0000E-09,+33.4728024900E-03
+562.5000E-09,+44.9790783461E-03
+563.0000E-09,+33.4728024900E-03
+563.5000E-09,+33.4728024900E-03
+564.0000E-09,+33.4728024900E-03
+564.5000E-09,+38.7029278788E-03
+565.0000E-09,+33.4728024900E-03
+565.5000E-09,+28.2426771012E-03
+566.0000E-09,+33.4728024900E-03
+566.5000E-09,+28.2426771012E-03
+567.0000E-09,+16.7364012450E-03
+567.5000E-09,+28.2426771012E-03
+568.0000E-09,+30.3347272563E-03
+568.5000E-09,+33.4728024900E-03
+569.0000E-09,+33.4728024900E-03
+569.5000E-09,+16.7364012450E-03
+570.0000E-09,+30.3347272563E-03
+570.5000E-09,+10.4602507776E-03
+571.0000E-09,+16.7364012450E-03
+571.5000E-09,+16.7364012450E-03
+572.0000E-09,+13.5983260113E-03
+572.5000E-09,+16.7364012450E-03
+573.0000E-09,+30.3347272563E-03
+573.5000E-09,+16.7364012450E-03
+574.0000E-09,+16.7364012450E-03
+574.5000E-09,+33.4728024900E-03
+575.0000E-09,+16.7364012450E-03
+575.5000E-09,+28.2426771012E-03
+576.0000E-09,+16.7364012450E-03
+576.5000E-09,+16.7364012450E-03
+577.0000E-09,+19.8744764787E-03
+577.5000E-09,+5.2301253888E-03
+578.0000E-09,+16.7364012450E-03
+578.5000E-09,+0.0E+00
+579.0000E-09,+16.7364012450E-03
+579.5000E-09,+5.2301253887E-03
+580.0000E-09,+0.0E+00
+580.5000E-09,+0.0E+00
+581.0000E-09,+16.7364012450E-03
+581.5000E-09,+5.2301253887E-03
+582.0000E-09,+27.1966520225E-03
+582.5000E-09,+16.7364012450E-03
+583.0000E-09,+3.1380752338E-03
+583.5000E-09,+6.2761504676E-03
+584.0000E-09,+0.0E+00
+584.5000E-09,+5.2301253887E-03
+585.0000E-09,+0.0E+00
+585.5000E-09,+0.0E+00
+586.0000E-09,-13.5983260112E-03
+586.5000E-09,+0.0E+00
+587.0000E-09,+3.1380752338E-03
+587.5000E-09,+0.0E+00
+588.0000E-09,-13.5983260112E-03
+588.5000E-09,+5.2301253887E-03
+589.0000E-09,-13.5983260112E-03
+589.5000E-09,+0.0E+00
+590.0000E-09,+13.5983260112E-03
+590.5000E-09,+11.5062758563E-03
+591.0000E-09,+0.0E+00
+591.5000E-09,+0.0E+00
+592.0000E-09,-3.1380752338E-03
+592.5000E-09,+0.0E+00
+593.0000E-09,-13.5983260111E-03
+593.5000E-09,-11.5062758563E-03
+594.0000E-09,-3.1380752338E-03
+594.5000E-09,+6.2761504677E-03
+595.0000E-09,+13.5983260111E-03
+595.5000E-09,+0.0E+00
+596.0000E-09,-3.1380752339E-03
+596.5000E-09,+11.5062758564E-03
+597.0000E-09,+0.0E+00
+597.5000E-09,+5.2301253886E-03
+598.0000E-09,+0.0E+00
+598.5000E-09,-11.5062758564E-03
+599.0000E-09,-16.7364012450E-03
+599.5000E-09,+0.0E+00
+600.0000E-09,+0.0E+00
+600.5000E-09,-11.5062758564E-03
+601.0000E-09,+3.1380752339E-03
+601.5000E-09,-11.5062758564E-03
+602.0000E-09,-3.1380752339E-03
+602.5000E-09,-23.0125517128E-03
+603.0000E-09,+0.0E+00
+603.5000E-09,+0.0E+00
+604.0000E-09,-16.7364012450E-03
+604.5000E-09,+0.0E+00
+605.0000E-09,-3.1380752339E-03
+605.5000E-09,-11.5062758564E-03
+606.0000E-09,+0.0E+00
+606.5000E-09,+5.2301253886E-03
+607.0000E-09,-16.7364012450E-03
+607.5000E-09,+5.2301253886E-03
+608.0000E-09,-13.5983260111E-03
+608.5000E-09,+0.0E+00
+609.0000E-09,-13.5983260110E-03
+609.5000E-09,-16.7364012450E-03
+610.0000E-09,-16.7364012450E-03
+610.5000E-09,-5.2301253885E-03
+611.0000E-09,-3.1380752340E-03
+611.5000E-09,-16.7364012450E-03
+612.0000E-09,-16.7364012450E-03
+612.5000E-09,+5.2301253885E-03
+613.0000E-09,-3.1380752340E-03
+613.5000E-09,-28.2426771015E-03
+614.0000E-09,+0.0E+00
+614.5000E-09,-16.7364012450E-03
+615.0000E-09,-16.7364012450E-03
+615.5000E-09,-5.2301253885E-03
+616.0000E-09,-10.4602507770E-03
+616.5000E-09,-11.5062758565E-03
+617.0000E-09,-3.1380752340E-03
+617.5000E-09,+0.0E+00
+618.0000E-09,-16.7364012450E-03
+618.5000E-09,-5.2301253885E-03
+619.0000E-09,+0.0E+00
+619.5000E-09,-16.7364012450E-03
+620.0000E-09,-13.5983260110E-03
+620.5000E-09,+0.0E+00
+621.0000E-09,-16.7364012450E-03
+621.5000E-09,-5.2301253885E-03
+622.0000E-09,-3.1380752340E-03
+622.5000E-09,-16.7364012450E-03
+623.0000E-09,-16.7364012450E-03
+623.5000E-09,-21.9665266335E-03
+624.0000E-09,-16.7364012450E-03
+624.5000E-09,-16.7364012450E-03
+625.0000E-09,-16.7364012450E-03
+625.5000E-09,-16.7364012450E-03
+626.0000E-09,-16.7364012450E-03
+626.5000E-09,-5.2301253884E-03
+627.0000E-09,-16.7364012450E-03
+627.5000E-09,-16.7364012450E-03
+628.0000E-09,-19.8744764791E-03
+628.5000E-09,-11.5062758566E-03
+629.0000E-09,+0.0E+00
+629.5000E-09,-16.7364012450E-03
+630.0000E-09,-13.5983260109E-03
+630.5000E-09,-16.7364012450E-03
+631.0000E-09,-16.7364012450E-03
+631.5000E-09,-5.2301253884E-03
+632.0000E-09,-16.7364012450E-03
+632.5000E-09,-5.2301253884E-03
+633.0000E-09,-13.5983260109E-03
+633.5000E-09,-16.7364012450E-03
+634.0000E-09,-16.7364012450E-03
+634.5000E-09,-11.5062758566E-03
+635.0000E-09,-16.7364012450E-03
+635.5000E-09,-5.2301253884E-03
+636.0000E-09,-16.7364012450E-03
+636.5000E-09,-16.7364012450E-03
+637.0000E-09,-16.7364012450E-03
+637.5000E-09,-28.2426771016E-03
+638.0000E-09,-16.7364012450E-03
+638.5000E-09,-11.5062758566E-03
+639.0000E-09,-33.4728024900E-03
+639.5000E-09,-5.2301253884E-03
+640.0000E-09,-16.7364012450E-03
+640.5000E-09,-33.4728024900E-03
+641.0000E-09,-27.1966520217E-03
+641.5000E-09,-33.4728024900E-03
+642.0000E-09,-3.1380752342E-03
+642.5000E-09,-28.2426771017E-03
+643.0000E-09,-16.7364012450E-03
+643.5000E-09,-28.2426771017E-03
+644.0000E-09,-19.8744764792E-03
+644.5000E-09,-16.7364012450E-03
+645.0000E-09,-16.7364012450E-03
+645.5000E-09,-28.2426771017E-03
+646.0000E-09,-16.7364012450E-03
+646.5000E-09,-16.7364012450E-03
+647.0000E-09,-47.0711285008E-03
+647.5000E-09,-33.4728024900E-03
+648.0000E-09,-33.4728024900E-03
+648.5000E-09,-28.2426771017E-03
+649.0000E-09,-30.3347272558E-03
+649.5000E-09,-16.7364012450E-03
+650.0000E-09,-16.7364012450E-03
+650.5000E-09,-21.9665266333E-03
+651.0000E-09,-3.1380752342E-03
+651.5000E-09,-16.7364012450E-03
+652.0000E-09,-33.4728024900E-03
+652.5000E-09,-11.5062758567E-03
+653.0000E-09,-30.3347272558E-03
+653.5000E-09,-16.7364012450E-03
+654.0000E-09,-3.1380752342E-03
+654.5000E-09,-21.9665266333E-03
+655.0000E-09,-16.7364012450E-03
+655.5000E-09,-28.2426771017E-03
+656.0000E-09,-16.7364012450E-03
+656.5000E-09,-5.2301253883E-03
+657.0000E-09,-16.7364012450E-03
+657.5000E-09,-16.7364012450E-03
+658.0000E-09,-16.7364012450E-03
+658.5000E-09,-16.7364012450E-03
+659.0000E-09,-16.7364012450E-03
+659.5000E-09,-16.7364012450E-03
+660.0000E-09,-16.7364012450E-03
+660.5000E-09,-16.7364012450E-03
+661.0000E-09,-13.5983260107E-03
+661.5000E-09,-16.7364012450E-03
+662.0000E-09,-30.3347272557E-03
+662.5000E-09,-16.7364012450E-03
+663.0000E-09,-19.8744764793E-03
+663.5000E-09,-21.9665266332E-03
+664.0000E-09,-16.7364012450E-03
+664.5000E-09,-21.9665266332E-03
+665.0000E-09,-13.5983260107E-03
+665.5000E-09,-16.7364012450E-03
+666.0000E-09,-33.4728024900E-03
+666.5000E-09,-28.2426771018E-03
+667.0000E-09,-16.7364012450E-03
+667.5000E-09,-16.7364012450E-03
+668.0000E-09,-16.7364012450E-03
+668.5000E-09,-5.2301253882E-03
+669.0000E-09,-19.8744764793E-03
+669.5000E-09,-16.7364012450E-03
+670.0000E-09,-3.1380752343E-03
+670.5000E-09,-16.7364012450E-03
+671.0000E-09,-16.7364012450E-03
+671.5000E-09,-16.7364012450E-03
+672.0000E-09,-16.7364012450E-03
+672.5000E-09,-28.2426771018E-03
+673.0000E-09,-13.5983260106E-03
+673.5000E-09,-21.9665266331E-03
+674.0000E-09,-16.7364012450E-03
+674.5000E-09,-16.7364012450E-03
+675.0000E-09,-16.7364012450E-03
+675.5000E-09,-16.7364012450E-03
+676.0000E-09,-33.4728024900E-03
+676.5000E-09,-11.5062758569E-03
+677.0000E-09,-16.7364012450E-03
+677.5000E-09,-16.7364012450E-03
+678.0000E-09,+0.0E+00
+678.5000E-09,-16.7364012450E-03
+679.0000E-09,-16.7364012450E-03
+679.5000E-09,-5.2301253881E-03
+680.0000E-09,-30.3347272556E-03
+680.5000E-09,-16.7364012450E-03
+681.0000E-09,-19.8744764794E-03
+681.5000E-09,-16.7364012450E-03
+682.0000E-09,-16.7364012450E-03
+682.5000E-09,-16.7364012450E-03
+683.0000E-09,-13.5983260106E-03
+683.5000E-09,-11.5062758569E-03
+684.0000E-09,-13.5983260106E-03
+684.5000E-09,+0.0E+00
+685.0000E-09,+0.0E+00
+685.5000E-09,-16.7364012450E-03
+686.0000E-09,-16.7364012450E-03
+686.5000E-09,-16.7364012450E-03
+687.0000E-09,-19.8744764794E-03
+687.5000E-09,-21.9665266331E-03
+688.0000E-09,-16.7364012450E-03
+688.5000E-09,-16.7364012450E-03
+689.0000E-09,-3.1380752344E-03
+689.5000E-09,-5.2301253881E-03
+690.0000E-09,-16.7364012450E-03
+690.5000E-09,-16.7364012450E-03
+691.0000E-09,+0.0E+00
+691.5000E-09,-16.7364012450E-03
+692.0000E-09,-16.7364012450E-03
+692.5000E-09,-16.7364012450E-03
+693.0000E-09,-16.7364012450E-03
+693.5000E-09,-16.7364012450E-03
+694.0000E-09,-13.5983260105E-03
+694.5000E-09,-16.7364012450E-03
+695.0000E-09,-19.8744764795E-03
+695.5000E-09,+11.5062758570E-03
+696.0000E-09,-16.7364012450E-03
+696.5000E-09,-16.7364012450E-03
+697.0000E-09,-16.7364012450E-03
+697.5000E-09,-16.7364012450E-03
+698.0000E-09,-6.2761504690E-03
+698.5000E-09,-28.2426771020E-03
+699.0000E-09,-19.8744764795E-03
+699.5000E-09,-16.7364012450E-03
+700.0000E-09,-19.8744764795E-03
+700.5000E-09,-33.4728024900E-03
+701.0000E-09,-16.7364012450E-03
+701.5000E-09,-16.7364012450E-03
+702.0000E-09,-3.1380752345E-03
+702.5000E-09,-11.5062758570E-03
+703.0000E-09,-16.7364012450E-03
+703.5000E-09,-11.5062758570E-03
+704.0000E-09,-16.7364012450E-03
+704.5000E-09,-21.9665266329E-03
+705.0000E-09,-27.1966520209E-03
+705.5000E-09,-16.7364012450E-03
+706.0000E-09,-3.1380752346E-03
+706.5000E-09,-16.7364012450E-03
+707.0000E-09,-3.1380752346E-03
+707.5000E-09,-16.7364012450E-03
+708.0000E-09,-33.4728024900E-03
+708.5000E-09,-11.5062758571E-03
+709.0000E-09,-16.7364012450E-03
+709.5000E-09,-28.2426771021E-03
+710.0000E-09,-3.1380752346E-03
+710.5000E-09,-5.2301253879E-03
+711.0000E-09,-16.7364012450E-03
+711.5000E-09,-10.4602507758E-03
+712.0000E-09,-19.8744764796E-03
+712.5000E-09,-16.7364012450E-03
+713.0000E-09,-16.7364012450E-03
+713.5000E-09,-16.7364012450E-03
+714.0000E-09,-19.8744764796E-03
+714.5000E-09,-33.4728024900E-03
+715.0000E-09,-16.7364012450E-03
+715.5000E-09,-16.7364012450E-03
+716.0000E-09,-30.3347272554E-03
+716.5000E-09,+0.0E+00
+717.0000E-09,-19.8744764796E-03
+717.5000E-09,-16.7364012450E-03
+718.0000E-09,-3.1380752346E-03
+718.5000E-09,-21.9665266329E-03
+719.0000E-09,-16.7364012450E-03
+719.5000E-09,-5.2301253879E-03
+720.0000E-09,-16.7364012450E-03
+720.5000E-09,-16.7364012450E-03
+721.0000E-09,-16.7364012450E-03
+721.5000E-09,-5.2301253878E-03
+722.0000E-09,-16.7364012450E-03
+722.5000E-09,-5.2301253878E-03
+723.0000E-09,-16.7364012450E-03
+723.5000E-09,-28.2426771022E-03
+724.0000E-09,-16.7364012450E-03
+724.5000E-09,-11.5062758572E-03
+725.0000E-09,-3.1380752347E-03
+725.5000E-09,-5.2301253878E-03
