x-axis,1
second,Volt
-288.6000E-09,-16.7364012450E-03
-288.1000E-09,-16.7364012450E-03
-287.6000E-09,+0.0E+00
-287.1000E-09,+0.0E+00
-286.6000E-09,-16.7364012450E-03
-286.1000E-09,+0.0E+00
-285.6000E-09,+0.0E+00
-285.1000E-09,-3.1380752334E-03
-284.6000E-09,+0.0E+00
-284.1000E-09,-3.1380752335E-03
-283.6000E-09,+0.0E+00
-283.1000E-09,-13.5983260115E-03
-282.6000E-09,-5.2301253890E-03
-282.1000E-09,-16.7364012450E-03
-281.6000E-09,+0.0E+00
-281.1000E-09,+0.0E+00
-280.6000E-09,-28.2426771009E-03
-280.1000E-09,-3.1380752335E-03
-279.6000E-09,-11.5062758560E-03
-279.1000E-09,-16.7364012450E-03
-278.6000E-09,-5.2301253890E-03
-278.1000E-09,-13.5983260115E-03
-277.6000E-09,+0.0E+00
-277.1000E-09,-13.5983260115E-03
-276.6000E-09,-11.5062758560E-03
-276.1000E-09,-13.5983260115E-03
-275.6000E-09,-16.7364012450E-03
-275.1000E-09,-3.1380752335E-03
-274.6000E-09,+0.0E+00
-274.1000E-09,-16.7364012450E-03
-273.6000E-09,+0.0E+00
-273.1000E-09,-16.7364012450E-03
-272.6000E-09,-5.2301253890E-03
-272.1000E-09,-13.5983260115E-03
-271.6000E-09,+0.0E+00
-271.1000E-09,+3.1380752335E-03
-270.6000E-09,+0.0E+00
-270.1000E-09,+16.7364012450E-03
-269.6000E-09,+11.5062758560E-03
-269.1000E-09,+0.0E+00
-268.6000E-09,-11.5062758560E-03
-268.1000E-09,+0.0E+00
-267.6000E-09,-11.5062758560E-03
-267.1000E-09,+13.5983260115E-03
-266.6000E-09,+0.0E+00
-266.1000E-09,-16.7364012450E-03
-265.6000E-09,-11.5062758560E-03
-265.1000E-09,-13.5983260115E-03
-264.6000E-09,+0.0E+00
-264.1000E-09,-3.1380752335E-03
-263.6000E-09,+0.0E+00
-263.1000E-09,-3.1380752335E-03
-262.6000E-09,+0.0E+00
-262.1000E-09,+0.0E+00
-261.6000E-09,+6.2761504670E-03
-261.1000E-09,-16.7364012450E-03
-260.6000E-09,+16.7364012450E-03
-260.1000E-09,+0.0E+00
-259.6000E-09,-11.5062758560E-03
-259.1000E-09,-3.1380752335E-03
-258.6000E-09,+5.2301253890E-03
-258.1000E-09,+0.0E+00
-257.6000E-09,-5.2301253890E-03
-257.1000E-09,+0.0E+00
-256.6000E-09,-16.7364012450E-03
-256.1000E-09,-16.7364012450E-03
-255.6000E-09,+5.2301253890E-03
-255.1000E-09,-13.5983260115E-03
-254.6000E-09,-11.5062758560E-03
-254.1000E-09,+0.0E+00
-253.6000E-09,-5.2301253890E-03
-253.1000E-09,-6.2761504671E-03
-252.6000E-09,-11.5062758560E-03
-252.1000E-09,-3.1380752335E-03
-251.6000E-09,+0.0E+00
-251.1000E-09,-16.7364012450E-03
-250.6000E-09,-11.5062758560E-03
-250.1000E-09,-16.7364012450E-03
-249.6000E-09,-11.5062758560E-03
-249.1000E-09,+0.0E+00
-248.6000E-09,-11.5062758560E-03
-248.1000E-09,-19.8744764785E-03
-247.6000E-09,+0.0E+00
-247.1000E-09,-16.7364012450E-03
-246.6000E-09,+11.5062758560E-03
-246.1000E-09,+0.0E+00
-245.6000E-09,-5.2301253889E-03
-245.1000E-09,-16.7364012450E-03
-244.6000E-09,+0.0E+00
-244.1000E-09,+0.0E+00
-243.6000E-09,-5.2301253889E-03
-243.1000E-09,-3.1380752336E-03
-242.6000E-09,+0.0E+00
-242.1000E-09,-13.5983260114E-03
-241.6000E-09,+5.2301253889E-03
-241.1000E-09,+0.0E+00
-240.6000E-09,-5.2301253889E-03
-240.1000E-09,-16.7364012450E-03
-239.6000E-09,-16.7364012450E-03
-239.1000E-09,+0.0E+00
-238.6000E-09,-11.5062758561E-03
-238.1000E-09,-3.1380752336E-03
-237.6000E-09,-21.9665266339E-03
-237.1000E-09,-16.7364012450E-03
-236.6000E-09,+0.0E+00
-236.1000E-09,+0.0E+00
-235.6000E-09,-16.7364012450E-03
-235.1000E-09,+0.0E+00
-234.6000E-09,-16.7364012450E-03
-234.1000E-09,-13.5983260114E-03
-233.6000E-09,-11.5062758561E-03
-233.1000E-09,-13.5983260114E-03
-232.6000E-09,-5.2301253889E-03
-232.1000E-09,-16.7364012450E-03
-231.6000E-09,-5.2301253889E-03
-231.1000E-09,-27.1966520229E-03
-230.6000E-09,+0.0E+00
-230.1000E-09,+0.0E+00
-229.6000E-09,+0.0E+00
-229.1000E-09,+3.1380752335E-03
-228.6000E-09,+6.2761504671E-03
-228.1000E-09,+0.0E+00
-227.6000E-09,-11.5062758560E-03
-227.1000E-09,-3.1380752335E-03
-226.6000E-09,-11.5062758560E-03
-226.1000E-09,+0.0E+00
-225.6000E-09,+0.0E+00
-225.1000E-09,+0.0E+00
-224.6000E-09,-11.5062758560E-03
-224.1000E-09,+0.0E+00
-223.6000E-09,+5.2301253890E-03
-223.1000E-09,+3.1380752335E-03
-222.6000E-09,+0.0E+00
-222.1000E-09,+3.1380752335E-03
-221.6000E-09,-5.2301253890E-03
-221.1000E-09,-16.7364012450E-03
-220.6000E-09,-21.9665266340E-03
-220.1000E-09,-3.1380752335E-03
-219.6000E-09,+0.0E+00
-219.1000E-09,-16.7364012450E-03
-218.6000E-09,+0.0E+00
-218.1000E-09,-16.7364012450E-03
-217.6000E-09,-11.5062758560E-03
-217.1000E-09,+13.5983260115E-03
-216.6000E-09,-16.7364012450E-03
-216.1000E-09,-6.2761504671E-03
-215.6000E-09,-11.5062758560E-03
-215.1000E-09,-3.1380752335E-03
-214.6000E-09,-11.5062758560E-03
-214.1000E-09,+3.1380752335E-03
-213.6000E-09,+16.7364012450E-03
-213.1000E-09,-3.1380752335E-03
-212.6000E-09,-11.5062758560E-03
-212.1000E-09,-13.5983260115E-03
-211.6000E-09,-11.5062758560E-03
-211.1000E-09,-3.1380752335E-03
-210.6000E-09,-5.2301253890E-03
-210.1000E-09,-16.7364012450E-03
-209.6000E-09,+5.2301253890E-03
-209.1000E-09,+0.0E+00
-208.6000E-09,+0.0E+00
-208.1000E-09,-13.5983260115E-03
-207.6000E-09,+0.0E+00
-207.1000E-09,+13.5983260115E-03
-206.6000E-09,+0.0E+00
-206.1000E-09,+0.0E+00
-205.6000E-09,-11.5062758560E-03
-205.1000E-09,-16.7364012450E-03
-204.6000E-09,+0.0E+00
-204.1000E-09,+0.0E+00
-203.6000E-09,-21.9665266340E-03
-203.1000E-09,+0.0E+00
-202.6000E-09,-11.5062758560E-03
-202.1000E-09,-16.7364012450E-03
-201.6000E-09,-11.5062758560E-03
-201.1000E-09,-16.7364012450E-03
-200.6000E-09,+0.0E+00
-200.1000E-09,-13.5983260115E-03
-199.6000E-09,-16.7364012450E-03
-199.1000E-09,-16.7364012450E-03
-198.6000E-09,-16.7364012450E-03
-198.1000E-09,-13.5983260115E-03
-197.6000E-09,-16.7364012450E-03
-197.1000E-09,-16.7364012450E-03
-196.6000E-09,+11.5062758560E-03
-196.1000E-09,+0.0E+00
-195.6000E-09,-16.7364012450E-03
-195.1000E-09,-16.7364012450E-03
-194.6000E-09,-21.9665266340E-03
-194.1000E-09,-16.7364012450E-03
-193.6000E-09,-16.7364012450E-03
-193.1000E-09,-3.1380752335E-03
-192.6000E-09,-11.5062758560E-03
-192.1000E-09,-3.1380752335E-03
-191.6000E-09,+0.0E+00
-191.1000E-09,-13.5983260115E-03
-190.6000E-09,+0.0E+00
-190.1000E-09,+0.0E+00
-189.6000E-09,-5.2301253890E-03
-189.1000E-09,-16.7364012450E-03
-188.6000E-09,-16.7364012450E-03
-188.1000E-09,-3.1380752335E-03
-187.6000E-09,-16.7364012450E-03
-187.1000E-09,-16.7364012450E-03
-186.6000E-09,-16.7364012450E-03
-186.1000E-09,-16.7364012450E-03
-185.6000E-09,-11.5062758560E-03
-185.1000E-09,+0.0E+00
-184.6000E-09,-5.2301253890E-03
-184.1000E-09,-3.1380752335E-03
-183.6000E-09,+0.0E+00
-183.1000E-09,-13.5983260115E-03
-182.6000E-09,-5.2301253890E-03
-182.1000E-09,-16.7364012450E-03
-181.6000E-09,-11.5062758560E-03
-181.1000E-09,-13.5983260115E-03
-180.6000E-09,-11.5062758560E-03
-180.1000E-09,+0.0E+00
-179.6000E-09,-11.5062758560E-03
-179.1000E-09,+0.0E+00
-178.6000E-09,+0.0E+00
-178.1000E-09,-27.1966520231E-03
-177.6000E-09,-16.7364012450E-03
-177.1000E-09,-3.1380752334E-03
-176.6000E-09,-16.7364012450E-03
-176.1000E-09,-13.5983260115E-03
-175.6000E-09,-16.7364012450E-03
-175.1000E-09,-13.5983260116E-03
-174.6000E-09,-5.2301253891E-03
-174.1000E-09,-3.1380752334E-03
-173.6000E-09,-11.5062758559E-03
-173.1000E-09,-16.7364012450E-03
-172.6000E-09,+0.0E+00
-172.1000E-09,+0.0E+00
-171.6000E-09,-16.7364012450E-03
-171.1000E-09,-3.1380752334E-03
-170.6000E-09,-11.5062758559E-03
-170.1000E-09,-30.3347272566E-03
-169.6000E-09,-11.5062758559E-03
-169.1000E-09,-16.7364012450E-03
-168.6000E-09,-16.7364012450E-03
-168.1000E-09,-13.5983260116E-03
-167.6000E-09,-5.2301253891E-03
-167.1000E-09,-16.7364012450E-03
-166.6000E-09,-11.5062758559E-03
-166.1000E-09,+16.7364012450E-03
-165.6000E-09,+11.5062758559E-03
-165.1000E-09,-16.7364012450E-03
-164.6000E-09,+0.0E+00
-164.1000E-09,-13.5983260116E-03
-163.6000E-09,-11.5062758559E-03
-163.1000E-09,-3.1380752334E-03
-162.6000E-09,-16.7364012450E-03
-162.1000E-09,-13.5983260116E-03
-161.6000E-09,-16.7364012450E-03
-161.1000E-09,-13.5983260116E-03
-160.6000E-09,-16.7364012450E-03
-160.1000E-09,-16.7364012450E-03
-159.6000E-09,-11.5062758559E-03
-159.1000E-09,+0.0E+00
-158.6000E-09,-16.7364012450E-03
-158.1000E-09,-13.5983260116E-03
-157.6000E-09,-11.5062758559E-03
-157.1000E-09,-3.1380752334E-03
-156.6000E-09,-5.2301253891E-03
-156.1000E-09,+0.0E+00
-155.6000E-09,-11.5062758559E-03
-155.1000E-09,-16.7364012450E-03
-154.6000E-09,-11.5062758559E-03
-154.1000E-09,-3.1380752334E-03
-153.6000E-09,+0.0E+00
-153.1000E-09,-3.1380752334E-03
-152.6000E-09,-16.7364012450E-03
-152.1000E-09,-3.1380752334E-03
-151.6000E-09,-16.7364012450E-03
-151.1000E-09,-13.5983260116E-03
-150.6000E-09,-5.2301253891E-03
-150.1000E-09,-13.5983260116E-03
-149.6000E-09,+0.0E+00
-149.1000E-09,+0.0E+00
-148.6000E-09,+0.0E+00
-148.1000E-09,+0.0E+00
-147.6000E-09,+0.0E+00
-147.1000E-09,-3.1380752334E-03
-146.6000E-09,-5.2301253891E-03
-146.1000E-09,-16.7364012450E-03
-145.6000E-09,+5.2301253891E-03
-145.1000E-09,+0.0E+00
-144.6000E-09,-16.7364012450E-03
-144.1000E-09,-30.3347272566E-03
-143.6000E-09,-16.7364012450E-03
-143.1000E-09,+0.0E+00
-142.6000E-09,-16.7364012450E-03
-142.1000E-09,-16.7364012450E-03
-141.6000E-09,-28.2426771009E-03
-141.1000E-09,-16.7364012450E-03
-140.6000E-09,+0.0E+00
-140.1000E-09,+0.0E+00
-139.6000E-09,-16.7364012450E-03
-139.1000E-09,+13.5983260116E-03
-138.6000E-09,-11.5062758559E-03
-138.1000E-09,-16.7364012450E-03
-137.6000E-09,-11.5062758559E-03
-137.1000E-09,+0.0E+00
-136.6000E-09,-5.2301253891E-03
-136.1000E-09,+0.0E+00
-135.6000E-09,+0.0E+00
-135.1000E-09,-13.5983260116E-03
-134.6000E-09,-11.5062758559E-03
-134.1000E-09,+0.0E+00
-133.6000E-09,+11.5062758559E-03
-133.1000E-09,-16.7364012450E-03
-132.6000E-09,+0.0E+00
-132.1000E-09,-13.5983260116E-03
-131.6000E-09,-11.5062758559E-03
-131.1000E-09,-3.1380752334E-03
-130.6000E-09,+0.0E+00
-130.1000E-09,+16.7364012450E-03
-129.6000E-09,-5.2301253891E-03
-129.1000E-09,-13.5983260116E-03
-128.6000E-09,-21.9665266341E-03
-128.1000E-09,-13.5983260116E-03
-127.6000E-09,+0.0E+00
-127.1000E-09,-16.7364012450E-03
-126.6000E-09,-11.5062758559E-03
-126.1000E-09,+0.0E+00
-125.6000E-09,-11.5062758559E-03
-125.1000E-09,-3.1380752334E-03
-124.6000E-09,+0.0E+00
-124.1000E-09,+0.0E+00
-123.6000E-09,+0.0E+00
-123.1000E-09,-16.7364012450E-03
-122.6000E-09,-16.7364012450E-03
-122.1000E-09,-13.5983260116E-03
-121.6000E-09,-16.7364012450E-03
-121.1000E-09,+0.0E+00
-120.6000E-09,-16.7364012450E-03
-120.1000E-09,-16.7364012450E-03
-119.6000E-09,-11.5062758558E-03
-119.1000E-09,-16.7364012450E-03
-118.6000E-09,-5.2301253892E-03
-118.1000E-09,-16.7364012450E-03
-117.6000E-09,-11.5062758558E-03
-117.1000E-09,-16.7364012450E-03
-116.6000E-09,-16.7364012450E-03
-116.1000E-09,-3.1380752333E-03
-115.6000E-09,-5.2301253892E-03
-115.1000E-09,-3.1380752333E-03
-114.6000E-09,+11.5062758558E-03
-114.1000E-09,-3.1380752333E-03
-113.6000E-09,+0.0E+00
-113.1000E-09,+0.0E+00
-112.6000E-09,-16.7364012450E-03
-112.1000E-09,-30.3347272567E-03
-111.6000E-09,-16.7364012450E-03
-111.1000E-09,-3.1380752333E-03
-110.6000E-09,-11.5062758558E-03
-110.1000E-09,-3.1380752333E-03
-109.6000E-09,-16.7364012450E-03
-109.1000E-09,-16.7364012450E-03
-108.6000E-09,+0.0E+00
-108.1000E-09,+0.0E+00
-107.6000E-09,-16.7364012450E-03
-107.1000E-09,+13.5983260116E-03
-106.6000E-09,-11.5062758559E-03
-106.1000E-09,-16.7364012450E-03
-105.6000E-09,-11.5062758558E-03
-105.1000E-09,+0.0E+00
-104.6000E-09,-5.2301253891E-03
-104.1000E-09,-3.1380752333E-03
-103.6000E-09,-16.7364012450E-03
-103.1000E-09,-13.5983260116E-03
-102.6000E-09,-11.5062758559E-03
-102.1000E-09,+0.0E+00
-101.6000E-09,-5.2301253891E-03
-101.1000E-09,-13.5983260116E-03
-100.6000E-09,+11.5062758558E-03
-100.1000E-09,-3.1380752333E-03
-99.6000E-09,-11.5062758559E-03
-99.1000E-09,-3.1380752334E-03
-98.6000E-09,-5.2301253891E-03
-98.1000E-09,-3.1380752333E-03
-97.6000E-09,-11.5062758559E-03
-97.1000E-09,-3.1380752334E-03
-96.6000E-09,-16.7364012450E-03
-96.1000E-09,-16.7364012450E-03
-95.6000E-09,-11.5062758559E-03
-95.1000E-09,-13.5983260116E-03
-94.6000E-09,-21.9665266341E-03
-94.1000E-09,+0.0E+00
-93.6000E-09,-11.5062758559E-03
-93.1000E-09,-16.7364012450E-03
-92.6000E-09,+0.0E+00
-92.1000E-09,+0.0E+00
-91.6000E-09,-16.7364012450E-03
-91.1000E-09,-16.7364012450E-03
-90.6000E-09,-11.5062758559E-03
-90.1000E-09,-16.7364012450E-03
-89.6000E-09,-11.5062758559E-03
-89.1000E-09,+0.0E+00
-88.6000E-09,-16.7364012450E-03
-88.1000E-09,-19.8744764784E-03
-87.6000E-09,+0.0E+00
-87.1000E-09,+0.0E+00
-86.6000E-09,-16.7364012450E-03
-86.1000E-09,-13.5983260116E-03
-85.6000E-09,-11.5062758559E-03
-85.1000E-09,-3.1380752334E-03
-84.6000E-09,-16.7364012450E-03
-84.1000E-09,+0.0E+00
-83.6000E-09,+0.0E+00
-83.1000E-09,+0.0E+00
-82.6000E-09,+0.0E+00
-82.1000E-09,-16.7364012450E-03
-81.6000E-09,+0.0E+00
-81.1000E-09,+0.0E+00
-80.6000E-09,-16.7364012450E-03
-80.1000E-09,-16.7364012450E-03
-79.6000E-09,-5.2301253891E-03
-79.1000E-09,-3.1380752334E-03
-78.6000E-09,-16.7364012450E-03
-78.1000E-09,-19.8744764784E-03
-77.6000E-09,-16.7364012450E-03
-77.1000E-09,-16.7364012450E-03
-76.6000E-09,+0.0E+00
-76.1000E-09,+0.0E+00
-75.6000E-09,-16.7364012450E-03
-75.1000E-09,+0.0E+00
-74.6000E-09,-5.2301253891E-03
-74.1000E-09,-16.7364012450E-03
-73.6000E-09,-16.7364012450E-03
-73.1000E-09,-13.5983260116E-03
-72.6000E-09,+5.2301253891E-03
-72.1000E-09,+3.1380752334E-03
-71.6000E-09,+5.2301253891E-03
-71.1000E-09,+0.0E+00
-70.6000E-09,+0.0E+00
-70.1000E-09,+13.5983260116E-03
-69.6000E-09,-5.2301253891E-03
-69.1000E-09,-16.7364012450E-03
-68.6000E-09,+0.0E+00
-68.1000E-09,+0.0E+00
-67.6000E-09,-11.5062758559E-03
-67.1000E-09,-3.1380752334E-03
-66.6000E-09,+0.0E+00
-66.1000E-09,-13.5983260116E-03
-65.6000E-09,-16.7364012450E-03
-65.1000E-09,-3.1380752334E-03
-64.6000E-09,+0.0E+00
-64.1000E-09,+0.0E+00
-63.6000E-09,+0.0E+00
-63.1000E-09,-13.5983260116E-03
-62.6000E-09,-28.2426771009E-03
-62.1000E-09,-10.4602507783E-03
-61.6000E-09,-5.2301253891E-03
-61.1000E-09,-3.1380752334E-03
-60.6000E-09,-5.2301253891E-03
-60.1000E-09,-3.1380752334E-03
-59.6000E-09,-16.7364012450E-03
-59.1000E-09,-27.1966520233E-03
-58.6000E-09,-16.7364012450E-03
-58.1000E-09,-13.5983260116E-03
-57.6000E-09,+0.0E+00
-57.1000E-09,+13.5983260116E-03
-56.6000E-09,+5.2301253891E-03
-56.1000E-09,+13.5983260116E-03
-55.6000E-09,-11.5062758559E-03
-55.1000E-09,-10.4602507783E-03
-54.6000E-09,-16.7364012450E-03
-54.1000E-09,-16.7364012450E-03
-53.6000E-09,-11.5062758559E-03
-53.1000E-09,+0.0E+00
-52.6000E-09,-11.5062758559E-03
-52.1000E-09,+0.0E+00
-51.6000E-09,-5.2301253891E-03
-51.1000E-09,-3.1380752334E-03
-50.6000E-09,+0.0E+00
-50.1000E-09,+0.0E+00
-49.6000E-09,+11.5062758559E-03
-49.1000E-09,+0.0E+00
-48.6000E-09,-11.5062758559E-03
-48.1000E-09,-13.5983260116E-03
-47.6000E-09,+0.0E+00
-47.1000E-09,+0.0E+00
-46.6000E-09,+0.0E+00
-46.1000E-09,+0.0E+00
-45.6000E-09,+0.0E+00
-45.1000E-09,-3.1380752334E-03
-44.6000E-09,+11.5062758559E-03
-44.1000E-09,+0.0E+00
-43.6000E-09,-16.7364012450E-03
-43.1000E-09,+10.4602507783E-03
-42.6000E-09,-11.5062758559E-03
-42.1000E-09,-13.5983260116E-03
-41.6000E-09,-11.5062758559E-03
-41.1000E-09,-16.7364012450E-03
-40.6000E-09,+5.2301253891E-03
-40.1000E-09,+60.6694545132E-03
-39.6000E-09,+210.2510406406E-03
-39.1000E-09,+392.2594041798E-03
-38.6000E-09,+546.0250906182E-03
-38.1000E-09,+629.7070968432E-03
-37.6000E-09,+625.5229965317E-03
-37.1000E-09,+575.3137927967E-03
-36.6000E-09,+541.8409903067E-03
-36.1000E-09,+505.2301125833E-03
-35.6000E-09,+485.3556361049E-03
-35.1000E-09,+465.4811596266E-03
-34.6000E-09,+424.6861815917E-03
-34.1000E-09,+357.7405766117E-03
-33.6000E-09,+312.7614982658E-03
-33.1000E-09,+254.1840939083E-03
-32.6000E-09,+173.6401629167E-03
-32.1000E-09,+133.8912099600E-03
-31.6000E-09,+61.7154795909E-03
-31.1000E-09,+3.1380752334E-03
-30.6000E-09,-50.2092037350E-03
-30.1000E-09,-97.2803322366E-03
-29.6000E-09,-133.8912099600E-03
-29.1000E-09,-164.2259372166E-03
-28.6000E-09,-189.3305390841E-03
-28.1000E-09,-217.5732161850E-03
-27.6000E-09,-228.0334669632E-03
-27.1000E-09,-261.5062694532E-03
-26.6000E-09,-284.5188211650E-03
-26.1000E-09,-287.6568963983E-03
-25.6000E-09,-301.2552224100E-03
-25.1000E-09,-304.3932976433E-03
-24.6000E-09,-317.9916236550E-03
-24.1000E-09,-317.9916236550E-03
-23.6000E-09,-317.9916236550E-03
-23.1000E-09,-317.9916236550E-03
-22.6000E-09,-323.2217490441E-03
-22.1000E-09,-331.5899496666E-03
-21.6000E-09,-334.7280249000E-03
-21.1000E-09,-334.7280249000E-03
-20.6000E-09,-339.9581502891E-03
-20.1000E-09,-337.8661001333E-03
-19.6000E-09,-334.7280249000E-03
-19.1000E-09,-334.7280249000E-03
-18.6000E-09,-323.2217490441E-03
-18.1000E-09,-334.7280249000E-03
-17.6000E-09,-317.9916236550E-03
-17.1000E-09,-317.9916236550E-03
-16.6000E-09,-289.7489465541E-03
-16.1000E-09,-314.8535484216E-03
-15.6000E-09,-289.7489465541E-03
-15.1000E-09,-287.6568963983E-03
-14.6000E-09,-267.7824199200E-03
-14.1000E-09,-254.1840939083E-03
-13.6000E-09,-245.8158932858E-03
-13.1000E-09,-220.7112914184E-03
-12.6000E-09,-217.5732161850E-03
-12.1000E-09,-203.9748901733E-03
-11.6000E-09,-206.0669403291E-03
-11.1000E-09,-173.6401629167E-03
-10.6000E-09,-178.8702883059E-03
-10.1000E-09,-170.5020876834E-03
-9.6000E-09,-178.8702883059E-03
-9.1000E-09,-153.7656864384E-03
-8.6000E-09,-150.6276112050E-03
-8.1000E-09,-150.6276112050E-03
-7.6000E-09,-133.8912099600E-03
-7.1000E-09,-114.0167334816E-03
-6.6000E-09,-105.6485328591E-03
-6.1000E-09,-174.6861879948E-03
-5.6000E-09,-394.3514543356E-03
-5.1000E-09,-640.1673476214E-03
-4.6000E-09,-824.2677613164E-03
-4.1000E-09,-934.1003944865E-03
-3.6000E-09,-943.5146201866E-03
-3.1000E-09,-906.9037424633E-03
-2.6000E-09,-881.7991405958E-03
-2.1000E-09,-853.5564634949E-03
-1.6000E-09,-843.0962127166E-03
-1.1000E-09,-701.8828272118E-03
-600.0E-12,-360.8786518446E-03
-100.0E-12,+146.4435108945E-03
+400.0E-12,+616.1087708321E-03
+900.0E-12,+888.0752910630E-03
+1.4000E-09,+975.9413975990E-03
+1.9000E-09,+990.5857486883E-03
+2.4000E-09,+955.0208960425E-03
+2.9000E-09,+785.5648334368E-03
+3.4000E-09,+439.3305326805E-03
+3.9000E-09,-21.9665266346E-03
+4.4000E-09,-366.1087772347E-03
+4.9000E-09,-498.9539621166E-03
+5.4000E-09,-491.6317865717E-03
+5.9000E-09,-441.4225828367E-03
+6.4000E-09,-369.2468524676E-03
+6.9000E-09,-169.4560626052E-03
+7.4000E-09,+202.9288650962E-03
+7.9000E-09,+634.9372222328E-03
+8.4000E-09,+924.6861687864E-03
+8.9000E-09,+1.0648535292131E+00
+9.4000E-09,+1.0491631530458E+00
+9.9000E-09,+1.0073221499333E+00
+10.4000E-09,+965.4811468208E-03
+10.9000E-09,+923.6401437083E-03
+11.4000E-09,+837.8660873275E-03
+11.9000E-09,+624.4769714536E-03
+12.4000E-09,+237.4476926629E-03
+12.9000E-09,-111.9246833264E-03
+13.4000E-09,-294.9790719432E-03
+13.9000E-09,-361.9246769232E-03
+14.4000E-09,-334.7280249000E-03
+14.9000E-09,-307.5313728767E-03
+15.4000E-09,-142.2594105820E-03
+15.9000E-09,+222.8033415746E-03
+16.4000E-09,+622.3849212988E-03
+16.9000E-09,+901.6736170746E-03
+17.4000E-09,+987.4476734549E-03
+17.9000E-09,+987.4476734549E-03
+18.4000E-09,+943.5146201866E-03
+18.9000E-09,+903.7656672299E-03
+19.4000E-09,+865.0627393508E-03
+19.9000E-09,+768.8284321918E-03
+20.4000E-09,+444.5606580696E-03
+20.9000E-09,+14.6443510887E-03
+21.4000E-09,-337.8661001338E-03
+21.9000E-09,-529.2886893732E-03
+22.4000E-09,-547.0711156958E-03
+22.9000E-09,-552.3012410849E-03
+23.4000E-09,-519.8744636726E-03
+23.9000E-09,-333.6819998218E-03
+24.4000E-09,+52.3012538913E-03
+24.9000E-09,+473.8493602496E-03
+25.4000E-09,+807.5313600714E-03
+25.9000E-09,+934.1003944865E-03
+26.4000E-09,+937.2384697199E-03
+26.9000E-09,+890.1673412183E-03
+27.4000E-09,+859.8326139616E-03
+27.9000E-09,+809.6234102266E-03
+28.4000E-09,+616.1087708310E-03
+28.9000E-09,+205.0209152504E-03
+29.4000E-09,-275.1045954654E-03
+29.9000E-09,-630.7531219213E-03
+30.4000E-09,-775.1045826590E-03
+30.9000E-09,-773.0125325033E-03
+31.4000E-09,-764.6443318808E-03
+31.9000E-09,-725.9414040017E-03
+32.4000E-09,-532.4267646060E-03
+32.9000E-09,-138.0753102705E-03
+33.4000E-09,+308.5773979553E-03
+33.9000E-09,+653.7656736331E-03
+34.4000E-09,+791.8409839040E-03
+34.9000E-09,+803.3472597599E-03
+35.4000E-09,+781.3807331258E-03
+35.9000E-09,+769.8744572699E-03
+36.4000E-09,+726.9874290793E-03
+36.9000E-09,+476.9874354820E-03
+37.4000E-09,-12.5523009345E-03
+37.9000E-09,-504.1840875062E-03
+38.4000E-09,-824.2677613164E-03
+38.9000E-09,-920.5020684749E-03
+39.4000E-09,-915.2719430858E-03
+39.9000E-09,-873.4309399733E-03
+40.4000E-09,-843.0962127167E-03
+40.9000E-09,-671.5480999552E-03
+41.4000E-09,-293.9330468646E-03
+41.9000E-09,+199.7907898628E-03
+42.4000E-09,+550.2091909297E-03
+42.9000E-09,+713.3891030682E-03
+43.4000E-09,+719.6652535349E-03
+43.9000E-09,+689.3305262783E-03
+44.4000E-09,+719.6652535349E-03
+44.9000E-09,+658.9957990217E-03
+45.4000E-09,+360.8786518446E-03
+45.9000E-09,-143.3054356611E-03
+46.4000E-09,-610.8786454429E-03
+46.9000E-09,-904.8116923080E-03
+47.4000E-09,-970.7112722099E-03
+47.9000E-09,-957.1129461983E-03
+48.4000E-09,-915.2719430858E-03
+48.9000E-09,-859.8326139616E-03
+49.4000E-09,-699.7907770561E-03
+49.9000E-09,-305.4393227205E-03
+50.4000E-09,+152.7196613612E-03
+50.9000E-09,+513.5983132063E-03
+51.4000E-09,+691.4225764340E-03
+51.9000E-09,+716.5271783015E-03
+52.4000E-09,+697.6987269008E-03
+52.9000E-09,+716.5271783015E-03
+53.4000E-09,+598.3263445085E-03
+53.9000E-09,+271.9665202305E-03
+54.4000E-09,-218.6192412635E-03
+54.9000E-09,-674.6861751895E-03
+55.4000E-09,-919.4560433972E-03
+55.9000E-09,-970.7112722099E-03
+56.4000E-09,-932.0083443308E-03
+56.9000E-09,-903.7656672299E-03
+57.4000E-09,-903.7656672299E-03
+57.9000E-09,-917.3639932415E-03
+58.4000E-09,-925.7321938640E-03
+58.9000E-09,-937.2384697199E-03
+59.4000E-09,-920.5020684749E-03
+59.9000E-09,-906.9037424633E-03
+60.4000E-09,-898.5355418408E-03
+60.9000E-09,-829.4978867051E-03
+61.4000E-09,-632.8451720761E-03
+61.9000E-09,-235.3556425072E-03
+62.4000E-09,+280.3347208544E-03
+62.9000E-09,+711.2970529128E-03
+63.4000E-09,+963.3890966655E-03
+63.9000E-09,+1.0512552032015E+00
+64.4000E-09,+1.0271966264116E+00
+64.9000E-09,+960.2510214317E-03
+65.4000E-09,+903.7656672299E-03
+65.9000E-09,+890.1673412183E-03
+66.4000E-09,+837.8660873276E-03
+66.9000E-09,+624.4769714536E-03
+67.4000E-09,+216.5271911065E-03
+67.9000E-09,-266.7363948427E-03
+68.4000E-09,-578.4518680305E-03
+68.9000E-09,-716.5271783015E-03
+69.4000E-09,-714.4351281458E-03
+69.9000E-09,-689.3305262783E-03
+70.4000E-09,-527.1966392170E-03
+70.9000E-09,-134.9372350372E-03
+71.4000E-09,+303.3472725661E-03
+71.9000E-09,+661.0878491778E-03
+72.4000E-09,+852.5104384172E-03
+72.9000E-09,+887.0292659849E-03
+73.4000E-09,+859.8326139617E-03
+73.9000E-09,+836.8200622499E-03
+74.4000E-09,+776.1506077367E-03
+74.9000E-09,+560.6694417070E-03
+75.4000E-09,+116.1087836366E-03
+75.9000E-09,-400.6276048027E-03
+76.4000E-09,-796.0250842155E-03
+76.9000E-09,-944.5606452647E-03
+77.4000E-09,-920.5020684749E-03
+77.9000E-09,-890.1673412183E-03
+78.4000E-09,-848.3263381058E-03
+78.9000E-09,-735.3556297019E-03
+79.4000E-09,-404.8117051130E-03
+79.9000E-09,+32.4267774127E-03
+80.4000E-09,+449.7907834596E-03
+80.9000E-09,+660.0418240997E-03
+81.4000E-09,+702.9288522899E-03
+81.9000E-09,+686.1924510449E-03
+82.4000E-09,+691.4225764340E-03
+82.9000E-09,+766.7363820365E-03
+83.4000E-09,+842.0501876390E-03
+83.9000E-09,+883.8911907515E-03
+84.4000E-09,+848.3263381058E-03
+84.9000E-09,+823.2217362383E-03
+85.4000E-09,+764.6443318808E-03
+85.9000E-09,+662.1338742551E-03
+86.4000E-09,+497.9079370385E-03
+86.9000E-09,+273.0125453087E-03
+87.4000E-09,-85.7740563811E-03
+87.9000E-09,-504.1840875060E-03
+88.4000E-09,-862.9706891954E-03
+88.9000E-09,-1.0449790527347E+00
+89.4000E-09,-1.0763598050690E+00
+89.9000E-09,-1.0439330276567E+00
+90.4000E-09,-987.4476734549E-03
+90.9000E-09,-970.7112722099E-03
+91.4000E-09,-937.2384697199E-03
+91.9000E-09,-906.9037424633E-03
+92.4000E-09,-761.5062566470E-03
+92.9000E-09,-385.9832537123E-03
+93.4000E-09,+18.8284514011E-03
+93.9000E-09,+332.6359747446E-03
+94.4000E-09,+490.5857614940E-03
+94.9000E-09,+549.1631658515E-03
+95.4000E-09,+519.8744636726E-03
+95.9000E-09,+292.8870217871E-03
+96.4000E-09,-107.7405830151E-03
+96.9000E-09,-537.6568899960E-03
+97.4000E-09,-857.7405638063E-03
+97.9000E-09,-997.9079242331E-03
+98.4000E-09,-1.0041840746999E+00
+98.9000E-09,-960.2510214317E-03
+99.4000E-09,-915.2719430858E-03
+99.9000E-09,-846.2342879501E-03
+100.4000E-09,-622.3849212980E-03
+100.9000E-09,-185.1464387724E-03
+101.4000E-09,+303.3472725660E-03
+101.9000E-09,+630.7531219211E-03
+102.4000E-09,+791.8409839040E-03
+102.9000E-09,+803.3472597599E-03
+103.4000E-09,+803.3472597599E-03
+103.9000E-09,+783.4727832815E-03
+104.4000E-09,+616.1087708312E-03
+104.9000E-09,+235.3556425074E-03
+105.4000E-09,-258.3681942201E-03
+105.9000E-09,-644.3514479327E-03
+106.4000E-09,-808.5773851490E-03
+106.9000E-09,-809.6234102267E-03
+107.4000E-09,-769.8744572699E-03
+107.9000E-09,-780.3347080481E-03
+108.4000E-09,-830.5439117831E-03
+108.9000E-09,-883.8911907515E-03
+109.4000E-09,-903.7656672299E-03
+109.9000E-09,-920.5020684749E-03
+110.4000E-09,-881.7991405958E-03
+110.9000E-09,-856.6945387283E-03
+111.4000E-09,-748.9539557135E-03
+111.9000E-09,-567.9916172519E-03
+112.4000E-09,-270.9204951531E-03
+112.9000E-09,+149.5815861276E-03
+113.4000E-09,+587.8660937309E-03
+113.9000E-09,+904.8116923079E-03
+114.4000E-09,+1.0481171279681E+00
+114.9000E-09,+1.0711296796799E+00
+115.4000E-09,+1.0271966264117E+00
+115.9000E-09,+987.4476734549E-03
+116.4000E-09,+948.7447455758E-03
+116.9000E-09,+937.2384697199E-03
+117.4000E-09,+937.2384697199E-03
+117.9000E-09,+923.6401437083E-03
+118.4000E-09,+925.7321938640E-03
+118.9000E-09,+906.9037424633E-03
+119.4000E-09,+898.5355418408E-03
+119.9000E-09,+903.7656672299E-03
+120.4000E-09,+881.7991405958E-03
+120.9000E-09,+799.1631594485E-03
+121.4000E-09,+489.5397364157E-03
+121.9000E-09,-39.7489529574E-03
+122.4000E-09,-576.3598178750E-03
+122.9000E-09,-948.7447455761E-03
+123.4000E-09,-1.0596234038240E+00
+123.9000E-09,-1.0439330276567E+00
+124.4000E-09,-993.7238239217E-03
+124.9000E-09,-929.9162941751E-03
+125.4000E-09,-920.5020684749E-03
+125.9000E-09,-917.3639932415E-03
+126.4000E-09,-920.5020684749E-03
+126.9000E-09,-917.3639932415E-03
+127.4000E-09,-903.7656672299E-03
+127.9000E-09,-887.0292659849E-03
+128.4000E-09,-881.7991405958E-03
+128.9000E-09,-839.9581374833E-03
+129.4000E-09,-639.1213225429E-03
+129.9000E-09,-171.5481127606E-03
+130.4000E-09,+364.0167270793E-03
+130.9000E-09,+822.1757111611E-03
+131.4000E-09,+1.0428870025790E+00
+131.9000E-09,+1.0711296796799E+00
+132.4000E-09,+1.0271966264116E+00
+132.9000E-09,+973.8493474433E-03
+133.4000E-09,+932.0083443308E-03
+133.9000E-09,+890.1673412183E-03
+134.4000E-09,+744.7698554019E-03
+134.9000E-09,+352.5104512221E-03
+135.4000E-09,-135.9832601162E-03
+135.9000E-09,-513.5983132064E-03
+136.4000E-09,-663.1798993332E-03
+136.9000E-09,-689.3305262783E-03
+137.4000E-09,-674.6861751891E-03
+137.9000E-09,-595.1882692750E-03
+138.4000E-09,-293.9330468645E-03
+138.9000E-09,+149.5815861279E-03
+139.4000E-09,+571.1296924863E-03
+139.9000E-09,+854.6024885731E-03
+140.4000E-09,+959.2049963540E-03
+140.9000E-09,+957.1129461982E-03
+141.4000E-09,+915.2719430858E-03
+141.9000E-09,+887.0292659849E-03
+142.4000E-09,+755.2301061801E-03
+142.9000E-09,+416.3179809686E-03
+143.4000E-09,-106.6945579379E-03
+143.9000E-09,-584.7280184980E-03
+144.4000E-09,-819.0376359273E-03
+144.9000E-09,-873.4309399732E-03
+145.4000E-09,-848.3263381058E-03
+145.9000E-09,-823.2217362383E-03
+146.4000E-09,-759.4142064916E-03
+146.9000E-09,-527.1966392168E-03
+147.4000E-09,-76.3598306793E-03
+147.9000E-09,+370.2928775465E-03
+148.4000E-09,+673.6401501115E-03
+148.9000E-09,+797.0711092932E-03
+149.4000E-09,+764.6443318808E-03
+149.9000E-09,+753.1380560249E-03
+150.4000E-09,+785.5648334374E-03
+150.9000E-09,+847.2803130282E-03
+151.4000E-09,+887.0292659849E-03
+151.9000E-09,+887.0292659849E-03
+152.4000E-09,+881.7991405957E-03
+152.9000E-09,+856.6945387282E-03
+153.4000E-09,+809.6234102266E-03
+153.9000E-09,+692.4686015116E-03
+154.4000E-09,+498.9539621158E-03
+154.9000E-09,+151.6736362817E-03
+155.4000E-09,-275.1045954658E-03
+155.9000E-09,-708.1589776799E-03
+156.4000E-09,-974.8953725216E-03
+156.9000E-09,-1.0847280056915E+00
+157.4000E-09,-1.0658995542907E+00
+157.9000E-09,-1.0209204759449E+00
+158.4000E-09,-965.4811468207E-03
+158.9000E-09,-940.3765449532E-03
+159.4000E-09,-948.7447455757E-03
+159.9000E-09,-937.2384697199E-03
+160.4000E-09,-932.0083443307E-03
+160.9000E-09,-934.1003944866E-03
+161.4000E-09,-915.2719430857E-03
+161.9000E-09,-903.7656672299E-03
+162.4000E-09,-903.7656672299E-03
+162.9000E-09,-859.8326139615E-03
+163.4000E-09,-683.0543758107E-03
+163.9000E-09,-255.2301189848E-03
+164.4000E-09,+319.0376487344E-03
+164.9000E-09,+788.7029086717E-03
+165.4000E-09,+1.0198744508674E+00
+165.9000E-09,+1.0679916044466E+00
+166.4000E-09,+1.0104602251665E+00
+166.9000E-09,+957.1129461982E-03
+167.4000E-09,+920.5020684749E-03
+167.9000E-09,+930.9623192533E-03
+168.4000E-09,+908.9957926191E-03
+168.9000E-09,+920.5020684749E-03
+169.4000E-09,+915.2719430857E-03
+169.9000E-09,+906.9037424632E-03
+170.4000E-09,+892.2593913741E-03
+170.9000E-09,+887.0292659849E-03
+171.4000E-09,+821.1296860823E-03
+171.9000E-09,+577.4058429513E-03
+172.4000E-09,+99.3723823904E-03
+172.9000E-09,-444.5606580720E-03
+173.4000E-09,-851.4644133401E-03
+173.9000E-09,-1.0313807267233E+00
+174.4000E-09,-1.0658995542907E+00
+174.9000E-09,-1.0104602251665E+00
+175.4000E-09,-965.4811468207E-03
+175.9000E-09,-934.1003944866E-03
+176.4000E-09,-859.8326139615E-03
+176.9000E-09,-614.0167206746E-03
+177.4000E-09,-176.7782381487E-03
+177.9000E-09,+283.4727960887E-03
+178.4000E-09,+573.2217426418E-03
+178.9000E-09,+679.9163005783E-03
+179.4000E-09,+719.6652535349E-03
+179.9000E-09,+719.6652535349E-03
+180.4000E-09,+565.8995670954E-03
+180.9000E-09,+218.6192412611E-03
+181.4000E-09,-269.8744700771E-03
+181.9000E-09,-691.4225764353E-03
+182.4000E-09,-914.2259180083E-03
+182.9000E-09,-970.7112722099E-03
+183.4000E-09,-943.5146201865E-03
+183.9000E-09,-906.9037424632E-03
+184.4000E-09,-887.0292659849E-03
+184.9000E-09,-900.6275919966E-03
+185.4000E-09,-903.7656672299E-03
+185.9000E-09,-900.6275919966E-03
+186.4000E-09,-903.7656672299E-03
+186.9000E-09,-903.7656672299E-03
+187.4000E-09,-843.0962127165E-03
+187.9000E-09,-715.4811532230E-03
+188.4000E-09,-493.7238367261E-03
+188.9000E-09,-87.8661065342E-03
+189.4000E-09,+392.2594041815E-03
+189.9000E-09,+794.9790591387E-03
+190.4000E-09,+1.0083681750118E+00
+190.9000E-09,+1.0711296796799E+00
+191.4000E-09,+1.0324267518007E+00
+191.9000E-09,+990.5857486882E-03
+192.4000E-09,+937.2384697199E-03
+192.9000E-09,+923.6401437082E-03
+193.4000E-09,+908.9957926191E-03
+193.9000E-09,+923.6401437082E-03
+194.4000E-09,+932.0083443307E-03
+194.9000E-09,+920.5020684749E-03
+195.4000E-09,+915.2719430857E-03
+195.9000E-09,+900.6275919966E-03
+196.4000E-09,+898.5355418407E-03
+196.9000E-09,+846.2342879497E-03
+197.4000E-09,+622.3849212967E-03
+197.9000E-09,+154.8117115140E-03
+198.4000E-09,-402.7196549601E-03
+198.9000E-09,-831.5899368621E-03
+199.4000E-09,-1.0366108521126E+00
+199.9000E-09,-1.0742677549131E+00
+200.4000E-09,-1.0271966264114E+00
+200.9000E-09,-957.1129461981E-03
+201.4000E-09,-925.7321938641E-03
+201.9000E-09,-920.5020684749E-03
+202.4000E-09,-920.5020684749E-03
+202.9000E-09,-917.3639932416E-03
+203.4000E-09,-915.2719430856E-03
+203.9000E-09,-903.7656672299E-03
+204.4000E-09,-903.7656672299E-03
+204.9000E-09,-856.6945387281E-03
+205.4000E-09,-721.7573036894E-03
+205.9000E-09,-369.2468524656E-03
+206.4000E-09,+173.6401629196E-03
+206.9000E-09,+671.5480999575E-03
+207.4000E-09,+958.1589712769E-03
+207.9000E-09,+1.0575313536681E+00
+208.4000E-09,+1.0324267518006E+00
+208.9000E-09,+976.9874226763E-03
+209.4000E-09,+926.7782189414E-03
+209.9000E-09,+923.6401437081E-03
+210.4000E-09,+915.2719430856E-03
+210.9000E-09,+906.9037424631E-03
+211.4000E-09,+915.2719430856E-03
+211.9000E-09,+893.3054164514E-03
+212.4000E-09,+865.0627393506E-03
+212.9000E-09,+873.4309399731E-03
+213.4000E-09,+848.3263381056E-03
+213.9000E-09,+718.6192284560E-03
+214.4000E-09,+349.3723759872E-03
+214.9000E-09,-190.3765641648E-03
+215.4000E-09,-688.2845012027E-03
+215.9000E-09,-1.0052300997788E+00
+216.4000E-09,-1.0878660809249E+00
+216.9000E-09,-1.0575313536681E+00
+217.4000E-09,-993.7238239213E-03
+217.9000E-09,-940.3765449531E-03
+218.4000E-09,-920.5020684749E-03
+218.9000E-09,-920.5020684749E-03
+219.4000E-09,-920.5020684749E-03
+219.9000E-09,-934.1003944867E-03
+220.4000E-09,-926.7782189413E-03
+220.9000E-09,-893.3054164513E-03
+221.4000E-09,-887.0292659849E-03
+221.9000E-09,-887.0292659849E-03
+222.4000E-09,-738.4937049342E-03
+222.9000E-09,-385.9832537103E-03
+223.4000E-09,+151.6736362858E-03
+223.9000E-09,+671.5480999578E-03
+224.4000E-09,+963.3890966663E-03
+224.9000E-09,+1.0679916044467E+00
+225.4000E-09,+1.0324267518006E+00
+225.9000E-09,+973.8493474431E-03
+226.4000E-09,+943.5146201863E-03
+226.9000E-09,+920.5020684749E-03
+227.4000E-09,+937.2384697199E-03
+227.9000E-09,+920.5020684749E-03
+228.4000E-09,+915.2719430856E-03
+228.9000E-09,+903.7656672299E-03
+229.4000E-09,+898.5355418406E-03
+229.9000E-09,+873.4309399731E-03
+230.4000E-09,+848.3263381056E-03
+230.9000E-09,+701.8828272109E-03
+231.4000E-09,+305.4393227183E-03
+231.9000E-09,-230.1255171216E-03
+232.4000E-09,-721.7573036930E-03
+232.9000E-09,-1.0083681750121E+00
+233.4000E-09,-1.0878660809249E+00
+233.9000E-09,-1.0407949524231E+00
+234.4000E-09,-976.9874226763E-03
+234.9000E-09,-940.3765449531E-03
+235.4000E-09,-910.0418176963E-03
+235.9000E-09,-799.1631594476E-03
+236.4000E-09,-483.2635859468E-03
+236.9000E-09,-17.7824263200E-03
+237.4000E-09,+388.0753038702E-03
+237.9000E-09,+593.0962191204E-03
+238.4000E-09,+674.6861751892E-03
+238.9000E-09,+683.0543758117E-03
+239.4000E-09,+615.0627457526E-03
+239.9000E-09,+362.9707019986E-03
+240.4000E-09,-79.4979059168E-03
+240.9000E-09,-537.6568899981E-03
+241.4000E-09,-857.7405638072E-03
+241.9000E-09,-967.5731969767E-03
+242.4000E-09,-965.4811468206E-03
+242.9000E-09,-923.6401437081E-03
+243.4000E-09,-881.7991405956E-03
+243.9000E-09,-796.0250842145E-03
+244.4000E-09,-538.7029150712E-03
+244.9000E-09,-51.2552288101E-03
+245.4000E-09,+403.7656800380E-03
+245.9000E-09,+700.8368021358E-03
+246.4000E-09,+813.8075105385E-03
+246.9000E-09,+820.0836610049E-03
+247.4000E-09,+825.3137863942E-03
+247.9000E-09,+789.7489337481E-03
+248.4000E-09,+577.4058429505E-03
+248.9000E-09,+154.8117115135E-03
+249.4000E-09,-325.3137992022E-03
+249.9000E-09,-684.1004008907E-03
+250.4000E-09,-813.8075105385E-03
+250.9000E-09,-823.2217362381E-03
+251.4000E-09,-769.8744572699E-03
+251.9000E-09,-756.2761312581E-03
+252.4000E-09,-649.5815733199E-03
+252.9000E-09,-285.5648462404E-03
+253.4000E-09,+196.6527146314E-03
+253.9000E-09,+624.4769714560E-03
+254.4000E-09,+847.2803130285E-03
+254.9000E-09,+873.4309399731E-03
+255.4000E-09,+876.5690152063E-03
+255.9000E-09,+856.6945387281E-03
+256.4000E-09,+826.3598114713E-03
+256.9000E-09,+627.6150466857E-03
+257.4000E-09,+188.2845140037E-03
+257.9000E-09,-297.0711221013E-03
+258.4000E-09,-645.3974730113E-03
+258.9000E-09,-783.4727832817E-03
+259.4000E-09,-781.3807331256E-03
+259.9000E-09,-753.1380560249E-03
+260.4000E-09,-736.4016547799E-03
+260.9000E-09,-601.4644197411E-03
+261.4000E-09,-226.9874418831E-03
+261.9000E-09,+246.8619183661E-03
+262.4000E-09,+644.3514479340E-03
+262.9000E-09,+860.8786390402E-03
+263.4000E-09,+887.0292659849E-03
+263.9000E-09,+880.7531155184E-03
+264.4000E-09,+858.7865888841E-03
+264.9000E-09,+823.2217362381E-03
+265.4000E-09,+605.6485200517E-03
+265.9000E-09,+157.9497867472E-03
+266.4000E-09,-331.5899496682E-03
+266.9000E-09,-667.3639996454E-03
+267.4000E-09,-791.8409839041E-03
+267.9000E-09,-789.7489337482E-03
+268.4000E-09,-776.1506077364E-03
+268.9000E-09,-739.5397300132E-03
+269.4000E-09,-571.1296924845E-03
+269.9000E-09,-215.4811660275E-03
+270.4000E-09,+275.1045954666E-03
+270.9000E-09,+661.0878491788E-03
+271.4000E-09,+830.5439117834E-03
+271.9000E-09,+853.5564634949E-03
+272.4000E-09,+848.3263381057E-03
+272.9000E-09,+833.6819870166E-03
+273.4000E-09,+787.6568835922E-03
+273.9000E-09,+543.9330404611E-03
+274.4000E-09,+87.8661065342E-03
+274.9000E-09,-403.7656800373E-03
+275.4000E-09,-729.0794792361E-03
+275.9000E-09,-820.0836610049E-03
+276.4000E-09,-820.0836610049E-03
+276.9000E-09,-786.6108585149E-03
+277.4000E-09,-808.5773851491E-03
+277.9000E-09,-864.0167142733E-03
+278.4000E-09,-903.7656672299E-03
+278.9000E-09,-917.3639932416E-03
+279.4000E-09,-903.7656672299E-03
+279.9000E-09,-903.7656672299E-03
+280.4000E-09,-865.0627393507E-03
+280.9000E-09,-762.5522817248E-03
+281.4000E-09,-549.1631658504E-03
+281.9000E-09,-195.6066895496E-03
+282.4000E-09,+275.1045954662E-03
+282.9000E-09,+705.0209024470E-03
+283.4000E-09,+974.8953725217E-03
+283.9000E-09,+1.0679916044466E+00
+284.4000E-09,+1.0606694289015E+00
+284.9000E-09,+990.5857486882E-03
+285.4000E-09,+920.5020684749E-03
+285.9000E-09,+910.0418176965E-03
+286.4000E-09,+908.9957926191E-03
+286.9000E-09,+920.5020684749E-03
+287.4000E-09,+920.5020684749E-03
+287.9000E-09,+920.5020684749E-03
+288.4000E-09,+903.7656672299E-03
+288.9000E-09,+903.7656672299E-03
+289.4000E-09,+875.5229901291E-03
+289.9000E-09,+829.4978867048E-03
+290.4000E-09,+622.3849212973E-03
+290.9000E-09,+174.6861879931E-03
+291.4000E-09,-385.9832537143E-03
+291.9000E-09,-828.4518616284E-03
+292.4000E-09,-1.0366108521124E+00
+292.9000E-09,-1.0878660809249E+00
+293.4000E-09,-1.0156903505557E+00
+293.9000E-09,-973.8493474432E-03
+294.4000E-09,-948.7447455757E-03
+294.9000E-09,-862.9706891949E-03
+295.4000E-09,-677.8242504215E-03
+295.9000E-09,-288.7029214748E-03
+296.4000E-09,+147.4895359725E-03
+296.9000E-09,+449.7907834600E-03
+297.4000E-09,+580.5439181858E-03
+297.9000E-09,+605.6485200533E-03
+298.4000E-09,+597.2803194308E-03
+298.9000E-09,+453.9748837699E-03
+299.4000E-09,+81.5899560683E-03
+299.9000E-09,-380.7531283249E-03
+300.4000E-09,-756.2761312590E-03
+300.9000E-09,-958.1589712765E-03
+301.4000E-09,-1.0041840746999E+00
+301.9000E-09,-976.9874226766E-03
+302.4000E-09,-920.5020684749E-03
+302.9000E-09,-876.5690152066E-03
+303.4000E-09,-721.7573036900E-03
+303.9000E-09,-366.1087772334E-03
+304.4000E-09,+102.5104576265E-03
+304.9000E-09,+524.0585639848E-03
+305.4000E-09,+713.3891030682E-03
+305.9000E-09,+769.8744572699E-03
+306.4000E-09,+769.8744572699E-03
+306.9000E-09,+773.0125325033E-03
+307.4000E-09,+660.0418240992E-03
+307.9000E-09,+315.8995734985E-03
+308.4000E-09,-185.1464387738E-03
+308.9000E-09,-610.8786454430E-03
+309.4000E-09,-847.2803130282E-03
+309.9000E-09,-887.0292659849E-03
+310.4000E-09,-843.0962127166E-03
+310.9000E-09,-820.0836610049E-03
+311.4000E-09,-759.4142064916E-03
+311.9000E-09,-574.2677677185E-03
+312.4000E-09,-143.3054356595E-03
+312.9000E-09,+350.4184010679E-03
+313.4000E-09,+695.6066767456E-03
+313.9000E-09,+847.2803130281E-03
+314.4000E-09,+836.8200622499E-03
+314.9000E-09,+823.2217362383E-03
+315.4000E-09,+836.8200622499E-03
+315.9000E-09,+745.8158804800E-03
+316.4000E-09,+416.3179809687E-03
+316.9000E-09,-82.6359811478E-03
+317.4000E-09,-527.1966392179E-03
+317.9000E-09,-770.9204823480E-03
+318.4000E-09,-814.8535356158E-03
+318.9000E-09,-776.1506077367E-03
+319.4000E-09,-775.1045826590E-03
+319.9000E-09,-800.2091845265E-03
+320.4000E-09,-853.5564634949E-03
+320.9000E-09,-883.8911907515E-03
+321.4000E-09,-898.5355418408E-03
+321.9000E-09,-887.0292659849E-03
+322.4000E-09,-859.8326139617E-03
+322.9000E-09,-782.4267582035E-03
+323.4000E-09,-660.0418240994E-03
+323.9000E-09,-406.9037552687E-03
+324.4000E-09,-9.4142256999E-03
+324.9000E-09,+467.5732097826E-03
+325.4000E-09,+839.9581374836E-03
+325.9000E-09,+1.0418409775013E+00
+326.4000E-09,+1.0763598050690E+00
+326.9000E-09,+1.0575313536683E+00
+327.4000E-09,+998.9539493108E-03
+327.9000E-09,+953.9748709649E-03
+328.4000E-09,+937.2384697199E-03
+328.9000E-09,+893.3054164517E-03
+329.4000E-09,+711.2970529122E-03
+329.9000E-09,+305.4393227209E-03
+330.4000E-09,-130.7531347268E-03
+330.9000E-09,-436.1924574479E-03
+331.4000E-09,-574.2677677190E-03
+331.9000E-09,-585.7740435749E-03
+332.4000E-09,-553.3472661627E-03
+332.9000E-09,-339.9581502889E-03
+333.4000E-09,+52.3012538908E-03
+333.9000E-09,+487.4476862607E-03
+334.4000E-09,+812.7614854603E-03
+334.9000E-09,+950.8367957315E-03
+335.4000E-09,+976.9874226767E-03
+335.9000E-09,+940.3765449533E-03
+336.4000E-09,+898.5355418408E-03
+336.9000E-09,+846.2342879502E-03
+337.4000E-09,+610.8786454424E-03
+337.9000E-09,+171.5481127612E-03
+338.4000E-09,-342.0502004446E-03
+338.9000E-09,-717.5732033793E-03
+339.4000E-09,-858.7865888840E-03
+339.9000E-09,-853.5564634949E-03
+340.4000E-09,-842.0501876390E-03
+340.9000E-09,-803.3472597599E-03
+341.4000E-09,-649.5815733215E-03
+341.9000E-09,-282.4267710094E-03
+342.4000E-09,+185.1464387727E-03
+342.9000E-09,+577.4058429524E-03
+343.4000E-09,+758.3681814140E-03
+343.9000E-09,+773.0125325034E-03
+344.4000E-09,+736.4016547799E-03
+344.9000E-09,+736.4016547799E-03
+345.4000E-09,+682.0083507337E-03
+345.9000E-09,+385.9832537129E-03
+346.4000E-09,-84.7280313026E-03
+346.9000E-09,-584.7280184969E-03
+347.4000E-09,-885.9832409070E-03
+347.9000E-09,-953.9748709649E-03
+348.4000E-09,-926.7782189418E-03
+348.9000E-09,-893.3054164518E-03
+349.4000E-09,-843.0962127168E-03
+349.9000E-09,-701.8828272123E-03
+350.4000E-09,-350.4184010675E-03
+350.9000E-09,+149.5815861268E-03
+351.4000E-09,+521.9665138282E-03
+351.9000E-09,+710.2510278345E-03
+352.4000E-09,+753.1380560249E-03
+352.9000E-09,+736.4016547799E-03
+353.4000E-09,+724.8953789239E-03
+353.9000E-09,+651.6736234773E-03
+354.4000E-09,+322.1757239667E-03
+354.9000E-09,-166.3179873717E-03
+355.4000E-09,-627.6150466871E-03
+355.9000E-09,-877.6150402844E-03
+356.4000E-09,-937.2384697199E-03
+356.9000E-09,-890.1673412184E-03
+357.4000E-09,-848.3263381059E-03
+357.9000E-09,-826.3598114719E-03
+358.4000E-09,-649.5815733218E-03
+358.9000E-09,-258.3681942203E-03
+359.4000E-09,+208.1589904841E-03
+359.9000E-09,+591.0041689635E-03
+360.4000E-09,+763.5983068029E-03
+360.9000E-09,+786.6108585149E-03
+361.4000E-09,+764.6443318809E-03
+361.9000E-09,+800.2091845264E-03
+362.4000E-09,+864.0167142729E-03
+362.9000E-09,+900.6275919964E-03
+363.4000E-09,+932.0083443309E-03
+363.9000E-09,+906.9037424634E-03
+364.4000E-09,+903.7656672299E-03
+364.9000E-09,+859.8326139619E-03
+365.4000E-09,+787.6568835929E-03
+365.9000E-09,+615.0627457540E-03
+366.4000E-09,+326.3598242780E-03
+366.9000E-09,-99.3723823914E-03
+367.4000E-09,-554.3932912398E-03
+367.9000E-09,-868.2008145838E-03
+368.4000E-09,-1.0261506013339E+00
+368.9000E-09,-1.0407949524234E+00
+369.4000E-09,-998.9539493109E-03
+369.9000E-09,-940.3765449534E-03
+370.4000E-09,-915.2719430859E-03
+370.9000E-09,-903.7656672299E-03
+371.4000E-09,-815.8995606940E-03
+371.9000E-09,-530.3347144516E-03
+372.4000E-09,-98.3263573152E-03
+372.9000E-09,+306.4853477983E-03
+373.4000E-09,+534.5188147618E-03
+373.9000E-09,+632.8451720764E-03
+374.4000E-09,+657.9497739439E-03
+374.9000E-09,+581.5899432640E-03
+375.4000E-09,+310.6694481113E-03
+375.9000E-09,-149.5815861262E-03
+376.4000E-09,-582.6359683407E-03
+376.9000E-09,-871.3388898173E-03
+377.4000E-09,-970.7112722099E-03
+377.9000E-09,-943.5146201870E-03
+378.4000E-09,-898.5355418409E-03
+378.9000E-09,-880.7531155178E-03
+379.4000E-09,-853.5564634949E-03
+379.9000E-09,-870.2928647399E-03
+380.4000E-09,-870.2928647399E-03
+380.9000E-09,-873.4309399734E-03
+381.4000E-09,-876.5690152070E-03
+381.9000E-09,-836.8200622499E-03
+382.4000E-09,-754.1840811030E-03
+382.9000E-09,-567.9916172527E-03
+383.4000E-09,-243.7238431315E-03
+383.9000E-09,+216.5271911059E-03
+384.4000E-09,+688.2845011994E-03
+384.9000E-09,+971.7572972871E-03
+385.4000E-09,+1.0815899304578E+00
+385.9000E-09,+1.0774058301470E+00
+386.4000E-09,+1.0271966264120E+00
+386.9000E-09,+973.8493474434E-03
+387.4000E-09,+960.2510214320E-03
+387.9000E-09,+937.2384697199E-03
+388.4000E-09,+849.3723631841E-03
+388.9000E-09,+594.1422441985E-03
+389.4000E-09,+165.2719622956E-03
+389.9000E-09,-215.4811660286E-03
+390.4000E-09,-417.3640060467E-03
+390.9000E-09,-482.2175608714E-03
+391.4000E-09,-496.8619119610E-03
+391.9000E-09,-400.6276048028E-03
+392.4000E-09,-81.5899560707E-03
+392.9000E-09,+350.4184010656E-03
+393.4000E-09,+706.0669275224E-03
+393.9000E-09,+941.4225700306E-03
+394.4000E-09,+1.0041840746999E+00
+394.9000E-09,+990.5857486885E-03
+395.4000E-09,+943.5146201871E-03
+395.9000E-09,+906.9037424635E-03
+396.4000E-09,+892.2593913738E-03
+396.9000E-09,+903.7656672299E-03
+397.4000E-09,+898.5355418410E-03
+397.9000E-09,+887.0292659849E-03
+398.4000E-09,+881.7991405960E-03
+398.9000E-09,+870.2928647399E-03
+399.4000E-09,+826.3598114721E-03
+399.9000E-09,+685.1464259679E-03
+400.4000E-09,+355.6485264580E-03
+400.9000E-09,-163.1799121368E-03
+401.4000E-09,-654.8116987089E-03
+401.9000E-09,-968.6192220533E-03
+402.4000E-09,-1.0878660809249E+00
+402.9000E-09,-1.0742677549135E+00
+403.4000E-09,-1.0219665010232E+00
+403.9000E-09,-957.1129461985E-03
+404.4000E-09,-937.2384697199E-03
+404.9000E-09,-917.3639932413E-03
+405.4000E-09,-920.5020684749E-03
+405.9000E-09,-937.2384697199E-03
+406.4000E-09,-932.0083443310E-03
+406.9000E-09,-920.5020684749E-03
+407.4000E-09,-903.7656672299E-03
+407.9000E-09,-903.7656672299E-03
+408.4000E-09,-854.6024885732E-03
+408.9000E-09,-668.4100247230E-03
+409.4000E-09,-228.0334669657E-03
+409.9000E-09,+327.4058493529E-03
+410.4000E-09,+773.0125325021E-03
+410.9000E-09,+994.7698489990E-03
+411.4000E-09,+1.0774058301471E+00
+411.9000E-09,+1.0104602251671E+00
+412.4000E-09,+948.7447455760E-03
+412.9000E-09,+920.5020684749E-03
+413.4000E-09,+843.0962127172E-03
+413.9000E-09,+624.4769714553E-03
+414.4000E-09,+199.7907898646E-03
+414.9000E-09,-269.8744700736E-03
+415.4000E-09,-573.2217426404E-03
+415.9000E-09,-669.4560497999E-03
+416.4000E-09,-675.7322002672E-03
+416.9000E-09,-652.7196485549E-03
+417.4000E-09,-532.4267646079E-03
+417.9000E-09,-165.2719622963E-03
+418.4000E-09,+291.8409967075E-03
+418.9000E-09,+694.5606516658E-03
+419.4000E-09,+902.7196421515E-03
+419.9000E-09,+967.5731969762E-03
+420.4000E-09,+948.7447455760E-03
+420.9000E-09,+903.7656672299E-03
+421.4000E-09,+887.0292659849E-03
+421.9000E-09,+880.7531155176E-03
+422.4000E-09,+881.7991405960E-03
+422.9000E-09,+887.0292659849E-03
+423.4000E-09,+887.0292659849E-03
+423.9000E-09,+883.8911907512E-03
+424.4000E-09,+843.0962127172E-03
+424.9000E-09,+748.9539557145E-03
+425.4000E-09,+560.6694417092E-03
+425.9000E-09,+171.5481127639E-03
+426.4000E-09,-308.5773979521E-03
+426.9000E-09,-755.2301061783E-03
+427.4000E-09,-1.0198744508664E+00
+427.9000E-09,-1.0878660809249E+00
+428.4000E-09,-1.0658995542910E+00
+428.9000E-09,-1.0135983004009E+00
+429.4000E-09,-953.9748709649E-03
+429.9000E-09,-953.9748709649E-03
+430.4000E-09,-910.0418176972E-03
+430.9000E-09,-755.2301061819E-03
+431.4000E-09,-382.8451784817E-03
+431.9000E-09,+52.3012538883E-03
+432.4000E-09,+394.3514543340E-03
+432.9000E-09,+559.6234166289E-03
+433.4000E-09,+585.7740435749E-03
+433.9000E-09,+588.9121188086E-03
+434.4000E-09,+415.2719558932E-03
+434.9000E-09,+34.5188275705E-03
+435.4000E-09,-420.5020812781E-03
+435.9000E-09,-764.6443318791E-03
+436.4000E-09,-981.1715229875E-03
+436.9000E-09,-1.0041840746999E+00
+437.4000E-09,-976.9874226773E-03
+437.9000E-09,-940.3765449536E-03
+438.4000E-09,-882.8451656747E-03
+438.9000E-09,-688.2845012021E-03
+439.4000E-09,-277.1966456231E-03
+439.9000E-09,+202.9288650930E-03
+440.4000E-09,+600.4183946628E-03
+440.9000E-09,+763.5983068025E-03
+441.4000E-09,+808.5773851487E-03
+441.9000E-09,+806.4853349936E-03
+442.4000E-09,+798.1171343711E-03
+442.9000E-09,+682.0083507347E-03
+443.4000E-09,+355.6485264594E-03
+443.9000E-09,-143.3054356568E-03
+444.4000E-09,-572.1757175615E-03
+444.9000E-09,-780.3347080475E-03
+445.4000E-09,-831.5899368611E-03
+445.9000E-09,-789.7489337486E-03
+446.4000E-09,-775.1045826587E-03
+446.9000E-09,-816.9455857712E-03
+447.4000E-09,-887.0292659849E-03
+447.9000E-09,-903.7656672299E-03
+448.4000E-09,-903.7656672299E-03
+448.9000E-09,-903.7656672299E-03
+449.4000E-09,-876.5690152073E-03
+449.9000E-09,-779.2886829711E-03
+450.4000E-09,-615.0627457548E-03
+450.9000E-09,-356.6945515360E-03
+451.4000E-09,+30.3347272540E-03
+451.9000E-09,+484.3096110239E-03
+452.4000E-09,+839.9581374813E-03
+452.9000E-09,+1.0282426514887E+00
+453.4000E-09,+1.0711296796799E+00
+453.9000E-09,+1.0240585511786E+00
+454.4000E-09,+982.2175480661E-03
+454.9000E-09,+937.2384697199E-03
+455.4000E-09,+903.7656672299E-03
+455.9000E-09,+914.2259180074E-03
+456.4000E-09,+908.9957926186E-03
+456.9000E-09,+906.9037424636E-03
+457.4000E-09,+910.0418176974E-03
+457.9000E-09,+890.1673412186E-03
+458.4000E-09,+880.7531155174E-03
+458.9000E-09,+887.0292659849E-03
+459.4000E-09,+821.1296860836E-03
+459.9000E-09,+563.8075169436E-03
+460.4000E-09,+60.6694545175E-03
+460.9000E-09,-484.3096110237E-03
+461.4000E-09,-873.4309399711E-03
+461.9000E-09,-1.0784518552236E+00
+462.4000E-09,-1.0658995542911E+00
+462.9000E-09,-1.0104602251674E+00
+463.4000E-09,-953.9748709649E-03
+463.9000E-09,-920.5020684749E-03
+464.4000E-09,-810.6694353062E-03
+464.9000E-09,-499.9999871975E-03
+465.4000E-09,-37.6569028051E-03
+465.9000E-09,+376.5690280099E-03
+466.4000E-09,+596.2342943524E-03
+466.9000E-09,+649.5815733212E-03
+467.4000E-09,+669.4560497999E-03
+467.9000E-09,+639.1213225437E-03
+468.4000E-09,+421.5481063614E-03
+468.9000E-09,-12.5523009297E-03
+469.4000E-09,-482.2175608685E-03
+469.9000E-09,-831.5899368585E-03
+470.4000E-09,-987.4476734549E-03
+470.9000E-09,-987.4476734549E-03
+471.4000E-09,-937.2384697199E-03
+471.9000E-09,-906.9037424637E-03
+472.4000E-09,-898.5355418412E-03
+472.9000E-09,-903.7656672299E-03
+473.4000E-09,-903.7656672299E-03
+473.9000E-09,-887.0292659849E-03
+474.4000E-09,-887.0292659849E-03
+474.9000E-09,-900.6275919961E-03
+475.4000E-09,-843.0962127175E-03
+475.9000E-09,-748.9539557151E-03
+476.4000E-09,-455.0209088515E-03
+476.9000E-09,+9.4142256958E-03
+477.4000E-09,+509.4142128908E-03
+477.9000E-09,+881.7991405934E-03
+478.4000E-09,+1.0596234038236E+00
+478.9000E-09,+1.0742677549136E+00
+479.4000E-09,+1.0209204759449E+00
+479.9000E-09,+973.8493474437E-03
+480.4000E-09,+937.2384697199E-03
+480.9000E-09,+920.5020684749E-03
+481.4000E-09,+914.2259180074E-03
+481.9000E-09,+937.2384697199E-03
+482.4000E-09,+932.0083443311E-03
+482.9000E-09,+920.5020684749E-03
+483.4000E-09,+915.2719430861E-03
+483.9000E-09,+917.3639932411E-03
+484.4000E-09,+881.7991405961E-03
+484.9000E-09,+738.4937049373E-03
+485.4000E-09,+412.1338806621E-03
+485.9000E-09,-140.1673604228E-03
+486.4000E-09,-654.8116987077E-03
+486.9000E-09,-955.0208960413E-03
+487.4000E-09,-1.0711296796799E+00
+487.9000E-09,-1.0575313536686E+00
+488.4000E-09,-993.7238239223E-03
+488.9000E-09,-923.6401437086E-03
+489.4000E-09,-881.7991405961E-03
+489.9000E-09,-745.8158804810E-03
+490.4000E-09,-411.0878555831E-03
+490.9000E-09,+46.0251034206E-03
+491.4000E-09,+421.5481063566E-03
+491.9000E-09,+606.6945451301E-03
+492.4000E-09,+657.9497739437E-03
+492.9000E-09,+669.4560497999E-03
+493.4000E-09,+741.6317801687E-03
+493.9000E-09,+800.2091845262E-03
+494.4000E-09,+881.7991405961E-03
+494.9000E-09,+856.6945387286E-03
+495.4000E-09,+821.1296860834E-03
+495.9000E-09,+729.0794792359E-03
+496.4000E-09,+625.5229965323E-03
+496.9000E-09,+514.6443382846E-03
+497.4000E-09,+369.2468524684E-03
+497.9000E-09,+243.7238431309E-03
+498.4000E-09,+129.7071096496E-03
+498.9000E-09,+12.5523009346E-03
+499.4000E-09,-77.4058557577E-03
+499.9000E-09,-191.4225892391E-03
+500.4000E-09,-300.2091973316E-03
+500.9000E-09,-378.6610781677E-03
+501.4000E-09,-462.3430843927E-03
+501.9000E-09,-529.2886893727E-03
+502.4000E-09,-585.7740435749E-03
+502.9000E-09,-619.2468460649E-03
+503.4000E-09,-624.4769714538E-03
+503.9000E-09,-652.7196485549E-03
+504.4000E-09,-652.7196485549E-03
+504.9000E-09,-635.9832473099E-03
+505.4000E-09,-619.2468460649E-03
+505.9000E-09,-602.5104448199E-03
+506.4000E-09,-585.7740435749E-03
+506.9000E-09,-572.1757175635E-03
+507.4000E-09,-525.1045890621E-03
+507.9000E-09,-485.3556361049E-03
+508.4000E-09,-463.3891094710E-03
+508.9000E-09,-438.2845076035E-03
+509.4000E-09,-413.1799057360E-03
+509.9000E-09,-384.9372286350E-03
+510.4000E-09,-346.2343007560E-03
+510.9000E-09,-334.7280249000E-03
+511.4000E-09,-312.7614982660E-03
+511.9000E-09,-287.6568963985E-03
+512.4000E-09,-251.0460186750E-03
+512.9000E-09,-237.4476926635E-03
+513.4000E-09,-223.8493666521E-03
+513.9000E-09,-214.4351409514E-03
+514.4000E-09,-178.8702883060E-03
+514.9000E-09,-167.3640124500E-03
+515.4000E-09,-133.8912099600E-03
+515.9000E-09,-133.8912099600E-03
+516.4000E-09,-111.9246833260E-03
+516.9000E-09,-86.8200814585E-03
+517.4000E-09,-66.9456049800E-03
+517.9000E-09,-50.2092037350E-03
+518.4000E-09,-44.9790783460E-03
+518.9000E-09,-19.8744764785E-03
+519.4000E-09,-16.7364012450E-03
+519.9000E-09,-3.1380752335E-03
+520.4000E-09,+0.0E+00
+520.9000E-09,+13.5983260115E-03
+521.4000E-09,+28.2426771010E-03
+521.9000E-09,+33.4728024900E-03
+522.4000E-09,+50.2092037350E-03
+522.9000E-09,+47.0711285015E-03
+523.4000E-09,+55.4393291240E-03
+523.9000E-09,+50.2092037350E-03
+524.4000E-09,+66.9456049800E-03
+524.9000E-09,+66.9456049800E-03
+525.4000E-09,+83.6820062250E-03
+525.9000E-09,+83.6820062250E-03
+526.4000E-09,+100.4184074700E-03
+526.9000E-09,+83.6820062250E-03
+527.4000E-09,+83.6820062250E-03
+527.9000E-09,+97.2803322365E-03
+528.4000E-09,+105.6485328590E-03
+528.9000E-09,+100.4184074700E-03
+529.4000E-09,+100.4184074700E-03
+529.9000E-09,+114.0167334815E-03
+530.4000E-09,+100.4184074700E-03
+530.9000E-09,+100.4184074700E-03
+531.4000E-09,+100.4184074700E-03
+531.9000E-09,+100.4184074700E-03
+532.4000E-09,+95.1882820809E-03
+532.9000E-09,+100.4184074700E-03
+533.4000E-09,+88.9121316141E-03
+533.9000E-09,+83.6820062250E-03
+534.4000E-09,+94.1422570031E-03
+534.9000E-09,+100.4184074700E-03
+535.4000E-09,+100.4184074700E-03
+535.9000E-09,+100.4184074700E-03
+536.4000E-09,+111.9246833259E-03
+536.9000E-09,+86.8200814584E-03
+537.4000E-09,+95.1882820809E-03
+537.9000E-09,+97.2803322366E-03
+538.4000E-09,+95.1882820809E-03
+538.9000E-09,+83.6820062250E-03
+539.4000E-09,+95.1882820809E-03
+539.9000E-09,+86.8200814584E-03
+540.4000E-09,+83.6820062250E-03
+540.9000E-09,+83.6820062250E-03
+541.4000E-09,+83.6820062250E-03
+541.9000E-09,+83.6820062250E-03
+542.4000E-09,+83.6820062250E-03
+542.9000E-09,+97.2803322366E-03
+543.4000E-09,+83.6820062250E-03
+543.9000E-09,+66.9456049800E-03
+544.4000E-09,+72.1757303691E-03
+544.9000E-09,+83.6820062250E-03
+545.4000E-09,+83.6820062250E-03
+545.9000E-09,+73.2217554467E-03
+546.4000E-09,+78.4518808358E-03
+546.9000E-09,+80.5439309916E-03
+547.4000E-09,+78.4518808358E-03
+547.9000E-09,+66.9456049800E-03
+548.4000E-09,+66.9456049800E-03
+548.9000E-09,+66.9456049800E-03
+549.4000E-09,+66.9456049800E-03
+549.9000E-09,+63.8075297467E-03
+550.4000E-09,+66.9456049800E-03
+550.9000E-09,+66.9456049800E-03
+551.4000E-09,+61.7154795908E-03
+551.9000E-09,+66.9456049800E-03
+552.4000E-09,+61.7154795908E-03
+552.9000E-09,+53.3472789683E-03
+553.4000E-09,+61.7154795908E-03
+553.9000E-09,+36.6108777233E-03
+554.4000E-09,+50.2092037350E-03
+554.9000E-09,+50.2092037350E-03
+555.4000E-09,+50.2092037350E-03
+555.9000E-09,+50.2092037350E-03
+556.4000E-09,+44.9790783458E-03
+556.9000E-09,+63.8075297467E-03
+557.4000E-09,+61.7154795908E-03
+557.9000E-09,+47.0711285017E-03
+558.4000E-09,+50.2092037350E-03
+558.9000E-09,+33.4728024900E-03
+559.4000E-09,+33.4728024900E-03
+559.9000E-09,+19.8744764783E-03
+560.4000E-09,+33.4728024900E-03
+560.9000E-09,+33.4728024900E-03
+561.4000E-09,+33.4728024900E-03
+561.9000E-09,+33.4728024900E-03
+562.4000E-09,+33.4728024900E-03
+562.9000E-09,+33.4728024900E-03
+563.4000E-09,+50.2092037350E-03
+563.9000E-09,+50.2092037350E-03
+564.4000E-09,+33.4728024900E-03
+564.9000E-09,+50.2092037350E-03
+565.4000E-09,+38.7029278793E-03
+565.9000E-09,+33.4728024900E-03
+566.4000E-09,+21.9665266343E-03
+566.9000E-09,+30.3347272568E-03
+567.4000E-09,+33.4728024900E-03
+567.9000E-09,+16.7364012450E-03
+568.4000E-09,+33.4728024900E-03
+568.9000E-09,+19.8744764782E-03
+569.4000E-09,+16.7364012450E-03
+569.9000E-09,+33.4728024900E-03
+570.4000E-09,+44.9790783457E-03
+570.9000E-09,+19.8744764782E-03
+571.4000E-09,+28.2426771007E-03
+571.9000E-09,+19.8744764782E-03
+572.4000E-09,+21.9665266343E-03
+572.9000E-09,+27.1966520236E-03
+573.4000E-09,+21.9665266343E-03
+573.9000E-09,+33.4728024900E-03
+574.4000E-09,+16.7364012450E-03
+574.9000E-09,+16.7364012450E-03
+575.4000E-09,+21.9665266343E-03
+575.9000E-09,+3.1380752332E-03
+576.4000E-09,+21.9665266343E-03
+576.9000E-09,+30.3347272568E-03
+577.4000E-09,+21.9665266343E-03
+577.9000E-09,+19.8744764781E-03
+578.4000E-09,+16.7364012450E-03
+578.9000E-09,+13.5983260119E-03
+579.4000E-09,+16.7364012450E-03
+579.9000E-09,+30.3347272569E-03
+580.4000E-09,+16.7364012450E-03
+580.9000E-09,+16.7364012450E-03
+581.4000E-09,+21.9665266344E-03
+581.9000E-09,+16.7364012450E-03
+582.4000E-09,+5.2301253894E-03
+582.9000E-09,+16.7364012450E-03
+583.4000E-09,+21.9665266344E-03
+583.9000E-09,+13.5983260119E-03
+584.4000E-09,+5.2301253894E-03
+584.9000E-09,+16.7364012450E-03
+585.4000E-09,+16.7364012450E-03
+585.9000E-09,+3.1380752331E-03
+586.4000E-09,+16.7364012450E-03
+586.9000E-09,+3.1380752331E-03
+587.4000E-09,+11.5062758556E-03
+587.9000E-09,+13.5983260119E-03
+588.4000E-09,+0.0E+00
+588.9000E-09,+0.0E+00
+589.4000E-09,+5.2301253894E-03
+589.9000E-09,+3.1380752331E-03
+590.4000E-09,+16.7364012450E-03
+590.9000E-09,+0.0E+00
+591.4000E-09,+11.5062758556E-03
+591.9000E-09,+3.1380752331E-03
+592.4000E-09,+0.0E+00
+592.9000E-09,+16.7364012450E-03
+593.4000E-09,+11.5062758556E-03
+593.9000E-09,+3.1380752330E-03
+594.4000E-09,+5.2301253895E-03
+594.9000E-09,+3.1380752330E-03
+595.4000E-09,+11.5062758555E-03
+595.9000E-09,+13.5983260120E-03
+596.4000E-09,-11.5062758555E-03
+596.9000E-09,+16.7364012450E-03
+597.4000E-09,+16.7364012450E-03
+597.9000E-09,+16.7364012450E-03
+598.4000E-09,+0.0E+00
+598.9000E-09,-13.5983260120E-03
+599.4000E-09,+11.5062758555E-03
+599.9000E-09,+0.0E+00
+600.4000E-09,+0.0E+00
+600.9000E-09,-10.4602507790E-03
+601.4000E-09,-11.5062758555E-03
+601.9000E-09,+0.0E+00
+602.4000E-09,+11.5062758555E-03
+602.9000E-09,-13.5983260120E-03
+603.4000E-09,+11.5062758555E-03
+603.9000E-09,+16.7364012450E-03
+604.4000E-09,+16.7364012450E-03
+604.9000E-09,+13.5983260120E-03
+605.4000E-09,+0.0E+00
+605.9000E-09,+13.5983260120E-03
+606.4000E-09,+0.0E+00
+606.9000E-09,+0.0E+00
+607.4000E-09,-11.5062758555E-03
+607.9000E-09,-3.1380752330E-03
+608.4000E-09,-11.5062758554E-03
+608.9000E-09,-16.7364012450E-03
+609.4000E-09,-11.5062758554E-03
+609.9000E-09,-13.5983260120E-03
+610.4000E-09,-5.2301253895E-03
+610.9000E-09,-3.1380752330E-03
+611.4000E-09,-5.2301253896E-03
+611.9000E-09,-3.1380752329E-03
+612.4000E-09,-5.2301253896E-03
+612.9000E-09,+0.0E+00
+613.4000E-09,-11.5062758554E-03
+613.9000E-09,-3.1380752329E-03
+614.4000E-09,-6.2761504658E-03
+614.9000E-09,+0.0E+00
+615.4000E-09,-16.7364012450E-03
+615.9000E-09,-3.1380752329E-03
+616.4000E-09,-5.2301253896E-03
+616.9000E-09,-16.7364012450E-03
+617.4000E-09,-16.7364012450E-03
+617.9000E-09,-16.7364012450E-03
+618.4000E-09,+0.0E+00
+618.9000E-09,-13.5983260121E-03
+619.4000E-09,-11.5062758554E-03
+619.9000E-09,-3.1380752329E-03
+620.4000E-09,-5.2301253896E-03
+620.9000E-09,-3.1380752329E-03
+621.4000E-09,+0.0E+00
+621.9000E-09,-16.7364012450E-03
+622.4000E-09,+5.2301253896E-03
+622.9000E-09,+0.0E+00
+623.4000E-09,-16.7364012450E-03
+623.9000E-09,-13.5983260121E-03
+624.4000E-09,-10.4602507793E-03
+624.9000E-09,-3.1380752329E-03
+625.4000E-09,-16.7364012450E-03
+625.9000E-09,+0.0E+00
+626.4000E-09,-16.7364012450E-03
+626.9000E-09,-19.8744764778E-03
+627.4000E-09,-16.7364012450E-03
+627.9000E-09,-16.7364012450E-03
+628.4000E-09,-28.2426771003E-03
+628.9000E-09,+0.0E+00
+629.4000E-09,-16.7364012450E-03
+629.9000E-09,-30.3347272572E-03
+630.4000E-09,-28.2426771003E-03
+630.9000E-09,-16.7364012450E-03
+631.4000E-09,+0.0E+00
+631.9000E-09,-13.5983260122E-03
+632.4000E-09,+0.0E+00
+632.9000E-09,-13.5983260122E-03
+633.4000E-09,-16.7364012450E-03
+633.9000E-09,-13.5983260122E-03
+634.4000E-09,-5.2301253897E-03
+634.9000E-09,-16.7364012450E-03
+635.4000E-09,+0.0E+00
+635.9000E-09,-16.7364012450E-03
+636.4000E-09,-16.7364012450E-03
+636.9000E-09,-3.1380752328E-03
+637.4000E-09,-11.5062758553E-03
+637.9000E-09,-13.5983260122E-03
+638.4000E-09,-21.9665266347E-03
+638.9000E-09,-19.8744764778E-03
+639.4000E-09,-28.2426771003E-03
+639.9000E-09,-16.7364012450E-03
+640.4000E-09,+0.0E+00
+640.9000E-09,-3.1380752328E-03
+641.4000E-09,-11.5062758553E-03
+641.9000E-09,-13.5983260123E-03
+642.4000E-09,-21.9665266348E-03
+642.9000E-09,-16.7364012450E-03
+643.4000E-09,-5.2301253898E-03
+643.9000E-09,-19.8744764777E-03
+644.4000E-09,-11.5062758552E-03
+644.9000E-09,-16.7364012450E-03
+645.4000E-09,+0.0E+00
+645.9000E-09,-16.7364012450E-03
+646.4000E-09,-16.7364012450E-03
+646.9000E-09,-3.1380752327E-03
+647.4000E-09,-16.7364012450E-03
+647.9000E-09,-19.8744764777E-03
+648.4000E-09,-16.7364012450E-03
+648.9000E-09,-30.3347272573E-03
+649.4000E-09,-21.9665266348E-03
+649.9000E-09,-16.7364012450E-03
+650.4000E-09,-33.4728024900E-03
+650.9000E-09,-30.3347272573E-03
+651.4000E-09,-16.7364012450E-03
+651.9000E-09,-16.7364012450E-03
+652.4000E-09,-5.2301253898E-03
+652.9000E-09,-16.7364012450E-03
+653.4000E-09,-5.2301253898E-03
+653.9000E-09,-30.3347272573E-03
+654.4000E-09,-16.7364012450E-03
+654.9000E-09,-16.7364012450E-03
+655.4000E-09,-21.9665266348E-03
+655.9000E-09,-27.1966520247E-03
+656.4000E-09,-5.2301253899E-03
+656.9000E-09,-13.5983260124E-03
+657.4000E-09,-16.7364012450E-03
+657.9000E-09,-3.1380752326E-03
+658.4000E-09,-5.2301253899E-03
+658.9000E-09,+0.0E+00
+659.4000E-09,+0.0E+00
+659.9000E-09,+0.0E+00
+660.4000E-09,-21.9665266349E-03
+660.9000E-09,+0.0E+00
+661.4000E-09,-5.2301253899E-03
+661.9000E-09,-16.7364012450E-03
+662.4000E-09,-6.2761504652E-03
+662.9000E-09,-3.1380752326E-03
+663.4000E-09,+0.0E+00
+663.9000E-09,-16.7364012450E-03
+664.4000E-09,-33.4728024900E-03
+664.9000E-09,-30.3347272574E-03
+665.4000E-09,-16.7364012450E-03
+665.9000E-09,-16.7364012450E-03
+666.4000E-09,-16.7364012450E-03
+666.9000E-09,-30.3347272574E-03
+667.4000E-09,-16.7364012450E-03
+667.9000E-09,-13.5983260124E-03
+668.4000E-09,-23.0125517102E-03
+668.9000E-09,-3.1380752326E-03
+669.4000E-09,-16.7364012450E-03
+669.9000E-09,-3.1380752326E-03
+670.4000E-09,-16.7364012450E-03
+670.9000E-09,-16.7364012450E-03
+671.4000E-09,-16.7364012450E-03
+671.9000E-09,-16.7364012450E-03
+672.4000E-09,+0.0E+00
+672.9000E-09,+13.5983260124E-03
+673.4000E-09,-11.5062758551E-03
+673.9000E-09,-10.4602507799E-03
+674.4000E-09,-16.7364012450E-03
+674.9000E-09,-16.7364012450E-03
+675.4000E-09,-5.2301253900E-03
+675.9000E-09,-6.2761504650E-03
+676.4000E-09,-5.2301253900E-03
+676.9000E-09,-16.7364012450E-03
+677.4000E-09,-11.5062758550E-03
+677.9000E-09,-3.1380752325E-03
+678.4000E-09,+0.0E+00
+678.9000E-09,+0.0E+00
+679.4000E-09,-16.7364012450E-03
+679.9000E-09,+0.0E+00
+680.4000E-09,+11.5062758550E-03
+680.9000E-09,-13.5983260125E-03
+681.4000E-09,-5.2301253900E-03
+681.9000E-09,-16.7364012450E-03
+682.4000E-09,-16.7364012450E-03
+682.9000E-09,-16.7364012450E-03
+683.4000E-09,-16.7364012450E-03
+683.9000E-09,-30.3347272575E-03
+684.4000E-09,-16.7364012450E-03
+684.9000E-09,-3.1380752325E-03
+685.4000E-09,-5.2301253900E-03
+685.9000E-09,-16.7364012450E-03
+686.4000E-09,+0.0E+00
+686.9000E-09,-13.5983260125E-03
+687.4000E-09,-5.2301253900E-03
+687.9000E-09,-16.7364012450E-03
+688.4000E-09,-5.2301253900E-03
+688.9000E-09,-3.1380752325E-03
+689.4000E-09,-16.7364012450E-03
+689.9000E-09,-16.7364012450E-03
+690.4000E-09,-11.5062758549E-03
+690.9000E-09,-16.7364012450E-03
+691.4000E-09,-11.5062758549E-03
+691.9000E-09,+13.5983260126E-03
+692.4000E-09,-16.7364012450E-03
+692.9000E-09,+0.0E+00
+693.4000E-09,-16.7364012450E-03
+693.9000E-09,-16.7364012450E-03
+694.4000E-09,-11.5062758549E-03
+694.9000E-09,-16.7364012450E-03
+695.4000E-09,-16.7364012450E-03
+695.9000E-09,-16.7364012450E-03
+696.4000E-09,-11.5062758549E-03
+696.9000E-09,-16.7364012450E-03
+697.4000E-09,-5.2301253901E-03
+697.9000E-09,+0.0E+00
+698.4000E-09,-16.7364012450E-03
+698.9000E-09,-30.3347272576E-03
+699.4000E-09,-5.2301253901E-03
+699.9000E-09,-16.7364012450E-03
+700.4000E-09,-16.7364012450E-03
+700.9000E-09,-19.8744764774E-03
+701.4000E-09,-16.7364012450E-03
+701.9000E-09,-16.7364012450E-03
+702.4000E-09,-11.5062758549E-03
+702.9000E-09,-16.7364012450E-03
+703.4000E-09,-16.7364012450E-03
+703.9000E-09,-16.7364012450E-03
+704.4000E-09,-16.7364012450E-03
+704.9000E-09,-16.7364012450E-03
+705.4000E-09,-6.2761504647E-03
+705.9000E-09,+0.0E+00
+706.4000E-09,-5.2301253902E-03
+706.9000E-09,+0.0E+00
+707.4000E-09,-5.2301253902E-03
+707.9000E-09,-16.7364012450E-03
+708.4000E-09,+0.0E+00
+708.9000E-09,-3.1380752323E-03
+709.4000E-09,-21.9665266352E-03
+709.9000E-09,-30.3347272577E-03
+710.4000E-09,-28.2426770998E-03
+710.9000E-09,
