x-axis,1
second,Volt
-274.0000E-09,
-273.5000E-09,-16.7364012450E-03
-273.0000E-09,-13.5983260116E-03
-272.5000E-09,+0.0E+00
-272.0000E-09,-3.1380752334E-03
-271.5000E-09,+0.0E+00
-271.0000E-09,+0.0E+00
-270.5000E-09,-5.2301253891E-03
-270.0000E-09,-16.7364012450E-03
-269.5000E-09,-10.4602507782E-03
-269.0000E-09,-16.7364012450E-03
-268.5000E-09,-11.5062758559E-03
-268.0000E-09,-16.7364012450E-03
-267.5000E-09,+0.0E+00
-267.0000E-09,-16.7364012450E-03
-266.5000E-09,-16.7364012450E-03
-266.0000E-09,+0.0E+00
-265.5000E-09,-11.5062758559E-03
-265.0000E-09,-13.5983260116E-03
-264.5000E-09,+5.2301253891E-03
-264.0000E-09,-13.5983260116E-03
-263.5000E-09,-5.2301253891E-03
-263.0000E-09,+13.5983260116E-03
-262.5000E-09,-5.2301253891E-03
-262.0000E-09,+0.0E+00
-261.5000E-09,-11.5062758559E-03
-261.0000E-09,-3.1380752334E-03
-260.5000E-09,+0.0E+00
-260.0000E-09,+0.0E+00
-259.5000E-09,+0.0E+00
-259.0000E-09,-16.7364012450E-03
-258.5000E-09,-10.4602507782E-03
-258.0000E-09,-3.1380752334E-03
-257.5000E-09,-16.7364012450E-03
-257.0000E-09,-19.8744764784E-03
-256.5000E-09,-11.5062758559E-03
-256.0000E-09,-27.1966520232E-03
-255.5000E-09,-21.9665266341E-03
-255.0000E-09,-13.5983260116E-03
-254.5000E-09,-11.5062758559E-03
-254.0000E-09,-16.7364012450E-03
-253.5000E-09,+0.0E+00
-253.0000E-09,+0.0E+00
-252.5000E-09,-16.7364012450E-03
-252.0000E-09,+0.0E+00
-251.5000E-09,+0.0E+00
-251.0000E-09,-16.7364012450E-03
-250.5000E-09,-11.5062758559E-03
-250.0000E-09,+0.0E+00
-249.5000E-09,+11.5062758559E-03
-249.0000E-09,-3.1380752334E-03
-248.5000E-09,+0.0E+00
-248.0000E-09,-16.7364012450E-03
-247.5000E-09,-11.5062758559E-03
-247.0000E-09,-3.1380752334E-03
-246.5000E-09,-11.5062758559E-03
-246.0000E-09,-19.8744764784E-03
-245.5000E-09,+6.2761504667E-03
-245.0000E-09,-16.7364012450E-03
-244.5000E-09,-6.2761504667E-03
-244.0000E-09,-13.5983260116E-03
-243.5000E-09,+0.0E+00
-243.0000E-09,+13.5983260116E-03
-242.5000E-09,+0.0E+00
-242.0000E-09,+0.0E+00
-241.5000E-09,+0.0E+00
-241.0000E-09,-3.1380752334E-03
-240.5000E-09,-11.5062758558E-03
-240.0000E-09,+0.0E+00
-239.5000E-09,-16.7364012450E-03
-239.0000E-09,+0.0E+00
-238.5000E-09,-11.5062758558E-03
-238.0000E-09,-16.7364012450E-03
-237.5000E-09,-5.2301253892E-03
-237.0000E-09,-16.7364012450E-03
-236.5000E-09,-11.5062758558E-03
-236.0000E-09,-16.7364012450E-03
-235.5000E-09,+0.0E+00
-235.0000E-09,-13.5983260116E-03
-234.5000E-09,-5.2301253891E-03
-234.0000E-09,+0.0E+00
-233.5000E-09,-11.5062758559E-03
-233.0000E-09,-16.7364012450E-03
-232.5000E-09,-11.5062758559E-03
-232.0000E-09,-16.7364012450E-03
-231.5000E-09,-5.2301253891E-03
-231.0000E-09,-3.1380752334E-03
-230.5000E-09,+0.0E+00
-230.0000E-09,-3.1380752334E-03
-229.5000E-09,-16.7364012450E-03
-229.0000E-09,-13.5983260116E-03
-228.5000E-09,-16.7364012450E-03
-228.0000E-09,+0.0E+00
-227.5000E-09,+0.0E+00
-227.0000E-09,-16.7364012450E-03
-226.5000E-09,+6.2761504667E-03
-226.0000E-09,-3.1380752334E-03
-225.5000E-09,+5.2301253891E-03
-225.0000E-09,-19.8744764784E-03
-224.5000E-09,-11.5062758559E-03
-224.0000E-09,-3.1380752334E-03
-223.5000E-09,-11.5062758559E-03
-223.0000E-09,-13.5983260116E-03
-222.5000E-09,-16.7364012450E-03
-222.0000E-09,-3.1380752334E-03
-221.5000E-09,+11.5062758559E-03
-221.0000E-09,+0.0E+00
-220.5000E-09,-16.7364012450E-03
-220.0000E-09,-13.5983260116E-03
-219.5000E-09,+0.0E+00
-219.0000E-09,-30.3347272566E-03
-218.5000E-09,-28.2426771009E-03
-218.0000E-09,-3.1380752334E-03
-217.5000E-09,-16.7364012450E-03
-217.0000E-09,-33.4728024900E-03
-216.5000E-09,-16.7364012450E-03
-216.0000E-09,-33.4728024900E-03
-215.5000E-09,-16.7364012450E-03
-215.0000E-09,-3.1380752334E-03
-214.5000E-09,-11.5062758559E-03
-214.0000E-09,-16.7364012450E-03
-213.5000E-09,-5.2301253891E-03
-213.0000E-09,-16.7364012450E-03
-212.5000E-09,-11.5062758559E-03
-212.0000E-09,-27.1966520232E-03
-211.5000E-09,-16.7364012450E-03
-211.0000E-09,+0.0E+00
-210.5000E-09,-16.7364012450E-03
-210.0000E-09,-3.1380752334E-03
-209.5000E-09,-16.7364012450E-03
-209.0000E-09,+0.0E+00
-208.5000E-09,+0.0E+00
-208.0000E-09,+0.0E+00
-207.5000E-09,-16.7364012450E-03
-207.0000E-09,+0.0E+00
-206.5000E-09,+0.0E+00
-206.0000E-09,-13.5983260116E-03
-205.5000E-09,+6.2761504668E-03
-205.0000E-09,-16.7364012450E-03
-204.5000E-09,-16.7364012450E-03
-204.0000E-09,-16.7364012450E-03
-203.5000E-09,+0.0E+00
-203.0000E-09,-13.5983260116E-03
-202.5000E-09,-5.2301253891E-03
-202.0000E-09,+3.1380752334E-03
-201.5000E-09,-11.5062758559E-03
-201.0000E-09,-13.5983260116E-03
-200.5000E-09,-6.2761504668E-03
-200.0000E-09,+0.0E+00
-199.5000E-09,-5.2301253891E-03
-199.0000E-09,-3.1380752334E-03
-198.5000E-09,-5.2301253891E-03
-198.0000E-09,+0.0E+00
-197.5000E-09,-5.2301253891E-03
-197.0000E-09,-16.7364012450E-03
-196.5000E-09,-16.7364012450E-03
-196.0000E-09,-13.5983260116E-03
-195.5000E-09,+0.0E+00
-195.0000E-09,-16.7364012450E-03
-194.5000E-09,+6.2761504668E-03
-194.0000E-09,+0.0E+00
-193.5000E-09,+11.5062758559E-03
-193.0000E-09,-3.1380752334E-03
-192.5000E-09,-11.5062758559E-03
-192.0000E-09,+0.0E+00
-191.5000E-09,-5.2301253891E-03
-191.0000E-09,-16.7364012450E-03
-190.5000E-09,-16.7364012450E-03
-190.0000E-09,+0.0E+00
-189.5000E-09,+0.0E+00
-189.0000E-09,+0.0E+00
-188.5000E-09,-16.7364012450E-03
-188.0000E-09,-13.5983260116E-03
-187.5000E-09,+0.0E+00
-187.0000E-09,-13.5983260116E-03
-186.5000E-09,-11.5062758559E-03
-186.0000E-09,-3.1380752334E-03
-185.5000E-09,-5.2301253891E-03
-185.0000E-09,-3.1380752334E-03
-184.5000E-09,+11.5062758559E-03
-184.0000E-09,-16.7364012450E-03
-183.5000E-09,+0.0E+00
-183.0000E-09,-3.1380752334E-03
-182.5000E-09,-11.5062758559E-03
-182.0000E-09,-16.7364012450E-03
-181.5000E-09,+0.0E+00
-181.0000E-09,+0.0E+00
-180.5000E-09,-11.5062758560E-03
-180.0000E-09,-30.3347272565E-03
-179.5000E-09,-11.5062758560E-03
-179.0000E-09,-3.1380752335E-03
-178.5000E-09,-11.5062758560E-03
-178.0000E-09,-3.1380752335E-03
-177.5000E-09,-5.2301253890E-03
-177.0000E-09,+0.0E+00
-176.5000E-09,-11.5062758560E-03
-176.0000E-09,-3.1380752335E-03
-175.5000E-09,-16.7364012450E-03
-175.0000E-09,+0.0E+00
-174.5000E-09,-11.5062758560E-03
-174.0000E-09,-13.5983260115E-03
-173.5000E-09,-5.2301253890E-03
-173.0000E-09,+0.0E+00
-172.5000E-09,+0.0E+00
-172.0000E-09,-16.7364012450E-03
-171.5000E-09,+0.0E+00
-171.0000E-09,-13.5983260115E-03
-170.5000E-09,-5.2301253890E-03
-170.0000E-09,+0.0E+00
-169.5000E-09,-11.5062758560E-03
-169.0000E-09,-16.7364012450E-03
-168.5000E-09,+0.0E+00
-168.0000E-09,+0.0E+00
-167.5000E-09,-16.7364012450E-03
-167.0000E-09,-3.1380752335E-03
-166.5000E-09,-5.2301253890E-03
-166.0000E-09,-16.7364012450E-03
-165.5000E-09,-5.2301253890E-03
-165.0000E-09,-16.7364012450E-03
-164.5000E-09,-21.9665266340E-03
-164.0000E-09,-13.5983260115E-03
-163.5000E-09,+0.0E+00
-163.0000E-09,-16.7364012450E-03
-162.5000E-09,-16.7364012450E-03
-162.0000E-09,+0.0E+00
-161.5000E-09,+0.0E+00
-161.0000E-09,-3.1380752335E-03
-160.5000E-09,-11.5062758560E-03
-160.0000E-09,+0.0E+00
-159.5000E-09,+0.0E+00
-159.0000E-09,-13.5983260115E-03
-158.5000E-09,-11.5062758560E-03
-158.0000E-09,-3.1380752335E-03
-157.5000E-09,+0.0E+00
-157.0000E-09,-16.7364012450E-03
-156.5000E-09,-16.7364012450E-03
-156.0000E-09,-13.5983260115E-03
-155.5000E-09,+0.0E+00
-155.0000E-09,-16.7364012450E-03
-154.5000E-09,-28.2426771010E-03
-154.0000E-09,-13.5983260115E-03
-153.5000E-09,-5.2301253890E-03
-153.0000E-09,+0.0E+00
-152.5000E-09,+5.2301253890E-03
-152.0000E-09,-13.5983260115E-03
-151.5000E-09,-11.5062758560E-03
-151.0000E-09,+0.0E+00
-150.5000E-09,+0.0E+00
-150.0000E-09,-16.7364012450E-03
-149.5000E-09,+11.5062758560E-03
-149.0000E-09,-3.1380752335E-03
-148.5000E-09,-11.5062758560E-03
-148.0000E-09,-13.5983260115E-03
-147.5000E-09,-16.7364012450E-03
-147.0000E-09,+0.0E+00
-146.5000E-09,-5.2301253890E-03
-146.0000E-09,+0.0E+00
-145.5000E-09,-11.5062758560E-03
-145.0000E-09,-16.7364012450E-03
-144.5000E-09,+0.0E+00
-144.0000E-09,+0.0E+00
-143.5000E-09,-11.5062758560E-03
-143.0000E-09,+10.4602507779E-03
-142.5000E-09,+0.0E+00
-142.0000E-09,-13.5983260115E-03
-141.5000E-09,-5.2301253890E-03
-141.0000E-09,-13.5983260115E-03
-140.5000E-09,+0.0E+00
-140.0000E-09,-16.7364012450E-03
-139.5000E-09,-11.5062758560E-03
-139.0000E-09,-13.5983260115E-03
-138.5000E-09,+0.0E+00
-138.0000E-09,+3.1380752335E-03
-137.5000E-09,+5.2301253890E-03
-137.0000E-09,+0.0E+00
-136.5000E-09,+0.0E+00
-136.0000E-09,-13.5983260115E-03
-135.5000E-09,-16.7364012450E-03
-135.0000E-09,-3.1380752335E-03
-134.5000E-09,+0.0E+00
-134.0000E-09,-13.5983260115E-03
-133.5000E-09,+0.0E+00
-133.0000E-09,+0.0E+00
-132.5000E-09,-5.2301253890E-03
-132.0000E-09,+0.0E+00
-131.5000E-09,-11.5062758560E-03
-131.0000E-09,-3.1380752335E-03
-130.5000E-09,-5.2301253890E-03
-130.0000E-09,+0.0E+00
-129.5000E-09,+0.0E+00
-129.0000E-09,-16.7364012450E-03
-128.5000E-09,+0.0E+00
-128.0000E-09,-27.1966520229E-03
-127.5000E-09,-11.5062758561E-03
-127.0000E-09,-13.5983260114E-03
-126.5000E-09,-16.7364012450E-03
-126.0000E-09,-16.7364012450E-03
-125.5000E-09,-5.2301253889E-03
-125.0000E-09,-3.1380752336E-03
-124.5000E-09,-16.7364012450E-03
-124.0000E-09,+3.1380752336E-03
-123.5000E-09,+0.0E+00
-123.0000E-09,-3.1380752336E-03
-122.5000E-09,-11.5062758561E-03
-122.0000E-09,-3.1380752336E-03
-121.5000E-09,-5.2301253889E-03
-121.0000E-09,+0.0E+00
-120.5000E-09,-5.2301253889E-03
-120.0000E-09,-16.7364012450E-03
-119.5000E-09,-11.5062758561E-03
-119.0000E-09,+0.0E+00
-118.5000E-09,+0.0E+00
-118.0000E-09,-16.7364012450E-03
-117.5000E-09,-5.2301253889E-03
-117.0000E-09,+0.0E+00
-116.5000E-09,-16.7364012450E-03
-116.0000E-09,-27.1966520229E-03
-115.5000E-09,-16.7364012450E-03
-115.0000E-09,-3.1380752336E-03
-114.5000E-09,-11.5062758561E-03
-114.0000E-09,+0.0E+00
-113.5000E-09,+0.0E+00
-113.0000E-09,+0.0E+00
-112.5000E-09,-11.5062758561E-03
-112.0000E-09,-16.7364012450E-03
-111.5000E-09,-33.4728024900E-03
-111.0000E-09,+0.0E+00
-110.5000E-09,+0.0E+00
-110.0000E-09,+0.0E+00
-109.5000E-09,-5.2301253889E-03
-109.0000E-09,+0.0E+00
-108.5000E-09,+0.0E+00
-108.0000E-09,-16.7364012450E-03
-107.5000E-09,-11.5062758561E-03
-107.0000E-09,-16.7364012450E-03
-106.5000E-09,-16.7364012450E-03
-106.0000E-09,-13.5983260114E-03
-105.5000E-09,-16.7364012450E-03
-105.0000E-09,-27.1966520229E-03
-104.5000E-09,-11.5062758561E-03
-104.0000E-09,-16.7364012450E-03
-103.5000E-09,-16.7364012450E-03
-103.0000E-09,+0.0E+00
-102.5000E-09,+6.2761504671E-03
-102.0000E-09,-3.1380752336E-03
-101.5000E-09,-11.5062758561E-03
-101.0000E-09,-3.1380752336E-03
-100.5000E-09,-16.7364012450E-03
-100.0000E-09,-13.5983260114E-03
-99.5000E-09,+0.0E+00
-99.0000E-09,-16.7364012450E-03
-98.5000E-09,+0.0E+00
-98.0000E-09,+3.1380752336E-03
-97.5000E-09,+0.0E+00
-97.0000E-09,-19.8744764786E-03
-96.5000E-09,-16.7364012450E-03
-96.0000E-09,-30.3347272564E-03
-95.5000E-09,-16.7364012450E-03
-95.0000E-09,-13.5983260114E-03
-94.5000E-09,-11.5062758561E-03
-94.0000E-09,-16.7364012450E-03
-93.5000E-09,+0.0E+00
-93.0000E-09,+0.0E+00
-92.5000E-09,-5.2301253889E-03
-92.0000E-09,+0.0E+00
-91.5000E-09,+0.0E+00
-91.0000E-09,-3.1380752336E-03
-90.5000E-09,-16.7364012450E-03
-90.0000E-09,-16.7364012450E-03
-89.5000E-09,+0.0E+00
-89.0000E-09,+0.0E+00
-88.5000E-09,-5.2301253889E-03
-88.0000E-09,+0.0E+00
-87.5000E-09,+0.0E+00
-87.0000E-09,-3.1380752336E-03
-86.5000E-09,+11.5062758561E-03
-86.0000E-09,-16.7364012450E-03
-85.5000E-09,+11.5062758561E-03
-85.0000E-09,+0.0E+00
-84.5000E-09,-16.7364012450E-03
-84.0000E-09,-30.3347272564E-03
-83.5000E-09,-16.7364012450E-03
-83.0000E-09,-3.1380752336E-03
-82.5000E-09,+0.0E+00
-82.0000E-09,-3.1380752336E-03
-81.5000E-09,-11.5062758561E-03
-81.0000E-09,-13.5983260114E-03
-80.5000E-09,+0.0E+00
-80.0000E-09,-16.7364012450E-03
-79.5000E-09,-33.4728024900E-03
-79.0000E-09,+0.0E+00
-78.5000E-09,+0.0E+00
-78.0000E-09,-16.7364012450E-03
-77.5000E-09,-5.2301253889E-03
-77.0000E-09,+3.1380752336E-03
-76.5000E-09,+0.0E+00
-76.0000E-09,+0.0E+00
-75.5000E-09,-11.5062758561E-03
-75.0000E-09,-16.7364012450E-03
-74.5000E-09,-10.4602507779E-03
-74.0000E-09,+0.0E+00
-73.5000E-09,+5.2301253890E-03
-73.0000E-09,-16.7364012450E-03
-72.5000E-09,+0.0E+00
-72.0000E-09,-13.5983260115E-03
-71.5000E-09,-16.7364012450E-03
-71.0000E-09,+0.0E+00
-70.5000E-09,+11.5062758561E-03
-70.0000E-09,-13.5983260115E-03
-69.5000E-09,+0.0E+00
-69.0000E-09,-3.1380752336E-03
-68.5000E-09,-5.2301253890E-03
-68.0000E-09,+3.1380752335E-03
-67.5000E-09,+11.5062758561E-03
-67.0000E-09,-16.7364012450E-03
-66.5000E-09,-5.2301253890E-03
-66.0000E-09,-13.5983260115E-03
-65.5000E-09,-16.7364012450E-03
-65.0000E-09,-30.3347272564E-03
-64.5000E-09,+0.0E+00
-64.0000E-09,-13.5983260115E-03
-63.5000E-09,-11.5062758561E-03
-63.0000E-09,-13.5983260115E-03
-62.5000E-09,-11.5062758560E-03
-62.0000E-09,-16.7364012450E-03
-61.5000E-09,+0.0E+00
-61.0000E-09,+0.0E+00
-60.5000E-09,-16.7364012450E-03
-60.0000E-09,+0.0E+00
-59.5000E-09,+0.0E+00
-59.0000E-09,-16.7364012450E-03
-58.5000E-09,-28.2426771010E-03
-58.0000E-09,-16.7364012450E-03
-57.5000E-09,-16.7364012450E-03
-57.0000E-09,-16.7364012450E-03
-56.5000E-09,-16.7364012450E-03
-56.0000E-09,-19.8744764785E-03
-55.5000E-09,-21.9665266339E-03
-55.0000E-09,+0.0E+00
-54.5000E-09,-11.5062758560E-03
-54.0000E-09,-19.8744764785E-03
-53.5000E-09,+0.0E+00
-53.0000E-09,-3.1380752335E-03
-52.5000E-09,-11.5062758560E-03
-52.0000E-09,-10.4602507779E-03
-51.5000E-09,-11.5062758560E-03
-51.0000E-09,+13.5983260115E-03
-50.5000E-09,-5.2301253890E-03
-50.0000E-09,+0.0E+00
-49.5000E-09,-21.9665266340E-03
-49.0000E-09,+0.0E+00
-48.5000E-09,+0.0E+00
-48.0000E-09,+0.0E+00
-47.5000E-09,-16.7364012450E-03
-47.0000E-09,+0.0E+00
-46.5000E-09,-11.5062758560E-03
-46.0000E-09,-13.5983260115E-03
-45.5000E-09,-5.2301253890E-03
-45.0000E-09,-16.7364012450E-03
-44.5000E-09,+0.0E+00
-44.0000E-09,-16.7364012450E-03
-43.5000E-09,-11.5062758560E-03
-43.0000E-09,-16.7364012450E-03
-42.5000E-09,-5.2301253890E-03
-42.0000E-09,-13.5983260115E-03
-41.5000E-09,+16.7364012450E-03
-41.0000E-09,+99.3723823927E-03
-40.5000E-09,+285.5648462431E-03
-40.0000E-09,+461.2970593156E-03
-39.5000E-09,+575.3137927970E-03
-39.0000E-09,+632.8451720764E-03
-38.5000E-09,+591.0041689639E-03
-38.0000E-09,+549.1631658514E-03
-37.5000E-09,+524.0585639839E-03
-37.0000E-09,+498.9539621164E-03
-36.5000E-09,+485.3556361049E-03
-36.0000E-09,+451.8828336149E-03
-35.5000E-09,+413.1799057360E-03
-35.0000E-09,+358.7866016893E-03
-34.5000E-09,+289.7489465539E-03
-34.0000E-09,+217.5732161850E-03
-33.5000E-09,+155.8577365939E-03
-33.0000E-09,+94.1422570029E-03
-32.5000E-09,+38.7029278790E-03
-32.0000E-09,-19.8744764785E-03
-31.5000E-09,-73.2217554471E-03
-31.0000E-09,-120.2928839485E-03
-30.5000E-09,-162.1338870610E-03
-30.0000E-09,-203.9748901735E-03
-29.5000E-09,-200.8368149400E-03
-29.0000E-09,-231.1715421964E-03
-28.5000E-09,-251.0460186750E-03
-28.0000E-09,-251.0460186750E-03
-27.5000E-09,-267.7824199200E-03
-27.0000E-09,-274.0585703870E-03
-26.5000E-09,-301.2552224100E-03
-26.0000E-09,-301.2552224100E-03
-25.5000E-09,-317.9916236550E-03
-25.0000E-09,-317.9916236550E-03
-24.5000E-09,-329.4978995110E-03
-24.0000E-09,-337.8661001335E-03
-23.5000E-09,-339.9581502889E-03
-23.0000E-09,-337.8661001335E-03
-22.5000E-09,-334.7280249000E-03
-22.0000E-09,-354.6025013785E-03
-21.5000E-09,-339.9581502889E-03
-21.0000E-09,-351.4644261450E-03
-20.5000E-09,-334.7280249000E-03
-20.0000E-09,-331.5899496664E-03
-19.5000E-09,-329.4978995110E-03
-19.0000E-09,-317.9916236550E-03
-18.5000E-09,-317.9916236550E-03
-18.0000E-09,-301.2552224100E-03
-17.5000E-09,-301.2552224100E-03
-17.0000E-09,-270.9204951535E-03
-16.5000E-09,-279.2886957760E-03
-16.0000E-09,-267.7824199200E-03
-15.5000E-09,-267.7824199200E-03
-15.0000E-09,-237.4476926635E-03
-14.5000E-09,-245.8158932860E-03
-14.0000E-09,-234.3096174300E-03
-13.5000E-09,-211.2970657179E-03
-13.0000E-09,-217.5732161850E-03
-12.5000E-09,-200.8368149400E-03
-12.0000E-09,-184.1004136950E-03
-11.5000E-09,-184.1004136950E-03
-11.0000E-09,-180.9623384614E-03
-10.5000E-09,-167.3640124500E-03
-10.0000E-09,-144.3514607379E-03
-9.5000E-09,-133.8912099600E-03
-9.0000E-09,-144.3514607379E-03
-8.5000E-09,-117.1548087150E-03
-8.0000E-09,-103.5564827035E-03
-7.5000E-09,-100.4184074700E-03
-7.0000E-09,-83.6820062250E-03
-6.5000E-09,-111.9246833260E-03
-6.0000E-09,-199.7907898627E-03
-5.5000E-09,-420.5020812812E-03
-5.0000E-09,-668.4100247226E-03
-4.5000E-09,-854.6024885730E-03
-4.0000E-09,-923.6401437084E-03
-3.5000E-09,-908.9957926189E-03
-3.0000E-09,-883.8911907514E-03
-2.5000E-09,-858.7865888839E-03
-2.0000E-09,-836.8200622499E-03
-1.5000E-09,-802.3012346818E-03
-1.0000E-09,-650.6275983987E-03
-500.0E-12,-275.1045954635E-03
+0.0E+00,+241.6317929759E-03
+500.0E-12,+706.0669275243E-03
+1.0000E-09,+960.2510214320E-03
+1.5000E-09,+1.0041840746999E+00
+2.0000E-09,+1.0010459994663E+00
+2.5000E-09,+942.4685951089E-03
+3.0000E-09,+761.5062566466E-03
+3.5000E-09,+358.7866016886E-03
+4.0000E-09,-64.8535548254E-03
+4.5000E-09,-387.0292787912E-03
+5.0000E-09,-502.0920373499E-03
+5.5000E-09,-473.8493602489E-03
+6.0000E-09,-415.2719558914E-03
+6.5000E-09,-338.9121252108E-03
+7.0000E-09,-108.7866080917E-03
+7.5000E-09,+282.4267710103E-03
+8.0000E-09,+708.1589776797E-03
+8.5000E-09,+966.5271718990E-03
+9.0000E-09,+1.0575313536684E+00
+9.5000E-09,+1.0428870025788E+00
+10.0000E-09,+984.3095982213E-03
+10.5000E-09,+970.7112722099E-03
+11.0000E-09,+930.9623192528E-03
+11.5000E-09,+841.0041625608E-03
+12.0000E-09,+571.1296924846E-03
+12.5000E-09,+164.2259372157E-03
+13.0000E-09,-152.7196613612E-03
+13.5000E-09,-324.2677741220E-03
+14.0000E-09,-348.3263509114E-03
+14.5000E-09,-334.7280249000E-03
+15.0000E-09,-288.7029214758E-03
+15.5000E-09,-70.0836802127E-03
+16.0000E-09,+312.7614982668E-03
+16.5000E-09,+666.3179745672E-03
+17.0000E-09,+943.5146201870E-03
+17.5000E-09,+1.0041840746999E+00
+18.0000E-09,+984.3095982213E-03
+18.5000E-09,+937.2384697199E-03
+19.0000E-09,+900.6275919964E-03
+19.5000E-09,+875.5229901289E-03
+20.0000E-09,+720.7112786122E-03
+20.5000E-09,+387.0292787896E-03
+21.0000E-09,-64.8535548254E-03
+21.5000E-09,-392.2594041801E-03
+22.0000E-09,-535.5648398399E-03
+22.5000E-09,-552.3012410849E-03
+23.0000E-09,-565.8995670964E-03
+23.5000E-09,-512.5522881279E-03
+24.0000E-09,-269.8744700746E-03
+24.5000E-09,+143.3054356614E-03
+25.0000E-09,+557.5313664747E-03
+25.5000E-09,+815.8995606940E-03
+26.0000E-09,+937.2384697199E-03
+26.5000E-09,+925.7321938638E-03
+27.0000E-09,+867.1547895064E-03
+27.5000E-09,+853.5564634949E-03
+28.0000E-09,+793.9330340593E-03
+28.5000E-09,+572.1757175626E-03
+29.0000E-09,+129.7071096475E-03
+29.5000E-09,-360.8786518464E-03
+30.0000E-09,-682.0083507341E-03
+30.5000E-09,-781.3807331259E-03
+31.0000E-09,-786.6108585149E-03
+31.5000E-09,-769.8744572699E-03
+32.0000E-09,-737.4476798572E-03
+32.5000E-09,-498.9539621156E-03
+33.0000E-09,-65.8995799011E-03
+33.5000E-09,+371.3389026243E-03
+34.0000E-09,+698.7447519791E-03
+34.5000E-09,+814.8535356159E-03
+35.0000E-09,+800.2091845264E-03
+35.5000E-09,+769.8744572699E-03
+36.0000E-09,+773.0125325034E-03
+36.5000E-09,+707.1129526008E-03
+37.0000E-09,+400.6276048011E-03
+37.5000E-09,-110.8786582495E-03
+38.0000E-09,-563.8075169418E-03
+38.5000E-09,-837.8660873280E-03
+39.0000E-09,-934.1003944864E-03
+39.5000E-09,-897.4895167628E-03
+40.0000E-09,-883.8911907514E-03
+40.5000E-09,-835.7740371718E-03
+41.0000E-09,-641.2133726981E-03
+41.5000E-09,-230.1255171175E-03
+42.0000E-09,+232.2175672753E-03
+42.5000E-09,+599.3723695872E-03
+43.0000E-09,+736.4016547799E-03
+43.5000E-09,+719.6652535349E-03
+44.0000E-09,+706.0669275235E-03
+44.5000E-09,+708.1589776789E-03
+45.0000E-09,+633.8911971537E-03
+45.5000E-09,+291.8409967086E-03
+46.0000E-09,-221.7573164974E-03
+46.5000E-09,-684.1004008902E-03
+47.0000E-09,-926.7782189420E-03
+47.5000E-09,-970.7112722099E-03
+48.0000E-09,-923.6401437084E-03
+48.5000E-09,-915.2719430859E-03
+49.0000E-09,-860.8786390393E-03
+49.5000E-09,-672.5941250327E-03
+50.0000E-09,-249.9999935961E-03
+50.5000E-09,+221.7573164974E-03
+51.0000E-09,+551.2552160076E-03
+51.5000E-09,+709.2050027570E-03
+52.0000E-09,+686.1924510449E-03
+52.5000E-09,+697.6987269009E-03
+53.0000E-09,+686.1924510449E-03
+53.5000E-09,+566.9455921737E-03
+54.0000E-09,+199.7907898611E-03
+54.5000E-09,-288.7029214773E-03
+55.0000E-09,-724.8953789246E-03
+55.5000E-09,-938.2844947980E-03
+56.0000E-09,-967.5731969764E-03
+56.5000E-09,-925.7321938639E-03
+57.0000E-09,-887.0292659849E-03
+57.5000E-09,-915.2719430859E-03
+58.0000E-09,-920.5020684749E-03
+58.5000E-09,-937.2384697199E-03
+59.0000E-09,-937.2384697199E-03
+59.5000E-09,-937.2384697199E-03
+60.0000E-09,-920.5020684749E-03
+60.5000E-09,-897.4895167628E-03
+61.0000E-09,-824.2677613158E-03
+61.5000E-09,-594.1422441967E-03
+62.0000E-09,-160.0418369041E-03
+62.5000E-09,+367.1548023133E-03
+63.0000E-09,+775.1045826596E-03
+63.5000E-09,+1.0219665010230E+00
+64.0000E-09,+1.0543932784349E+00
+64.5000E-09,+997.9079242328E-03
+65.0000E-09,+950.8367957314E-03
+65.5000E-09,+908.9957926189E-03
+66.0000E-09,+887.0292659849E-03
+66.5000E-09,+819.0376359268E-03
+67.0000E-09,+587.8660937296E-03
+67.5000E-09,+134.9372350366E-03
+68.0000E-09,-312.7614982667E-03
+68.5000E-09,-598.3263445090E-03
+69.0000E-09,-692.4686015120E-03
+69.5000E-09,-731.1715293909E-03
+70.0000E-09,-679.9163005779E-03
+70.5000E-09,-488.4937113378E-03
+71.0000E-09,-85.7740563797E-03
+71.5000E-09,+377.6150530913E-03
+72.0000E-09,+715.4811532240E-03
+72.5000E-09,+893.3054164519E-03
+73.0000E-09,+917.3639932414E-03
+73.5000E-09,+875.5229901289E-03
+74.0000E-09,+820.0836610049E-03
+74.5000E-09,+780.3347080479E-03
+75.0000E-09,+520.9204887497E-03
+75.5000E-09,+51.2552288117E-03
+76.0000E-09,-466.5271847052E-03
+76.5000E-09,-816.9455857721E-03
+77.0000E-09,-926.7782189419E-03
+77.5000E-09,-937.2384697199E-03
+78.0000E-09,-900.6275919964E-03
+78.5000E-09,-870.2928647399E-03
+79.0000E-09,-717.5732033788E-03
+79.5000E-09,-358.7866016887E-03
+80.0000E-09,+115.0627585602E-03
+80.5000E-09,+470.7112850161E-03
+81.0000E-09,+692.4686015120E-03
+81.5000E-09,+719.6652535349E-03
+82.0000E-09,+702.9288522899E-03
+82.5000E-09,+725.9414040020E-03
+83.0000E-09,+776.1506077369E-03
+83.5000E-09,+848.3263381059E-03
+84.0000E-09,+873.4309399734E-03
+84.5000E-09,+870.2928647399E-03
+85.0000E-09,+820.0836610049E-03
+85.5000E-09,+752.0920309468E-03
+86.0000E-09,+643.3054228544E-03
+86.5000E-09,+489.5397364159E-03
+87.0000E-09,+212.3430907953E-03
+87.5000E-09,-160.0418369062E-03
+88.0000E-09,-580.5439181866E-03
+88.5000E-09,-905.8577173860E-03
+89.0000E-09,-1.0606694289019E+00
+89.5000E-09,-1.0993723567809E+00
+90.0000E-09,-1.0512552032014E+00
+90.5000E-09,-1.0041840746999E+00
+91.0000E-09,-967.5731969764E-03
+91.5000E-09,-953.9748709649E-03
+92.0000E-09,-894.3514415293E-03
+92.5000E-09,-706.0669275228E-03
+93.0000E-09,-333.6819998213E-03
+93.5000E-09,+98.3263573152E-03
+94.0000E-09,+367.1548023125E-03
+94.5000E-09,+508.3681878170E-03
+95.0000E-09,+552.3012410849E-03
+95.5000E-09,+501.0460122719E-03
+96.0000E-09,+239.5397428183E-03
+96.5000E-09,-193.5146393961E-03
+97.0000E-09,-610.8786454431E-03
+97.5000E-09,-894.3514415300E-03
+98.0000E-09,-1.0073221499334E+00
+98.5000E-09,-1.0094142000889E+00
+99.0000E-09,-937.2384697199E-03
+99.5000E-09,-908.9957926189E-03
+100.0000E-09,-810.6694353044E-03
+100.5000E-09,-577.4058429518E-03
+101.0000E-09,-112.9707084028E-03
+101.5000E-09,+349.3723759901E-03
+102.0000E-09,+668.4100247225E-03
+102.5000E-09,+792.8870089819E-03
+103.0000E-09,+800.2091845264E-03
+103.5000E-09,+803.3472597599E-03
+104.0000E-09,+777.1966328144E-03
+104.5000E-09,+588.9121188078E-03
+105.0000E-09,+149.5815861263E-03
+105.5000E-09,-327.4058493561E-03
+106.0000E-09,-688.2845012010E-03
+106.5000E-09,-809.6234102269E-03
+107.0000E-09,-800.2091845264E-03
+107.5000E-09,-769.8744572699E-03
+108.0000E-09,-786.6108585149E-03
+108.5000E-09,-837.8660873279E-03
+109.0000E-09,-876.5690152069E-03
+109.5000E-09,-915.2719430859E-03
+110.0000E-09,-900.6275919964E-03
+110.5000E-09,-892.2593913739E-03
+111.0000E-09,-813.8075105379E-03
+111.5000E-09,-701.8828272119E-03
+112.0000E-09,-516.7363884389E-03
+112.5000E-09,-220.7112914179E-03
+113.0000E-09,+229.0794920416E-03
+113.5000E-09,+650.6275984001E-03
+114.0000E-09,+933.0543694089E-03
+114.5000E-09,+1.0721757047579E+00
+115.0000E-09,+1.0543932784349E+00
+115.5000E-09,+1.0094142000889E+00
+116.0000E-09,+967.5731969764E-03
+116.5000E-09,+942.4685951089E-03
+117.0000E-09,+920.5020684749E-03
+117.5000E-09,+937.2384697199E-03
+118.0000E-09,+937.2384697199E-03
+118.5000E-09,+937.2384697199E-03
+119.0000E-09,+906.9037424634E-03
+119.5000E-09,+920.5020684749E-03
+120.0000E-09,+906.9037424634E-03
+120.5000E-09,+892.2593913739E-03
+121.0000E-09,+781.3807331253E-03
+121.5000E-09,+408.9958054238E-03
+122.0000E-09,-124.4769842607E-03
+122.5000E-09,-662.1338742561E-03
+123.0000E-09,-966.5271718990E-03
+123.5000E-09,-1.0543932784349E+00
+124.0000E-09,-1.0481171279678E+00
+124.5000E-09,-964.4351217428E-03
+125.0000E-09,-934.1003944864E-03
+125.5000E-09,-925.7321938639E-03
+126.0000E-09,-920.5020684749E-03
+126.5000E-09,-908.9957926189E-03
+127.0000E-09,-906.9037424634E-03
+127.5000E-09,-903.7656672299E-03
+128.0000E-09,-900.6275919964E-03
+128.5000E-09,-892.2593913739E-03
+129.0000E-09,-810.6694353043E-03
+129.5000E-09,-594.1422441967E-03
+130.0000E-09,-106.6945579356E-03
+130.5000E-09,+450.8368085383E-03
+131.0000E-09,+872.3849148961E-03
+131.5000E-09,+1.0502091781240E+00
+132.0000E-09,+1.0711296796799E+00
+132.5000E-09,+1.0146443254778E+00
+133.0000E-09,+950.8367957313E-03
+133.5000E-09,+925.7321938639E-03
+134.0000E-09,+877.6150402843E-03
+134.5000E-09,+700.8368021337E-03
+135.0000E-09,+293.9330468639E-03
+135.5000E-09,-193.5146393964E-03
+136.0000E-09,-534.5188147626E-03
+136.5000E-09,-664.2259244110E-03
+137.0000E-09,-686.1924510449E-03
+137.5000E-09,-664.2259244110E-03
+138.0000E-09,-583.6819934187E-03
+138.5000E-09,-241.6317929735E-03
+139.0000E-09,+215.4811660304E-03
+139.5000E-09,+622.3849212993E-03
+140.0000E-09,+866.1087644291E-03
+140.5000E-09,+959.2049963538E-03
+141.0000E-09,+947.6987204978E-03
+141.5000E-09,+892.2593913738E-03
+142.0000E-09,+864.0167142728E-03
+142.5000E-09,+700.8368021336E-03
+143.0000E-09,+347.2803258323E-03
+143.5000E-09,-171.5481127626E-03
+144.0000E-09,-610.8786454434E-03
+144.5000E-09,-849.3723631841E-03
+145.0000E-09,-870.2928647399E-03
+145.5000E-09,-853.5564634949E-03
+146.0000E-09,-833.6819870163E-03
+146.5000E-09,-745.8158804796E-03
+147.0000E-09,-470.7112850144E-03
+147.5000E-09,-12.5523009323E-03
+148.0000E-09,+416.3179809705E-03
+148.5000E-09,+703.9748773681E-03
+149.0000E-09,+776.1506077370E-03
+149.5000E-09,+786.6108585149E-03
+150.0000E-09,+773.0125325035E-03
+150.5000E-09,+814.8535356160E-03
+151.0000E-09,+846.2342879506E-03
+151.5000E-09,+897.4895167628E-03
+152.0000E-09,+900.6275919963E-03
+152.5000E-09,+887.0292659849E-03
+153.0000E-09,+880.7531155177E-03
+153.5000E-09,+780.3347080478E-03
+154.0000E-09,+656.9037488656E-03
+154.5000E-09,+461.2970593146E-03
+155.0000E-09,+116.1087836357E-03
+155.5000E-09,-327.4058493568E-03
+156.0000E-09,-741.6317801699E-03
+156.5000E-09,-971.7572972881E-03
+157.0000E-09,-1.0742677549135E+00
+157.5000E-09,-1.0648535292127E+00
+158.0000E-09,-997.9079242327E-03
+158.5000E-09,-942.4685951088E-03
+159.0000E-09,-920.5020684749E-03
+159.5000E-09,-926.7782189421E-03
+160.0000E-09,-937.2384697199E-03
+160.5000E-09,-953.9748709649E-03
+161.0000E-09,-934.1003944863E-03
+161.5000E-09,-915.2719430860E-03
+162.0000E-09,-917.3639932413E-03
+162.5000E-09,-903.7656672299E-03
+163.0000E-09,-844.1422377941E-03
+163.5000E-09,-632.8451720751E-03
+164.0000E-09,-156.9037616697E-03
+164.5000E-09,+400.6276048041E-03
+165.0000E-09,+842.0501876401E-03
+165.5000E-09,+1.0439330276571E+00
+166.0000E-09,+1.0648535292127E+00
+166.5000E-09,+1.0094142000888E+00
+167.0000E-09,+950.8367957313E-03
+167.5000E-09,+920.5020684749E-03
+168.0000E-09,+917.3639932413E-03
+168.5000E-09,+920.5020684749E-03
+169.0000E-09,+917.3639932413E-03
+169.5000E-09,+920.5020684749E-03
+170.0000E-09,+900.6275919963E-03
+170.5000E-09,+903.7656672299E-03
+171.0000E-09,+883.8911907513E-03
+171.5000E-09,+790.7949588255E-03
+172.0000E-09,+517.7824135153E-03
+172.5000E-09,+23.0125517095E-03
+173.0000E-09,-523.0125389083E-03
+173.5000E-09,-917.3639932427E-03
+174.0000E-09,-1.0742677549135E+00
+174.5000E-09,-1.0763598050688E+00
+175.0000E-09,-1.0010459994663E+00
+175.5000E-09,-947.6987204977E-03
+176.0000E-09,-906.9037424635E-03
+176.5000E-09,-852.5104384165E-03
+177.0000E-09,-557.5313664724E-03
+177.5000E-09,-124.4769842577E-03
+178.0000E-09,+329.4978995125E-03
+178.5000E-09,+609.8326203655E-03
+179.0000E-09,+686.1924510449E-03
+179.5000E-09,+714.4351281460E-03
+180.0000E-09,+696.6527018227E-03
+180.5000E-09,+538.7029150721E-03
+181.0000E-09,+143.3054356578E-03
+181.5000E-09,-344.1422506024E-03
+182.0000E-09,-738.4937049367E-03
+182.5000E-09,-938.2844947983E-03
+183.0000E-09,-997.9079242326E-03
+183.5000E-09,-925.7321938638E-03
+184.0000E-09,-900.6275919963E-03
+184.5000E-09,-887.0292659849E-03
+185.0000E-09,-903.7656672299E-03
+185.5000E-09,-903.7656672299E-03
+186.0000E-09,-903.7656672299E-03
+186.5000E-09,-898.5355418410E-03
+187.0000E-09,-870.2928647399E-03
+187.5000E-09,-835.7740371715E-03
+188.0000E-09,-703.9748773667E-03
+188.5000E-09,-420.5020812786E-03
+189.0000E-09,-29.2887021763E-03
+189.5000E-09,+456.0669339287E-03
+190.0000E-09,+838.9121124068E-03
+190.5000E-09,+1.0334727768795E+00
+191.0000E-09,+1.0512552032012E+00
+191.5000E-09,+1.0261506013337E+00
+192.0000E-09,+970.7112722099E-03
+192.5000E-09,+947.6987204976E-03
+193.0000E-09,+920.5020684749E-03
+193.5000E-09,+937.2384697199E-03
+194.0000E-09,+934.1003944862E-03
+194.5000E-09,+920.5020684749E-03
+195.0000E-09,+917.3639932412E-03
+195.5000E-09,+903.7656672299E-03
+196.0000E-09,+903.7656672299E-03
+196.5000E-09,+881.7991405960E-03
+197.0000E-09,+824.2677613153E-03
+197.5000E-09,+554.3932912384E-03
+198.0000E-09,+59.6234294324E-03
+198.5000E-09,-489.5397364188E-03
+199.0000E-09,-892.2593913755E-03
+199.5000E-09,-1.0606694289022E+00
+200.0000E-09,-1.0679916044462E+00
+200.5000E-09,-1.0261506013337E+00
+201.0000E-09,-967.5731969762E-03
+201.5000E-09,-925.7321938637E-03
+202.0000E-09,-937.2384697199E-03
+202.5000E-09,-920.5020684749E-03
+203.0000E-09,-920.5020684749E-03
+203.5000E-09,-920.5020684749E-03
+204.0000E-09,-917.3639932412E-03
+204.5000E-09,-892.2593913737E-03
+205.0000E-09,-847.2803130276E-03
+205.5000E-09,-689.3305262767E-03
+206.0000E-09,-280.3347208509E-03
+206.5000E-09,+266.7363948452E-03
+207.0000E-09,+744.7698554043E-03
+207.5000E-09,+1.0167363756346E+00
+208.0000E-09,+1.0711296796799E+00
+208.5000E-09,+1.0198744508664E+00
+209.0000E-09,+981.1715229875E-03
+209.5000E-09,+937.2384697199E-03
+210.0000E-09,+906.9037424636E-03
+210.5000E-09,+915.2719430861E-03
+211.0000E-09,+903.7656672299E-03
+211.5000E-09,+908.9957926187E-03
+212.0000E-09,+887.0292659849E-03
+212.5000E-09,+887.0292659849E-03
+213.0000E-09,+887.0292659849E-03
+213.5000E-09,+864.0167142725E-03
+214.0000E-09,+697.6987268991E-03
+214.5000E-09,+297.0711220957E-03
+215.0000E-09,-271.9665202342E-03
+215.5000E-09,-751.0460058718E-03
+216.0000E-09,-1.0135983004009E+00
+216.5000E-09,-1.0878660809249E+00
+217.0000E-09,-1.0345188019562E+00
+217.5000E-09,-981.1715229875E-03
+218.0000E-09,-934.1003944862E-03
+218.5000E-09,-920.5020684749E-03
+219.0000E-09,-920.5020684749E-03
+219.5000E-09,-920.5020684749E-03
+220.0000E-09,-903.7656672299E-03
+220.5000E-09,-892.2593913737E-03
+221.0000E-09,-906.9037424636E-03
+221.5000E-09,-903.7656672299E-03
+222.0000E-09,-874.4769650501E-03
+222.5000E-09,-700.8368021327E-03
+223.0000E-09,-313.8075233405E-03
+223.5000E-09,+249.9999936006E-03
+224.0000E-09,+714.4351281482E-03
+224.5000E-09,+994.7698490009E-03
+225.0000E-09,+1.0575313536686E+00
+225.5000E-09,+1.0146443254775E+00
+226.0000E-09,+967.5731969762E-03
+226.5000E-09,+925.7321938637E-03
+227.0000E-09,+934.1003944862E-03
+227.5000E-09,+920.5020684749E-03
+228.0000E-09,+934.1003944862E-03
+228.5000E-09,+915.2719430861E-03
+229.0000E-09,+900.6275919962E-03
+229.5000E-09,+887.0292659849E-03
+230.0000E-09,+887.0292659849E-03
+230.5000E-09,+847.2803130275E-03
+231.0000E-09,+661.0878491752E-03
+231.5000E-09,+235.3556425041E-03
+232.0000E-09,-338.9121252146E-03
+232.5000E-09,-784.5188083621E-03
+233.0000E-09,-1.0271966264123E+00
+233.5000E-09,-1.0711296796799E+00
+234.0000E-09,-1.0313807267224E+00
+234.5000E-09,-964.4351217424E-03
+235.0000E-09,-934.1003944862E-03
+235.5000E-09,-880.7531155174E-03
+236.0000E-09,-747.9079306338E-03
+236.5000E-09,-403.7656800327E-03
+237.0000E-09,+64.8535548273E-03
+237.5000E-09,+432.0083571385E-03
+238.0000E-09,+622.3849212987E-03
+238.5000E-09,+652.7196485549E-03
+239.0000E-09,+666.3179745662E-03
+239.5000E-09,+595.1882692738E-03
+240.0000E-09,+316.9455985740E-03
+240.5000E-09,-166.3179873759E-03
+241.0000E-09,-597.2803194335E-03
+241.5000E-09,-882.8451656748E-03
+242.0000E-09,-987.4476734549E-03
+242.5000E-09,-981.1715229874E-03
+243.0000E-09,-920.5020684749E-03
+243.5000E-09,-887.0292659849E-03
+244.0000E-09,-784.5188083576E-03
+244.5000E-09,-470.7112850128E-03
+245.0000E-09,+4.1841003145E-03
+245.5000E-09,+455.0209088508E-03
+246.0000E-09,+745.8158804810E-03
+246.5000E-09,+820.0836610049E-03
+247.0000E-09,+792.8870089823E-03
+247.5000E-09,+820.0836610049E-03
+248.0000E-09,+774.0585575801E-03
+248.5000E-09,+515.6903633591E-03
+249.0000E-09,+93.0962319218E-03
+249.5000E-09,-416.3179809720E-03
+250.0000E-09,-732.2175544697E-03
+250.5000E-09,-836.8200622499E-03
+251.0000E-09,-816.9455857712E-03
+251.5000E-09,-791.8409839037E-03
+252.0000E-09,-763.5983068025E-03
+252.5000E-09,-617.1547959077E-03
+253.0000E-09,-233.2635923493E-03
+253.5000E-09,+249.9999936004E-03
+254.0000E-09,+641.2133727007E-03
+254.5000E-09,+854.6024885735E-03
+255.0000E-09,+880.7531155175E-03
+255.5000E-09,+875.5229901287E-03
+256.0000E-09,+843.0962127173E-03
+256.5000E-09,+813.8075105375E-03
+257.0000E-09,+584.7280184944E-03
+257.5000E-09,+112.9707084008E-03
+258.0000E-09,-379.7071032481E-03
+258.5000E-09,-705.0209024470E-03
+259.0000E-09,-800.2091845262E-03
+259.5000E-09,-775.1045826587E-03
+260.0000E-09,-749.9999807912E-03
+260.5000E-09,-713.3891030676E-03
+261.0000E-09,-547.0711156942E-03
+261.5000E-09,-157.9497867471E-03
+262.0000E-09,+332.6359747466E-03
+262.5000E-09,+699.7907770581E-03
+263.0000E-09,+873.4309399736E-03
+263.5000E-09,+903.7656672299E-03
+264.0000E-09,+853.5564634949E-03
+264.5000E-09,+853.5564634949E-03
+265.0000E-09,+793.9330340589E-03
+265.5000E-09,+537.6568899934E-03
+266.0000E-09,+76.3598306774E-03
+266.5000E-09,-399.5815797265E-03
+267.0000E-09,-729.0794792359E-03
+267.5000E-09,-826.3598114722E-03
+268.0000E-09,-813.8075105376E-03
+268.5000E-09,-781.3807331261E-03
+269.0000E-09,-792.8870089822E-03
+269.5000E-09,-848.3263381060E-03
+270.0000E-09,-890.1673412185E-03
+270.5000E-09,-903.7656672299E-03
+271.0000E-09,-903.7656672299E-03
+271.5000E-09,-892.2593913737E-03
+272.0000E-09,-830.5439117826E-03
+272.5000E-09,-718.6192284565E-03
+273.0000E-09,-483.2635859481E-03
+273.5000E-09,-135.9832601136E-03
+274.0000E-09,+322.1757239686E-03
+274.5000E-09,+734.3096046263E-03
+275.0000E-09,+980.1254979108E-03
+275.5000E-09,+1.0543932784349E+00
+276.0000E-09,+1.0345188019562E+00
+276.5000E-09,+992.6777988437E-03
+277.0000E-09,+923.6401437085E-03
+277.5000E-09,+920.5020684749E-03
+278.0000E-09,+897.4895167626E-03
+278.5000E-09,+762.5522817243E-03
+279.0000E-09,+406.9037552673E-03
+279.5000E-09,-54.3933040485E-03
+280.0000E-09,-400.6276048031E-03
+280.5000E-09,-575.3137927972E-03
+281.0000E-09,-619.2468460649E-03
+281.5000E-09,-607.7405702088E-03
+282.0000E-09,-443.5146329910E-03
+282.5000E-09,-85.7740563788E-03
+283.0000E-09,+332.6359747461E-03
+283.5000E-09,+711.2970529138E-03
+284.0000E-09,+893.3054164521E-03
+284.5000E-09,+970.7112722099E-03
+285.0000E-09,+934.1003944863E-03
+285.5000E-09,+898.5355418410E-03
+286.0000E-09,+847.2803130277E-03
+286.5000E-09,+684.1004008883E-03
+287.0000E-09,+290.7949716295E-03
+287.5000E-09,-221.7573164982E-03
+288.0000E-09,-657.9497739452E-03
+288.5000E-09,-854.6024885732E-03
+289.0000E-09,-887.0292659849E-03
+289.5000E-09,-870.2928647399E-03
+290.0000E-09,-836.8200622499E-03
+290.5000E-09,-740.5857550905E-03
+291.0000E-09,-423.6401565126E-03
+291.5000E-09,+37.6569028031E-03
+292.0000E-09,+473.8493602501E-03
+292.5000E-09,+698.7447519793E-03
+293.0000E-09,+753.1380560249E-03
+293.5000E-09,+724.8953789238E-03
+294.0000E-09,+739.5397300135E-03
+294.5000E-09,+792.8870089821E-03
+295.0000E-09,+843.0962127171E-03
+295.5000E-09,+881.7991405960E-03
+296.0000E-09,+887.0292659849E-03
+296.5000E-09,+875.5229901288E-03
+297.0000E-09,+813.8075105377E-03
+297.5000E-09,+723.8493538456E-03
+298.0000E-09,+553.3472661621E-03
+298.5000E-09,+354.6025013774E-03
+299.0000E-09,-4.1841003129E-03
+299.5000E-09,-456.0669339278E-03
+300.0000E-09,-835.7740371728E-03
+300.5000E-09,-1.0387029022681E+00
+301.0000E-09,-1.0742677549134E+00
+301.5000E-09,-1.0596234038238E+00
+302.0000E-09,-1.0010459994663E+00
+302.5000E-09,-959.2049963538E-03
+303.0000E-09,-923.6401437085E-03
+303.5000E-09,-908.9957926188E-03
+304.0000E-09,-767.7824071136E-03
+304.5000E-09,-432.0083571354E-03
+305.0000E-09,+8.3682006235E-03
+305.5000E-09,+320.0836738113E-03
+306.0000E-09,+491.6317865721E-03
+306.5000E-09,+563.8075169410E-03
+307.0000E-09,+542.8870153843E-03
+307.5000E-09,+359.8326267665E-03
+308.0000E-09,-51.2552288141E-03
+308.5000E-09,-488.4937113394E-03
+309.0000E-09,-822.1757111612E-03
+309.5000E-09,-993.7238239220E-03
+310.0000E-09,-1.0010459994663E+00
+310.5000E-09,-959.2049963538E-03
+311.0000E-09,-917.3639932413E-03
+311.5000E-09,-847.2803130278E-03
+312.0000E-09,-644.3514479316E-03
+312.5000E-09,-241.6317929735E-03
+313.0000E-09,+265.6903697653E-03
+313.5000E-09,+616.1087708322E-03
+314.0000E-09,+792.8870089820E-03
+314.5000E-09,+820.0836610049E-03
+315.0000E-09,+806.4853349934E-03
+315.5000E-09,+808.5773851489E-03
+316.0000E-09,+680.9623256552E-03
+316.5000E-09,+320.0836738097E-03
+317.0000E-09,-185.1464387738E-03
+317.5000E-09,-587.8660937311E-03
+318.0000E-09,-789.7489337484E-03
+318.5000E-09,-797.0711092929E-03
+319.0000E-09,-769.8744572699E-03
+319.5000E-09,-764.6443318809E-03
+320.0000E-09,-806.4853349934E-03
+320.5000E-09,-853.5564634949E-03
+321.0000E-09,-887.0292659849E-03
+321.5000E-09,-892.2593913739E-03
+322.0000E-09,-883.8911907514E-03
+322.5000E-09,-830.5439117829E-03
+323.0000E-09,-726.9874290794E-03
+323.5000E-09,-561.7154667849E-03
+324.0000E-09,-303.3472725648E-03
+324.5000E-09,+121.3389090271E-03
+325.0000E-09,+560.6694417080E-03
+325.5000E-09,+872.3849148959E-03
+326.0000E-09,+1.0407949524234E+00
+326.5000E-09,+1.0711296796799E+00
+327.0000E-09,+1.0313807267229E+00
+327.5000E-09,+987.4476734549E-03
+328.0000E-09,+940.3765449534E-03
+328.5000E-09,+925.7321938639E-03
+329.0000E-09,+877.6150402844E-03
+329.5000E-09,+700.8368021339E-03
+330.0000E-09,+303.3472725650E-03
+330.5000E-09,-103.5564827040E-03
+331.0000E-09,-397.4895295689E-03
+331.5000E-09,-519.8744636729E-03
+332.0000E-09,-549.1631658514E-03
+332.5000E-09,-484.3096110270E-03
+333.0000E-09,-242.6778180521E-03
+333.5000E-09,+153.7656864388E-03
+334.0000E-09,+563.8075169413E-03
+334.5000E-09,+860.8786390398E-03
+335.0000E-09,+973.8493474434E-03
+335.5000E-09,+987.4476734549E-03
+336.0000E-09,+950.8367957314E-03
+336.5000E-09,+892.2593913739E-03
+337.0000E-09,+841.0041625610E-03
+337.5000E-09,+594.1422441971E-03
+338.0000E-09,+146.4435108933E-03
+338.5000E-09,-349.3723759897E-03
+339.0000E-09,-701.8828272123E-03
+339.5000E-09,-826.3598114718E-03
+340.0000E-09,-820.0836610049E-03
+340.5000E-09,-808.5773851489E-03
+341.0000E-09,-780.3347080480E-03
+341.5000E-09,-583.6819934191E-03
+342.0000E-09,-183.0543886168E-03
+342.5000E-09,+282.4267710096E-03
+343.0000E-09,+621.3388962207E-03
+343.5000E-09,+786.6108585149E-03
+344.0000E-09,+783.4727832814E-03
+344.5000E-09,+758.3681814139E-03
+345.0000E-09,+769.8744572699E-03
+345.5000E-09,+673.6401501111E-03
+346.0000E-09,+367.1548023120E-03
+346.5000E-09,-144.3514607383E-03
+347.0000E-09,-614.0167206760E-03
+347.5000E-09,-882.8451656737E-03
+348.0000E-09,-953.9748709649E-03
+348.5000E-09,-897.4895167630E-03
+349.0000E-09,-870.2928647399E-03
+349.5000E-09,-835.7740371721E-03
+350.0000E-09,-661.0878491774E-03
+350.5000E-09,-281.3807459315E-03
+351.0000E-09,+195.6066895509E-03
+351.5000E-09,+554.3932912406E-03
+352.0000E-09,+709.2050027568E-03
+352.5000E-09,+736.4016547799E-03
+353.0000E-09,+722.8033287684E-03
+353.5000E-09,+719.6652535349E-03
+354.0000E-09,+617.1547959093E-03
+354.5000E-09,+258.3681942197E-03
+355.0000E-09,-235.3556425077E-03
+355.5000E-09,-661.0878491774E-03
+356.0000E-09,-896.4434916852E-03
+356.5000E-09,-953.9748709649E-03
+357.0000E-09,-900.6275919965E-03
+357.5000E-09,-881.7991405958E-03
+358.0000E-09,-816.9455857715E-03
+358.5000E-09,-627.6150466875E-03
+359.0000E-09,-216.5271911073E-03
+359.5000E-09,+260.4602443751E-03
+360.0000E-09,+601.4644197420E-03
+360.5000E-09,+747.9079306358E-03
+361.0000E-09,+766.7363820365E-03
+361.5000E-09,+769.8744572699E-03
+362.0000E-09,+763.5983068031E-03
+362.5000E-09,+656.9037488663E-03
+363.0000E-09,+277.1966456207E-03
+363.5000E-09,-238.4937177409E-03
+364.0000E-09,-654.8116987104E-03
+364.5000E-09,-866.1087644285E-03
+365.0000E-09,-887.0292659849E-03
+365.5000E-09,-853.5564634949E-03
+366.0000E-09,-836.8200622499E-03
+366.5000E-09,-785.5648334372E-03
+367.0000E-09,-574.2677677193E-03
+367.5000E-09,-129.7071096492E-03
+368.0000E-09,+346.2343007556E-03
+368.5000E-09,+671.5480999553E-03
+369.0000E-09,+820.0836610049E-03
+369.5000E-09,+808.5773851490E-03
+370.0000E-09,+789.7489337483E-03
+370.5000E-09,+821.1296860826E-03
+371.0000E-09,+870.2928647399E-03
+371.5000E-09,+903.7656672299E-03
+372.0000E-09,+906.9037424633E-03
+372.5000E-09,+903.7656672299E-03
+373.0000E-09,+903.7656672299E-03
+373.5000E-09,+864.0167142731E-03
+374.0000E-09,+766.7363820365E-03
+374.5000E-09,+583.6819934197E-03
+375.0000E-09,+256.2761440646E-03
+375.5000E-09,-216.5271911064E-03
+376.0000E-09,-644.3514479319E-03
+376.5000E-09,-944.5606452643E-03
+377.0000E-09,-1.0439330276566E+00
+377.5000E-09,-1.0543932784349E+00
+378.0000E-09,-997.9079242331E-03
+378.5000E-09,-942.4685951090E-03
+379.0000E-09,-917.3639932415E-03
+379.5000E-09,-892.2593913740E-03
+380.0000E-09,-794.9790591380E-03
+380.5000E-09,-442.4686079155E-03
+381.0000E-09,+1.0460250770E-03
+381.5000E-09,+388.0753038677E-03
+382.0000E-09,+578.4518680300E-03
+382.5000E-09,+658.9957990216E-03
+383.0000E-09,+666.3179745666E-03
+383.5000E-09,+561.7154667856E-03
+384.0000E-09,+206.0669403298E-03
+384.5000E-09,-243.7238431294E-03
+385.0000E-09,-657.9497739434E-03
+385.5000E-09,-899.5815669183E-03
+386.0000E-09,-984.3095982215E-03
+386.5000E-09,-953.9748709649E-03
+387.0000E-09,-897.4895167632E-03
+387.5000E-09,-881.7991405957E-03
+388.0000E-09,-873.4309399732E-03
+388.5000E-09,-887.0292659849E-03
+389.0000E-09,-887.0292659849E-03
+389.5000E-09,-903.7656672299E-03
+390.0000E-09,-870.2928647399E-03
+390.5000E-09,-830.5439117832E-03
+391.0000E-09,-740.5857550916E-03
+391.5000E-09,-516.7363884399E-03
+392.0000E-09,-152.7196613616E-03
+392.5000E-09,+327.4058493541E-03
+393.0000E-09,+761.5062566466E-03
+393.5000E-09,+1.0219665010224E+00
+394.0000E-09,+1.0847280056915E+00
+394.5000E-09,+1.0826359555357E+00
+395.0000E-09,+1.0177824007116E+00
+395.5000E-09,+964.4351217432E-03
+396.0000E-09,+937.2384697199E-03
+396.5000E-09,+908.9957926191E-03
+397.0000E-09,+801.2552096050E-03
+397.5000E-09,+510.4602379734E-03
+398.0000E-09,+85.7740563818E-03
+398.5000E-09,-269.8744700749E-03
+399.0000E-09,-455.0209088483E-03
+399.5000E-09,-491.6317865716E-03
+400.0000E-09,-498.9539621166E-03
+400.5000E-09,-360.8786518459E-03
+401.0000E-09,-15.6903761685E-03
+401.5000E-09,+404.8117051123E-03
+402.0000E-09,+758.3681814131E-03
+402.5000E-09,+966.5271718981E-03
+403.0000E-09,+1.0041840746999E+00
+403.5000E-09,+981.1715229883E-03
+404.0000E-09,+934.1003944866E-03
+404.5000E-09,+903.7656672299E-03
+405.0000E-09,+900.6275919966E-03
+405.5000E-09,+892.2593913741E-03
+406.0000E-09,+887.0292659849E-03
+406.5000E-09,+881.7991405957E-03
+407.0000E-09,+856.6945387282E-03
+407.5000E-09,+858.7865888841E-03
+408.0000E-09,+793.9330340600E-03
+408.5000E-09,+617.1547959102E-03
+409.0000E-09,+216.5271911088E-03
+409.5000E-09,-300.2091973303E-03
+410.0000E-09,-764.6443318795E-03
+410.5000E-09,-1.0334727768780E+00
+411.0000E-09,-1.1046024821699E+00
+411.5000E-09,-1.0763598050691E+00
+412.0000E-09,-1.0010459994666E+00
+412.5000E-09,-959.2049963541E-03
+413.0000E-09,-937.2384697199E-03
+413.5000E-09,-897.4895167633E-03
+414.0000E-09,-744.7698554037E-03
+414.5000E-09,-375.5230029364E-03
+415.0000E-09,+58.5774043562E-03
+415.5000E-09,+392.2594041788E-03
+416.0000E-09,+528.2426642947E-03
+416.5000E-09,+580.5439181857E-03
+417.0000E-09,+565.8995670967E-03
+417.5000E-09,+404.8117051146E-03
+418.0000E-09,+2.0920501573E-03
+418.5000E-09,-433.0543822126E-03
+419.0000E-09,-788.7029086695E-03
+419.5000E-09,-988.4936985322E-03
+420.0000E-09,-1.0041840746999E+00
+420.5000E-09,-975.9413975991E-03
+421.0000E-09,-920.5020684749E-03
+421.5000E-09,-915.2719430857E-03
+422.0000E-09,-893.3054164514E-03
+422.5000E-09,-892.2593913741E-03
+423.0000E-09,-890.1673412181E-03
+423.5000E-09,-892.2593913741E-03
+424.0000E-09,-890.1673412181E-03
+424.5000E-09,-858.7865888841E-03
+425.0000E-09,-774.0585575819E-03
+425.5000E-09,-538.7029150747E-03
+426.0000E-09,-129.7071096510E-03
+426.5000E-09,+400.6276047997E-03
+427.0000E-09,+808.5773851476E-03
+427.5000E-09,+1.0334727768779E+00
+428.0000E-09,+1.0742677549131E+00
+428.5000E-09,+1.0366108521127E+00
+429.0000E-09,+997.9079242334E-03
+429.5000E-09,+942.4685951091E-03
+430.0000E-09,+920.5020684749E-03
+430.5000E-09,+869.2468396627E-03
+431.0000E-09,+680.9623256572E-03
+431.5000E-09,+308.5773979568E-03
+432.0000E-09,-128.6610845691E-03
+432.5000E-09,-442.4686079136E-03
+433.0000E-09,-541.8409903064E-03
+433.5000E-09,-557.5313664742E-03
+434.0000E-09,-542.8870153853E-03
+434.5000E-09,-343.0962255242E-03
+435.0000E-09,+48.1171535772E-03
+435.5000E-09,+483.2635859472E-03
+436.0000E-09,+819.0376359260E-03
+436.5000E-09,+960.2510214313E-03
+437.0000E-09,+987.4476734549E-03
+437.5000E-09,+947.6987204984E-03
+438.0000E-09,+903.7656672299E-03
+438.5000E-09,+847.2803130285E-03
+439.0000E-09,+630.7531219224E-03
+439.5000E-09,+218.6192412658E-03
+440.0000E-09,-282.4267710071E-03
+440.5000E-09,-666.3179745649E-03
+441.0000E-09,-809.6234102263E-03
+441.5000E-09,-825.3137863942E-03
+442.0000E-09,-800.2091845267E-03
+442.5000E-09,-775.1045826592E-03
+443.0000E-09,-617.1547959107E-03
+443.5000E-09,-241.6317929772E-03
+444.0000E-09,+232.2175672720E-03
+444.5000E-09,+594.1422441955E-03
+445.0000E-09,+776.1506077363E-03
+445.5000E-09,+809.6234102263E-03
+446.0000E-09,+773.0125325031E-03
+446.5000E-09,+769.8744572699E-03
+447.0000E-09,+723.8493538471E-03
+447.5000E-09,+453.9748837730E-03
+448.0000E-09,-37.6569027983E-03
+448.5000E-09,-528.2426642926E-03
+449.0000E-09,-832.6359619377E-03
+449.5000E-09,-932.0083443306E-03
+450.0000E-09,-917.3639932417E-03
+450.5000E-09,-887.0292659849E-03
+451.0000E-09,-830.5439117835E-03
+451.5000E-09,-695.6066767465E-03
+452.0000E-09,-316.9455985800E-03
+452.5000E-09,+154.8117115131E-03
+453.0000E-09,+537.6568899940E-03
+453.5000E-09,+720.7112786119E-03
+454.0000E-09,+753.1380560249E-03
+454.5000E-09,+747.9079306356E-03
+455.0000E-09,+749.9999807917E-03
+455.5000E-09,+668.4100247229E-03
+456.0000E-09,+350.4184010701E-03
+456.5000E-09,-126.5690344124E-03
+457.0000E-09,-580.5439181834E-03
+457.5000E-09,-849.3723631826E-03
+458.0000E-09,-920.5020684749E-03
+458.5000E-09,-892.2593913742E-03
+459.0000E-09,-870.2928647399E-03
+459.5000E-09,-842.0501876392E-03
+460.0000E-09,-677.8242504246E-03
+460.5000E-09,-291.8409967127E-03
+461.0000E-09,+198.7447647816E-03
+461.5000E-09,+565.8995670945E-03
+462.0000E-09,+739.5397300131E-03
+462.5000E-09,+758.3681814143E-03
+463.0000E-09,+769.8744572699E-03
+463.5000E-09,+769.8744572699E-03
+464.0000E-09,+687.2384761242E-03
+464.5000E-09,+358.7866016928E-03
+465.0000E-09,-110.8786582441E-03
+465.5000E-09,-577.4058429501E-03
+466.0000E-09,-846.2342879493E-03
+466.5000E-09,-903.7656672299E-03
+467.0000E-09,-867.1547895068E-03
+467.5000E-09,-831.5899368605E-03
+468.0000E-09,-797.0711092936E-03
+468.5000E-09,-622.3849213004E-03
+469.0000E-09,-216.5271911105E-03
+469.5000E-09,+260.4602443720E-03
+470.0000E-09,+624.4769714519E-03
+470.5000E-09,+792.8870089812E-03
+471.0000E-09,+789.7489337480E-03
+471.5000E-09,+791.8409839043E-03
+472.0000E-09,+806.4853349930E-03
+472.5000E-09,+848.3263381055E-03
+473.0000E-09,+887.0292659849E-03
+473.5000E-09,+903.7656672299E-03
+474.0000E-09,+900.6275919968E-03
+474.5000E-09,+887.0292659849E-03
+475.0000E-09,+860.8786390405E-03
+475.5000E-09,+785.5648334380E-03
+476.0000E-09,+633.8911971562E-03
+476.5000E-09,+326.3598242800E-03
+477.0000E-09,-118.2008337893E-03
+477.5000E-09,-577.4058429499E-03
+478.0000E-09,-905.8577173836E-03
+478.5000E-09,-1.0554393035118E+00
+479.0000E-09,-1.0679916044467E+00
+479.5000E-09,-1.0094142000893E+00
+480.0000E-09,-947.6987204986E-03
+480.5000E-09,-932.0083443305E-03
+481.0000E-09,-920.5020684749E-03
+481.5000E-09,-925.7321938642E-03
+482.0000E-09,-937.2384697199E-03
+482.5000E-09,-920.5020684749E-03
+483.0000E-09,-900.6275919967E-03
+483.5000E-09,-887.0292659849E-03
+484.0000E-09,-883.8911907517E-03
+484.5000E-09,-864.0167142736E-03
+485.0000E-09,-677.8242504246E-03
+485.5000E-09,-280.3347208570E-03
+486.0000E-09,+291.8409967062E-03
+486.5000E-09,+767.7824071117E-03
+487.0000E-09,+1.0135983003994E+00
+487.5000E-09,+1.0711296796799E+00
+488.0000E-09,+1.0313807267235E+00
+488.5000E-09,+975.9413975992E-03
+489.0000E-09,+934.1003944867E-03
+489.5000E-09,+926.7782189413E-03
+490.0000E-09,+917.3639932417E-03
+490.5000E-09,+920.5020684749E-03
+491.0000E-09,+920.5020684749E-03
+491.5000E-09,+908.9957926192E-03
+492.0000E-09,+906.9037424631E-03
+492.5000E-09,+892.2593913742E-03
+493.0000E-09,+880.7531155185E-03
+493.5000E-09,+785.5648334377E-03
+494.0000E-09,+640.1673476220E-03
+494.5000E-09,+467.5732097828E-03
+495.0000E-09,+325.3137992003E-03
+495.5000E-09,+216.5271911078E-03
+496.0000E-09,+144.3514607385E-03
+496.5000E-09,+72.1757303693E-03
+497.0000E-09,+27.1966520235E-03
+497.5000E-09,-28.2426771007E-03
+498.0000E-09,-100.4184074700E-03
+498.5000E-09,-162.1338870607E-03
+499.0000E-09,-277.1966456197E-03
+499.5000E-09,-402.7196549572E-03
+500.0000E-09,-511.5062630497E-03
+500.5000E-09,-597.2803194307E-03
+501.0000E-09,-655.8577237882E-03
+501.5000E-09,-669.4560497999E-03
+502.0000E-09,-683.0543758116E-03
+502.5000E-09,-692.4686015115E-03
+503.0000E-09,-683.0543758116E-03
+503.5000E-09,-680.9623256557E-03
+504.0000E-09,-649.5815733216E-03
+504.5000E-09,-624.4769714541E-03
+505.0000E-09,-585.7740435749E-03
+505.5000E-09,-574.2677677191E-03
+506.0000E-09,-532.4267646066E-03
+506.5000E-09,-507.3221627391E-03
+507.0000E-09,-482.2175608716E-03
+507.5000E-09,-485.3556361049E-03
+508.0000E-09,-448.7447583816E-03
+508.5000E-09,-395.3974794133E-03
+509.0000E-09,-401.6736298800E-03
+509.5000E-09,-378.6610781683E-03
+510.0000E-09,-361.9246769233E-03
+510.5000E-09,-323.2217490441E-03
+511.0000E-09,-301.2552224100E-03
+511.5000E-09,-251.0460186750E-03
+512.0000E-09,-244.7698682083E-03
+512.5000E-09,-217.5732161850E-03
+513.0000E-09,-197.6987397066E-03
+513.5000E-09,-184.1004136950E-03
+514.0000E-09,-164.2259372166E-03
+514.5000E-09,-122.3849341041E-03
+515.0000E-09,-100.4184074700E-03
+515.5000E-09,-83.6820062250E-03
+516.0000E-09,-66.9456049800E-03
+516.5000E-09,-66.9456049800E-03
+517.0000E-09,-63.8075297466E-03
+517.5000E-09,-50.2092037350E-03
+518.0000E-09,-33.4728024900E-03
+518.5000E-09,-21.9665266341E-03
+519.0000E-09,-13.5983260116E-03
+519.5000E-09,-5.2301253891E-03
+520.0000E-09,+0.0E+00
+520.5000E-09,+28.2426771009E-03
+521.0000E-09,+33.4728024900E-03
+521.5000E-09,+44.9790783459E-03
+522.0000E-09,+47.0711285016E-03
+522.5000E-09,+50.2092037350E-03
+523.0000E-09,+50.2092037350E-03
+523.5000E-09,+61.7154795909E-03
+524.0000E-09,+53.3472789684E-03
+524.5000E-09,+66.9456049800E-03
+525.0000E-09,+66.9456049800E-03
+525.5000E-09,+78.4518808359E-03
+526.0000E-09,+66.9456049800E-03
+526.5000E-09,+72.1757303691E-03
+527.0000E-09,+80.5439309916E-03
+527.5000E-09,+78.4518808359E-03
+528.0000E-09,+83.6820062250E-03
+528.5000E-09,+66.9456049800E-03
+529.0000E-09,+83.6820062250E-03
+529.5000E-09,+83.6820062250E-03
+530.0000E-09,+97.2803322365E-03
+530.5000E-09,+95.1882820809E-03
+531.0000E-09,+83.6820062250E-03
+531.5000E-09,+83.6820062250E-03
+532.0000E-09,+83.6820062250E-03
+532.5000E-09,+83.6820062250E-03
+533.0000E-09,+83.6820062250E-03
+533.5000E-09,+72.1757303690E-03
+534.0000E-09,+97.2803322365E-03
+534.5000E-09,+88.9121316140E-03
+535.0000E-09,+83.6820062250E-03
+535.5000E-09,+72.1757303690E-03
+536.0000E-09,+83.6820062250E-03
+536.5000E-09,+83.6820062250E-03
+537.0000E-09,+83.6820062250E-03
+537.5000E-09,+66.9456049800E-03
+538.0000E-09,+70.0836802135E-03
+538.5000E-09,+78.4518808360E-03
+539.0000E-09,+83.6820062250E-03
+539.5000E-09,+66.9456049800E-03
+540.0000E-09,+66.9456049800E-03
+540.5000E-09,+78.4518808360E-03
+541.0000E-09,+66.9456049800E-03
+541.5000E-09,+73.2217554470E-03
+542.0000E-09,+66.9456049800E-03
+542.5000E-09,+66.9456049800E-03
+543.0000E-09,+50.2092037350E-03
+543.5000E-09,+66.9456049800E-03
+544.0000E-09,+66.9456049800E-03
+544.5000E-09,+66.9456049800E-03
+545.0000E-09,+63.8075297464E-03
+545.5000E-09,+66.9456049800E-03
+546.0000E-09,+66.9456049800E-03
+546.5000E-09,+50.2092037350E-03
+547.0000E-09,+63.8075297464E-03
+547.5000E-09,+61.7154795911E-03
+548.0000E-09,+66.9456049800E-03
+548.5000E-09,+50.2092037350E-03
+549.0000E-09,+47.0711285014E-03
+549.5000E-09,+50.2092037350E-03
+550.0000E-09,+50.2092037350E-03
+550.5000E-09,+61.7154795911E-03
+551.0000E-09,+63.8075297464E-03
+551.5000E-09,+50.2092037350E-03
+552.0000E-09,+60.6694545128E-03
+552.5000E-09,+50.2092037350E-03
+553.0000E-09,+53.3472789686E-03
+553.5000E-09,+50.2092037350E-03
+554.0000E-09,+33.4728024900E-03
+554.5000E-09,+44.9790783461E-03
+555.0000E-09,+36.6108777236E-03
+555.5000E-09,+33.4728024900E-03
+556.0000E-09,+36.6108777236E-03
+556.5000E-09,+44.9790783461E-03
+557.0000E-09,+47.0711285014E-03
+557.5000E-09,+33.4728024900E-03
+558.0000E-09,+63.8075297464E-03
+558.5000E-09,+38.7029278789E-03
+559.0000E-09,+33.4728024900E-03
+559.5000E-09,+50.2092037350E-03
+560.0000E-09,+63.8075297464E-03
+560.5000E-09,+38.7029278788E-03
+561.0000E-09,+47.0711285013E-03
+561.5000E-09,+44.9790783461E-03
+562.0000E-09,+33.4728024900E-03
+562.5000E-09,+28.2426771011E-03
+563.0000E-09,+19.8744764786E-03
+563.5000E-09,+21.9665266338E-03
+564.0000E-09,+16.7364012450E-03
+564.5000E-09,+21.9665266338E-03
+565.0000E-09,+19.8744764787E-03
+565.5000E-09,+28.2426771012E-03
+566.0000E-09,+33.4728024900E-03
+566.5000E-09,+33.4728024900E-03
+567.0000E-09,+19.8744764787E-03
+567.5000E-09,+27.1966520226E-03
+568.0000E-09,+33.4728024900E-03
+568.5000E-09,+16.7364012450E-03
+569.0000E-09,+16.7364012450E-03
+569.5000E-09,+11.5062758562E-03
+570.0000E-09,+16.7364012450E-03
+570.5000E-09,+0.0E+00
+571.0000E-09,-3.1380752337E-03
+571.5000E-09,+5.2301253888E-03
+572.0000E-09,+16.7364012450E-03
+572.5000E-09,+16.7364012450E-03
+573.0000E-09,+16.7364012450E-03
+573.5000E-09,+16.7364012450E-03
+574.0000E-09,+3.1380752337E-03
+574.5000E-09,+28.2426771012E-03
+575.0000E-09,+13.5983260113E-03
+575.5000E-09,+16.7364012450E-03
+576.0000E-09,+16.7364012450E-03
+576.5000E-09,+16.7364012450E-03
+577.0000E-09,+13.5983260113E-03
+577.5000E-09,+0.0E+00
+578.0000E-09,+0.0E+00
+578.5000E-09,+16.7364012450E-03
+579.0000E-09,+19.8744764788E-03
+579.5000E-09,+11.5062758563E-03
+580.0000E-09,+16.7364012450E-03
+580.5000E-09,+11.5062758563E-03
+581.0000E-09,+13.5983260112E-03
+581.5000E-09,+0.0E+00
+582.0000E-09,+13.5983260112E-03
+582.5000E-09,+11.5062758563E-03
+583.0000E-09,+0.0E+00
+583.5000E-09,+0.0E+00
+584.0000E-09,+13.5983260112E-03
+584.5000E-09,+0.0E+00
+585.0000E-09,+16.7364012450E-03
+585.5000E-09,+16.7364012450E-03
+586.0000E-09,+0.0E+00
+586.5000E-09,+16.7364012450E-03
+587.0000E-09,-3.1380752338E-03
+587.5000E-09,+0.0E+00
+588.0000E-09,-13.5983260112E-03
+588.5000E-09,-11.5062758563E-03
+589.0000E-09,+27.1966520224E-03
+589.5000E-09,+0.0E+00
+590.0000E-09,+0.0E+00
+590.5000E-09,+0.0E+00
+591.0000E-09,+0.0E+00
+591.5000E-09,+5.2301253887E-03
+592.0000E-09,+16.7364012450E-03
+592.5000E-09,-11.5062758563E-03
+593.0000E-09,+10.4602507773E-03
+593.5000E-09,+0.0E+00
+594.0000E-09,+0.0E+00
+594.5000E-09,-5.2301253886E-03
+595.0000E-09,-16.7364012450E-03
+595.5000E-09,+0.0E+00
+596.0000E-09,-3.1380752339E-03
+596.5000E-09,-11.5062758564E-03
+597.0000E-09,+13.5983260111E-03
+597.5000E-09,+0.0E+00
+598.0000E-09,+3.1380752339E-03
+598.5000E-09,+0.0E+00
+599.0000E-09,-13.5983260111E-03
+599.5000E-09,+0.0E+00
+600.0000E-09,+3.1380752339E-03
+600.5000E-09,+0.0E+00
+601.0000E-09,+0.0E+00
+601.5000E-09,-11.5062758564E-03
+602.0000E-09,-13.5983260111E-03
+602.5000E-09,-11.5062758564E-03
+603.0000E-09,+0.0E+00
+603.5000E-09,+0.0E+00
+604.0000E-09,+3.1380752339E-03
+604.5000E-09,+0.0E+00
+605.0000E-09,-16.7364012450E-03
+605.5000E-09,-21.9665266336E-03
+606.0000E-09,-16.7364012450E-03
+606.5000E-09,-16.7364012450E-03
+607.0000E-09,-16.7364012450E-03
+607.5000E-09,-11.5062758564E-03
+608.0000E-09,-13.5983260111E-03
+608.5000E-09,-5.2301253886E-03
+609.0000E-09,+0.0E+00
+609.5000E-09,-16.7364012450E-03
+610.0000E-09,+0.0E+00
+610.5000E-09,+0.0E+00
+611.0000E-09,-3.1380752340E-03
+611.5000E-09,-16.7364012450E-03
+612.0000E-09,+0.0E+00
+612.5000E-09,-16.7364012450E-03
+613.0000E-09,-16.7364012450E-03
+613.5000E-09,-28.2426771015E-03
+614.0000E-09,-16.7364012450E-03
+614.5000E-09,-5.2301253885E-03
+615.0000E-09,+0.0E+00
+615.5000E-09,-5.2301253885E-03
+616.0000E-09,-13.5983260110E-03
+616.5000E-09,+0.0E+00
+617.0000E-09,+0.0E+00
+617.5000E-09,+5.2301253885E-03
+618.0000E-09,-16.7364012450E-03
+618.5000E-09,+11.5062758565E-03
+619.0000E-09,-13.5983260110E-03
+619.5000E-09,-11.5062758565E-03
+620.0000E-09,-13.5983260110E-03
+620.5000E-09,-5.2301253885E-03
+621.0000E-09,+0.0E+00
+621.5000E-09,-16.7364012450E-03
+622.0000E-09,+0.0E+00
+622.5000E-09,-6.2761504681E-03
+623.0000E-09,+0.0E+00
+623.5000E-09,+5.2301253885E-03
+624.0000E-09,+0.0E+00
+624.5000E-09,-11.5062758565E-03
+625.0000E-09,+0.0E+00
+625.5000E-09,-11.5062758565E-03
+626.0000E-09,-16.7364012450E-03
+626.5000E-09,-5.2301253884E-03
+627.0000E-09,-13.5983260109E-03
+627.5000E-09,+0.0E+00
+628.0000E-09,-3.1380752341E-03
+628.5000E-09,+0.0E+00
+629.0000E-09,-13.5983260109E-03
+629.5000E-09,-11.5062758566E-03
+630.0000E-09,-16.7364012450E-03
+630.5000E-09,-11.5062758566E-03
+631.0000E-09,-13.5983260109E-03
+631.5000E-09,+5.2301253884E-03
+632.0000E-09,-13.5983260109E-03
+632.5000E-09,-16.7364012450E-03
+633.0000E-09,+0.0E+00
+633.5000E-09,-28.2426771016E-03
+634.0000E-09,-16.7364012450E-03
+634.5000E-09,-16.7364012450E-03
+635.0000E-09,-3.1380752341E-03
+635.5000E-09,-16.7364012450E-03
+636.0000E-09,+0.0E+00
+636.5000E-09,+0.0E+00
+637.0000E-09,-3.1380752341E-03
+637.5000E-09,-5.2301253884E-03
+638.0000E-09,-13.5983260109E-03
+638.5000E-09,-16.7364012450E-03
+639.0000E-09,-6.2761504683E-03
+639.5000E-09,-16.7364012450E-03
+640.0000E-09,-13.5983260109E-03
+640.5000E-09,-11.5062758566E-03
+641.0000E-09,+0.0E+00
+641.5000E-09,-5.2301253883E-03
+642.0000E-09,-3.1380752342E-03
+642.5000E-09,-5.2301253883E-03
+643.0000E-09,+0.0E+00
+643.5000E-09,-5.2301253883E-03
+644.0000E-09,-13.5983260108E-03
+644.5000E-09,-16.7364012450E-03
+645.0000E-09,-3.1380752342E-03
+645.5000E-09,-28.2426771017E-03
+646.0000E-09,-19.8744764792E-03
+646.5000E-09,+0.0E+00
+647.0000E-09,-16.7364012450E-03
+647.5000E-09,-5.2301253883E-03
+648.0000E-09,-16.7364012450E-03
+648.5000E-09,-16.7364012450E-03
+649.0000E-09,+0.0E+00
+649.5000E-09,-11.5062758567E-03
+650.0000E-09,-16.7364012450E-03
+650.5000E-09,-5.2301253883E-03
+651.0000E-09,-13.5983260108E-03
+651.5000E-09,-16.7364012450E-03
+652.0000E-09,-27.1966520216E-03
+652.5000E-09,-11.5062758567E-03
+653.0000E-09,+0.0E+00
+653.5000E-09,-16.7364012450E-03
+654.0000E-09,-30.3347272558E-03
+654.5000E-09,-28.2426771017E-03
+655.0000E-09,-16.7364012450E-03
+655.5000E-09,-11.5062758567E-03
+656.0000E-09,-3.1380752342E-03
+656.5000E-09,-16.7364012450E-03
+657.0000E-09,-13.5983260107E-03
+657.5000E-09,-16.7364012450E-03
+658.0000E-09,-16.7364012450E-03
+658.5000E-09,-21.9665266332E-03
+659.0000E-09,-30.3347272557E-03
+659.5000E-09,+0.0E+00
+660.0000E-09,-16.7364012450E-03
+660.5000E-09,-16.7364012450E-03
+661.0000E-09,-19.8744764793E-03
+661.5000E-09,-5.2301253882E-03
+662.0000E-09,-3.1380752343E-03
+662.5000E-09,-6.2761504686E-03
+663.0000E-09,-13.5983260107E-03
+663.5000E-09,-11.5062758568E-03
+664.0000E-09,-16.7364012450E-03
+664.5000E-09,-16.7364012450E-03
+665.0000E-09,+0.0E+00
+665.5000E-09,-16.7364012450E-03
+666.0000E-09,-13.5983260107E-03
+666.5000E-09,-5.2301253882E-03
+667.0000E-09,-16.7364012450E-03
+667.5000E-09,-5.2301253882E-03
+668.0000E-09,-16.7364012450E-03
+668.5000E-09,-11.5062758568E-03
+669.0000E-09,-16.7364012450E-03
+669.5000E-09,-16.7364012450E-03
+670.0000E-09,-3.1380752343E-03
+670.5000E-09,-11.5062758568E-03
+671.0000E-09,-19.8744764793E-03
+671.5000E-09,-11.5062758568E-03
+672.0000E-09,-16.7364012450E-03
+672.5000E-09,-16.7364012450E-03
+673.0000E-09,-30.3347272556E-03
+673.5000E-09,-16.7364012450E-03
+674.0000E-09,-30.3347272556E-03
+674.5000E-09,-21.9665266331E-03
+675.0000E-09,+0.0E+00
+675.5000E-09,-16.7364012450E-03
+676.0000E-09,-16.7364012450E-03
+676.5000E-09,-5.2301253881E-03
+677.0000E-09,-16.7364012450E-03
+677.5000E-09,-28.2426771019E-03
+678.0000E-09,-16.7364012450E-03
+678.5000E-09,-16.7364012450E-03
+679.0000E-09,-16.7364012450E-03
+679.5000E-09,-5.2301253881E-03
+680.0000E-09,-16.7364012450E-03
+680.5000E-09,-16.7364012450E-03
+681.0000E-09,+0.0E+00
+681.5000E-09,-11.5062758569E-03
+682.0000E-09,-3.1380752344E-03
+682.5000E-09,-5.2301253881E-03
+683.0000E-09,+0.0E+00
+683.5000E-09,-16.7364012450E-03
+684.0000E-09,-27.1966520212E-03
+684.5000E-09,-16.7364012450E-03
+685.0000E-09,-3.1380752344E-03
+685.5000E-09,-16.7364012450E-03
+686.0000E-09,-3.1380752344E-03
+686.5000E-09,-16.7364012450E-03
+687.0000E-09,-16.7364012450E-03
+687.5000E-09,+5.2301253881E-03
+688.0000E-09,-16.7364012450E-03
+688.5000E-09,-28.2426771019E-03
+689.0000E-09,-3.1380752344E-03
+689.5000E-09,-16.7364012450E-03
+690.0000E-09,-16.7364012450E-03
+690.5000E-09,-10.4602507761E-03
+691.0000E-09,-16.7364012450E-03
+691.5000E-09,+0.0E+00
+692.0000E-09,-13.5983260105E-03
+692.5000E-09,-16.7364012450E-03
+693.0000E-09,-16.7364012450E-03
+693.5000E-09,-16.7364012450E-03
+694.0000E-09,-13.5983260105E-03
+694.5000E-09,-11.5062758570E-03
+695.0000E-09,-13.5983260105E-03
+695.5000E-09,-6.2761504690E-03
+696.0000E-09,-16.7364012450E-03
+696.5000E-09,-16.7364012450E-03
+697.0000E-09,-3.1380752345E-03
+697.5000E-09,-28.2426771020E-03
+698.0000E-09,-16.7364012450E-03
+698.5000E-09,-21.9665266330E-03
+699.0000E-09,-16.7364012450E-03
+699.5000E-09,-16.7364012450E-03
+700.0000E-09,-13.5983260105E-03
+700.5000E-09,-11.5062758570E-03
+701.0000E-09,-16.7364012450E-03
+701.5000E-09,-5.2301253880E-03
+702.0000E-09,-13.5983260105E-03
+702.5000E-09,-16.7364012450E-03
+703.0000E-09,-19.8744764795E-03
+703.5000E-09,-16.7364012450E-03
+704.0000E-09,-13.5983260105E-03
+704.5000E-09,-16.7364012450E-03
+705.0000E-09,-13.5983260104E-03
+705.5000E-09,+0.0E+00
+706.0000E-09,-3.1380752346E-03
+706.5000E-09,-16.7364012450E-03
+707.0000E-09,+0.0E+00
+707.5000E-09,-5.2301253879E-03
+708.0000E-09,+3.1380752346E-03
+708.5000E-09,-16.7364012450E-03
+709.0000E-09,-16.7364012450E-03
+709.5000E-09,-11.5062758571E-03
+710.0000E-09,-16.7364012450E-03
+710.5000E-09,+0.0E+00
+711.0000E-09,-3.1380752346E-03
+711.5000E-09,-5.2301253879E-03
+712.0000E-09,-13.5983260104E-03
+712.5000E-09,-11.5062758571E-03
+713.0000E-09,-13.5983260104E-03
+713.5000E-09,-16.7364012450E-03
+714.0000E-09,-33.4728024900E-03
+714.5000E-09,-11.5062758571E-03
+715.0000E-09,-19.8744764796E-03
+715.5000E-09,-16.7364012450E-03
+716.0000E-09,-30.3347272554E-03
+716.5000E-09,-28.2426771021E-03
+717.0000E-09,-13.5983260104E-03
+717.5000E-09,+0.0E+00
+718.0000E-09,-3.1380752346E-03
+718.5000E-09,-11.5062758571E-03
+719.0000E-09,+0.0E+00
+719.5000E-09,+0.0E+00
+720.0000E-09,-3.1380752347E-03
+720.5000E-09,-16.7364012450E-03
+721.0000E-09,+13.5983260103E-03
+721.5000E-09,+5.2301253878E-03
+722.0000E-09,+0.0E+00
+722.5000E-09,-5.2301253878E-03
+723.0000E-09,-13.5983260103E-03
+723.5000E-09,-11.5062758572E-03
+724.0000E-09,-3.1380752347E-03
+724.5000E-09,-16.7364012450E-03
+725.0000E-09,-16.7364012450E-03
+725.5000E-09,-5.2301253878E-03
